sigma logical_error_rate trials
0.31 0.0 5000
0.3 0.0 5000
0.33 0.0 5000
0.76 0.611 5000
0.6 0.2644666666666667 15000
0.58 0.188 5000
0.75 0.6261 10000
0.83 0.722 5000
0.42 0.0016 5000
0.71 0.5679 10000
0.67 0.4807 10000
0.38 0.0 5000
0.34 0.0 5000
0.55 0.11686666666666666 15000
0.51 0.05 15000
0.43 0.002 5000
0.58 0.1975 10000
0.68 0.4885 10000
0.5 0.03626666666666667 15000
0.57 0.1684 5000
0.82 0.7028 5000
0.81 0.6996 5000
0.69 0.51 10000
0.7 0.543 10000
0.44 0.002 5000
0.37 0.0 5000
0.61 0.295 10000
0.54 0.09726666666666667 15000
0.74 0.6109 10000
0.78 0.658 5000
0.57 0.172 10000
0.45 0.006333333333333333 15000
0.62 0.322 10000
0.79 0.676 5000
0.36 0.0 5000
0.46 0.0094 15000
0.53 0.07926666666666667 15000
0.73 0.584 10000
0.63 0.3713 10000
0.56 0.14386666666666667 15000
0.8 0.702 5000
0.4 0.0 5000
0.64 0.3928 10000
0.85 0.7484 5000
0.35 0.0 5000
0.72 0.582 10000
0.48 0.023866666666666668 15000
0.77 0.6442 5000
0.52 0.06680000000000001 15000
0.65 0.401 10000
0.47 0.015333333333333332 15000
0.32 0.0 5000
0.39 0.0 5000
0.49 0.028866666666666665 15000
0.41 0.0018 5000
0.84 0.7446 5000
0.66 0.4735 10000
0.59 0.23193333333333332 15000
