sigma logical_error_rate trials
0.3 0.0 5000
0.31 0.0 5000
0.33 0.0 5000
0.76 0.7456 5000
0.6 0.23853333333333335 15000
0.58 0.1526 5000
0.75 0.7204999999999999 10000
0.83 0.7464 5000
0.42 0.0 5000
0.71 0.6907 10000
0.67 0.6108 10000
0.38 0.0 5000
0.34 0.0 5000
0.55 0.048 15000
0.51 0.007666666666666666 15000
0.43 0.0 5000
0.58 0.1577 10000
0.68 0.6392 10000
0.5 0.0027333333333333333 15000
0.57 0.1048 5000
0.82 0.735 5000
0.81 0.7522 5000
0.69 0.6466 10000
0.7 0.6755 10000
0.44 0.0 5000
0.37 0.0 5000
0.61 0.3044 10000
0.54 0.029266666666666667 15000
0.74 0.7199 10000
0.78 0.7628 5000
0.57 0.1069 10000
0.45 0.0 15000
0.62 0.3825 10000
0.79 0.7554 5000
0.36 0.0 5000
0.46 0.0 15000
0.53 0.017866666666666666 15000
0.73 0.7216 10000
0.63 0.4189 10000
0.56 0.0758 15000
0.8 0.7678 5000
0.4 0.0 5000
0.64 0.4774 10000
0.85 0.751 5000
0.35 0.0 5000
0.72 0.7202 10000
0.48 0.0008666666666666666 15000
0.77 0.7696 5000
0.52 0.0086 15000
0.65 0.5415 10000
0.47 0.00039999999999999996 15000
0.32 0.0 5000
0.39 0.0 5000
0.49 0.0018 15000
0.41 0.0 5000
0.84 0.7644 5000
0.66 0.5736 10000
0.59 0.19566666666666666 15000
