sigma logical_error_rate trials
0.1 0.0 400
0.15 0.0 400
0.2 0.008 500
0.25 0.14799999999999994 500
0.3 0.3977777777777778 450
0.35 0.7 400
0.4 0.7775 400
0.45 0.72 300
0.5 0.78 300
0.55 0.7633333333333333 300
0.21 0.03 100
0.22 0.03 100
0.23 0.03 100
0.24 0.03 100
0.26 0.14 100
0.27 0.14 100
0.28 0.23 100
0.28999 0.27 100
0.31 0.53 100
0.32 0.5 100
0.33 0.6 100
0.34 0.68 100
0.36 0.72 100
0.37 0.72 100
0.38 0.7 100
0.39 0.74 100
