sigma logical_error_rate trials
0.15 0.0 2400
0.16 0.0024999999999999983 2400
0.17 0.0012500000000000005 2400
0.18 0.0012500000000000005 2400
0.19 0.00875 2400
0.2 0.010000000000000004 2400
0.21 0.020000000000000007 2400
0.22 0.03624999999999999 2400
0.23 0.05958333333333334 2400
0.24 0.06874999999999998 2400
0.25 0.10166666666666667 2400
