sigma logical_error_rate trials
0.15 0.0 26400
0.16 0.0 26400
0.17 0.0 26400
0.18 0.00011363636363636366 26400
0.19 0.00018939393939393934 26400
0.2 0.0007196969696969697 26400
0.21 0.0020833333333333333 26400
0.22 0.004621212121212121 26400
0.23 0.009696969696969695 26400
0.24 0.016780303030303027 26400
0.25 0.030757575757575758 26400
0.26 0.050777777777777776 18000
0.27 0.0811111111111111 18000
0.28 0.13099999999999998 18000
0.28999 0.15655555555555556 18000
0.3 0.2232222222222222 18000
0.31 0.28122222222222215 18000
0.32 0.3381111111111111 18000
0.33 0.41355555555555557 18000
0.34 0.44855555555555554 18000
0.35 0.4836666666666667 18000
0.36 0.5403333333333333 18000
