sigma logical_error_rate trials
0.15 0.0 3000
0.16 0.0 3000
0.23 0.020000000000000004 3000
0.19 0.0 3000
0.24 0.03499999999999997 3000
0.21 0.004999999999999998 3000
0.2 0.0 3000
0.18 0.004999999999999998 3000
0.22 0.004999999999999998 3000
0.17 0.0 3000
0.25 0.07999999999999996 3000
