sigma logical_error_rate trials
0.15 0.0 6000
0.16 0.0 6000
0.18 0.0 6000
0.23 0.02 6000
0.24 0.0425 6000
0.21 0.0024999999999999996 6000
0.17 0.0 6000
0.19 0.0 6000
0.22 0.0024999999999999996 6000
0.2 0.0 6000
0.25 0.0675 6000
