sigma logical_error_rate trials
0.15 0.0 450
0.1 0.0 500
0.3 0.28750000000000003 400
0.55 0.825 400
0.4 0.73 400
0.2 0.0 400
0.45 0.8075 400
0.25 0.0625 400
0.35 0.7225 400
0.5 0.7375 400
0.1 0.0 10
0.1 0.0 10
0.1 0.0 10
0.1 0.0 10
0.1 0.0 10
0.15 0.0 10
0.15 0.0 10
0.15 0.0 10
0.15 0.0 10
0.15 0.0 10
0.1 0.0 10
0.1 0.0 10
0.1 0.0 10
0.1 0.0 10
0.1 0.0 10
0.2 0.0 10
0.2 0.0 10
0.2 0.0 10
0.2 0.0 10
0.2 0.0 10
0.15 0.0 10
0.15 0.0 10
0.15 0.0 10
0.15 0.0 10
0.2 0.0 10
0.15 0.0 10
0.2 0.0 10
0.2 0.0 10
0.2 0.0 10
0.2 0.0 10
0.25 0.2 10
0.25 0.2 10
0.25 0.2 10
0.25 0.2 10
0.25 0.2 10
0.25 0.1 10
0.25 0.1 10
0.3 0.3 10
0.3 0.3 10
0.3 0.3 10
0.25 0.1 10
0.3 0.3 10
0.25 0.1 10
0.25 0.2 10
0.3 0.3 10
0.35 0.7 10
0.3 0.3 10
0.35 0.7 10
0.3 0.3 10
0.35 0.6 10
0.35 0.6 10
0.35 0.7 10
0.3 0.3 10
0.35 0.7 10
0.35 0.6 10
0.3 0.3 10
0.35 0.6 10
0.35 0.6 10
0.3 0.3 10
0.35 0.7 10
0.4 0.4 10
0.4 0.4 10
0.4 0.4 10
0.4 0.4 10
0.45 0.8 10
0.45 0.8 10
0.45 0.8 10
0.4 0.8 10
0.4 0.8 10
0.45 0.8 10
0.4 0.8 10
0.4 0.8 10
0.45 0.7 10
0.4 0.8 10
0.4 0.8 10
0.45 0.8 10
0.45 0.8 10
0.5 0.5 10
0.5 0.5 10
0.45 0.8 10
0.45 0.8 10
0.5 0.5 10
0.5 0.5 10
0.5 0.5 10
0.5 0.5 10
0.45 0.8 10
0.5 0.5 10
0.5 0.5 10
0.5 0.5 10
0.5 0.8 10
0.55 0.9 10
0.55 0.9 10
0.55 0.9 10
0.55 0.8 10
0.55 0.8 10
0.55 0.8 10
0.55 0.8 10
0.55 0.8 10
0.55 0.8 10
0.55 0.8 10
0.2 0.0 10
0.2 0.0 10
0.2 0.0 10
0.2 0.0 10
0.2 0.0 10
0.2 0.0 10
0.2 0.0 10
0.21 0.0 10
0.21 0.0 10
0.2 0.0 10
0.2 0.0 10
0.21 0.0 10
0.21 0.0 10
0.21 0.0 10
0.2 0.0 10
0.22 0.0 10
0.22 0.0 10
0.22 0.0 10
0.22 0.0 10
0.22 0.0 10
0.22 0.0 10
0.22 0.0 10
0.22 0.0 10
0.21 0.0 10
0.22 0.0 10
0.21 0.0 10
0.21 0.0 10
0.21 0.0 10
0.21 0.0 10
0.22 0.0 10
0.23 0.1 10
0.24 0.1 10
0.23 0.1 10
0.23 0.1 10
0.23 0.1 10
0.23 0.1 10
0.24 0.1 10
0.23 0.1 10
0.23 0.1 10
0.23 0.1 10
0.23 0.1 10
0.23 0.1 10
0.24 0.1 10
0.24 0.1 10
0.24 0.1 10
0.24 0.1 10
0.24 0.1 10
0.25 0.1 10
0.25 0.1 10
0.25 0.1 10
0.25 0.1 10
0.24 0.1 10
0.25 0.1 10
0.25 0.1 10
0.25 0.1 10
0.25 0.1 10
0.24 0.1 10
0.25 0.1 10
0.24 0.1 10
0.25 0.1 10
0.26 0.0 10
0.26 0.0 10
0.26 0.0 10
0.27 0.1 10
0.27 0.1 10
0.26 0.0 10
0.27 0.1 10
0.26 0.0 10
0.26 0.0 10
0.27 0.1 10
0.26 0.0 10
0.26 0.0 10
0.26 0.0 10
0.26 0.0 10
0.27 0.1 10
0.27 0.0 10
0.28 0.1 10
0.28 0.1 10
0.28 0.1 10
0.28 0.1 10
0.28 0.1 10
0.28 0.1 10
0.28 0.1 10
0.28 0.1 10
0.28 0.1 10
0.27 0.0 10
0.27 0.0 10
0.27 0.0 10
0.27 0.0 10
0.28 0.1 10
0.29 0.3 10
0.29 0.3 10
0.29 0.3 10
0.29 0.3 10
0.29 0.3 10
0.29 0.3 10
0.29 0.3 10
0.29 0.3 10
0.29 0.3 10
0.3 0.5 10
0.29 0.3 10
0.3 0.5 10
0.3 0.5 10
0.3 0.5 10
0.3 0.5 10
0.3 0.1 10
0.31 0.3 10
0.31 0.3 10
0.31 0.3 10
0.31 0.3 10
0.31 0.3 10
0.3 0.1 10
0.31 0.3 10
0.31 0.3 10
0.31 0.3 10
0.31 0.3 10
0.3 0.1 10
0.3 0.1 10
0.3 0.1 10
0.31 0.3 10
0.32 0.4 10
0.32 0.4 10
0.33 0.4 10
0.32 0.4 10
0.33 0.4 10
0.33 0.4 10
0.32 0.4 10
0.33 0.4 10
0.32 0.4 10
0.32 0.4 10
0.32 0.4 10
0.32 0.4 10
0.32 0.4 10
0.32 0.4 10
0.33 0.4 10
0.34 0.6 10
0.34 0.6 10
0.33 0.3 10
0.33 0.3 10
0.34 0.6 10
0.34 0.6 10
0.34 0.6 10
0.34 0.6 10
0.34 0.6 10
0.34 0.6 10
0.33 0.3 10
0.34 0.6 10
0.33 0.3 10
0.33 0.3 10
0.34 0.6 10
0.35 0.4 10
0.35 0.4 10
0.35 0.4 10
0.35 0.4 10
0.35 0.4 10
0.35 0.4 10
0.36 0.4 10
0.35 0.4 10
0.35 0.4 10
0.35 0.4 10
0.36 0.4 10
0.35 0.4 10
0.36 0.4 10
0.36 0.4 10
0.36 0.4 10
0.37 0.7 10
0.36 0.7 10
0.37 0.7 10
0.36 0.7 10
0.36 0.7 10
0.37 0.7 10
0.37 0.7 10
0.36 0.7 10
0.37 0.7 10
0.36 0.7 10
0.37 0.7 10
0.37 0.7 10
0.37 0.7 10
0.37 0.7 10
0.37 0.7 10
0.38 0.7 10
0.38 0.7 10
0.39 0.7 10
0.38 0.7 10
0.39 0.7 10
0.38 0.7 10
0.38 0.7 10
0.38 0.7 10
0.39 0.7 10
0.39 0.7 10
0.38 0.7 10
0.38 0.7 10
0.38 0.7 10
0.38 0.7 10
0.39 0.7 10
0.39 0.5 10
0.4 0.5 10
0.4 0.5 10
0.39 0.5 10
0.39 0.5 10
0.4 0.5 10
0.39 0.5 10
0.4 0.5 10
0.4 0.5 10
0.4 0.5 10
0.39 0.5 10
0.4 0.5 10
0.4 0.5 10
0.4 0.5 10
0.4 0.5 10
