sigma logical_error_rate trials
0.3 0.4305555555555556 1800
0.2 0.007222222222222222 1800
0.33 0.54 1500
0.25 0.09866666666666667 1500
0.21 0.012 1500
0.17 0.0 1500
0.28999 0.31933333333333336 1500
0.38 0.7020000000000002 1500
0.13 0.0 1500
0.34 0.6439999999999999 1500
0.26 0.14266666666666664 1500
0.22 0.028 1500
0.18 0.0 1500
0.4 0.8022222222222222 1800
0.35 0.6686666666666666 1500
0.1 0.0 1500
0.31 0.48533333333333334 1500
0.14 0.0 1500
0.27 0.24933333333333332 1500
0.23 0.043333333333333335 1500
0.19 0.0 1500
0.15 0.0 1500
0.36 0.6519999999999998 1500
0.11 0.0 1500
0.32 0.606666666666667 1500
0.39 0.74 1500
0.28 0.2973333333333333 1500
0.24 0.060666666666666674 1500
0.16 0.0 1500
0.12 0.0 1500
0.37 0.6686666666666664 1500
