sigma logical_error_count trials
0.2 12 12000
0.205 12 12000
0.21 12 12000
0.215 29 12000
0.22 44 12000
0.225 58 12000
0.23 95 12000
0.235 130 12000
0.24 130 12000
0.245 145 8000
0.25 194 8000
0.255 301 8000
0.26 307 8000
0.265 170 4000
0.27 270 4000
0.275 310 4000
0.28 406 4000
0.28499 475 4000
0.28999 525 4000
0.295 656 4000
0.3 716 4000
0.305 458 2000
0.31 462 2000
0.315 476 2000
0.32 591 2000
0.325 619 2000
0.33 700 2000
0.335 750 2000
0.34 781 2000
0.345 848 2000
0.35 899 2000
0.355 957 2000
0.36 1047 2000
0.365 1099 2000
0.37 1108 2000
0.375 1152 2000
0.38 1148 2000
0.385 1232 2000
0.39 1207 2000
0.395 1289 2000
0.4 1300 2000
