sigma logical_error_count trials
0.2 1 38600
0.205 2 35600
0.21 0 32600
0.215 5 30000
0.22 20 28800
0.225 36 26000
0.23 114 25200
0.235 234 24000
0.24 576 22900
0.245 452 8800
0.25 561 6100
0.27 898 2000
0.28 586 1000
0.255 839 6000
0.265 683 2000
0.26 1383 6000
0.275 1059 2000
