sigma logical_error_count trials
0.20101 955 2000
0.20606 950 2000
0.22626 1080 2000
0.24646 1190 2000
0.29696 1385 2000
0.23636 1170 2000
0.26666 1355 2000
0.27676 1340 2000
0.24141 1240 2000
0.29191 1465 2000
0.25151 1115 2000
0.21616 1205 2000
0.25656 1365 2000
0.21111 1100 2000
0.27171 1535 2000
0.26161 1380 2000
0.22121 1225 2000
0.28686 1395 2000
0.28181 1500 2000
0.23131 1110 2000
