sigma logical_error_count trials
0.2 0 6000
0.205 2 6000
0.21 1 6000
0.215 9 6000
0.22 5 6000
0.225 27 6000
0.23 41 6000
0.235 99 6000
0.24 192 6000
0.245 361 6000
0.25 698 6000
0.255 1050 6000
0.26 1652 6000
0.265 2244 6000
0.27 2729 6000
0.275 3247 6000
0.28 3802 6000
0.285 1349 2000
0.29 1364 2000
0.295 3062 4300
0.3 2966 4000
0.305 2994 4000
0.31 2969 4000
0.315 2992 4000
0.32 3079 4000
0.325 2972 4000
0.33 2953 4000
0.335 3037 4000
0.34 3027 4000
0.345 2069 2800
0.28999 2854 4000
0.28499 2661 4000
0.35 1491 2000
0.355 1542 2000
0.36 1452 2000
0.365 1496 2000
0.37 1480 2000
0.375 1470 2000
0.38 277 400
