sigma logical_error_count trials
0.20101 900 2000
0.20606 900 2000
0.26666 1349 2000
0.27676 1497 2000
0.22626 1130 2000
0.28181 1396 2000
0.29696 1482 2000
0.23636 1155 2000
0.24646 1320 2000
0.21111 1060 2000
0.22121 1080 2000
0.29191 1256 2000
0.25656 1265 2000
0.21616 1075 2000
0.27171 1405 2000
0.26161 1202 2000
0.23131 1155 2000
0.28686 1445 2000
0.24141 1110 2000
0.25151 1460 2000
