sigma logical_error_count trials
0.27676 1370 4000
0.40808 1559 2000
0.54949 1518 2000
0.44848 1493 2000
0.47373 1449 2000
0.33737 1468 2000
0.40303 1605 2000
0.39797 1548 2000
0.19595 0 2000
0.58484 1542 2000
0.49898 1540 2000
0.36262 1432 2000
0.21111 0 4000
0.25151 401 4000
0.1808 0 2000
0.41818 1499 2000
0.50404 1393 2000
0.38787 1442 2000
0.23636 99 4000
0.12525 0 2000
0.55454 1451 2000
0.52929 1564 2000
0.33232 1534 2000
0.30707 1461 2000
0.1505 0 2000
0.1909 0 2000
0.57979 1577 2000
0.35757 1463 2000
0.20606 0 4000
0.24646 216 4000
0.17575 0 2000
0.52424 1498 2000
0.38282 1522 2000
0.23131 26 4000
0.27171 1259 4000
0.1202 0 2000
0.43838 1416 2000
0.1707 0 2000
0.32727 1471 2000
0.1 0 2000
0.29696 2282 4000
0.14545 0 2000
0.31212 1363 2000
0.48383 1524 2000
0.46363 1561 2000
0.57474 1609 2000
0.41313 1369 2000
0.35252 1473 2000
0.20101 0 4000
0.24141 207 4000
0.55959 1494 2000
0.30202 1273 2000
0.15555 0 2000
0.48888 1541 2000
0.37777 1532 2000
0.1101 0 2000
0.26666 910 4000
0.11515 0 2000
0.43333 1478 2000
0.32222 1506 2000
0.53434 1568 2000
0.29191 2300 4000
0.1404 0 2000
0.10505 0 2000
0.53939 1513 2000
0.45858 1481 2000
0.34747 1507 2000
0.16565 0 2000
0.1303 0 2000
0.56464 1574 2000
0.51414 1547 2000
0.37272 1492 2000
0.22121 10 4000
0.26161 706 4000
0.22626 24 4000
0.42828 1501 2000
0.44343 1392 2000
0.31717 1385 2000
0.51919 1624 2000
0.28686 1875 4000
0.58989 1552 2000
0.13535 0 2000
0.46868 1511 2000
0.21616 20 4000
0.45353 1536 2000
0.34242 1469 2000
0.54444 1526 2000
0.1606 0 2000
0.49393 1493 2000
0.6 1450 2000
0.47878 1529 2000
0.36767 1504 2000
0.56969 1545 2000
0.25656 516 4000
0.18585 0 2000
0.50909 1526 2000
0.42323 1544 2000
0.39292 1556 2000
0.59494 1514 2000
0.28181 1664 4000
