sigma logical_error_count trials
0.2 0 12000
0.205 0 12000
0.21 0 12000
0.215 8 12000
0.22 8 12000
0.225 27 12000
0.23 56 12000
0.235 135 12000
0.24 236 12000
0.245 349 10000
0.25 587 10000
0.255 945 10000
0.26 1340 10000
0.265 805 4000
0.27 1070 4000
0.275 1405 4000
0.28 1710 4000
0.28499 1905 4000
0.28999 2224 4000
0.295 2410 4000
0.3 2570 4000
0.305 1357 2000
0.31 1387 2000
0.315 1448 2000
0.32 1540 2000
0.325 1495 2000
0.33 1482 2000
0.335 1481 2000
0.34 1474 2000
0.345 1414 1900
0.2 0 100
0.2 0 100
0.2 0 100
0.2 0 100
0.2 0 100
0.2 0 100
0.2 0 100
0.2 0 100
0.2 0 100
0.2 0 100
0.2 0 100
0.2 0 100
0.2 0 100
0.2 0 100
0.2 0 100
0.2 0 100
0.2 0 100
0.2 0 100
0.2 0 100
0.2 0 100
0.20500000000000002 0 100
0.20500000000000002 0 100
0.20500000000000002 0 100
0.20500000000000002 0 100
0.20500000000000002 0 100
0.20500000000000002 0 100
0.20500000000000002 0 100
0.20500000000000002 0 100
0.20500000000000002 0 100
0.20500000000000002 0 100
0.20500000000000002 0 100
0.20500000000000002 0 100
0.20500000000000002 0 100
0.20500000000000002 0 100
0.20500000000000002 0 100
0.20500000000000002 0 100
0.20500000000000002 0 100
0.20500000000000002 0 100
0.20500000000000002 0 100
0.20500000000000002 0 100
0.21000000000000002 0 100
0.21000000000000002 0 100
0.21000000000000002 0 100
0.21000000000000002 0 100
0.21000000000000002 0 100
0.21000000000000002 0 100
0.21000000000000002 0 100
0.21000000000000002 0 100
0.21000000000000002 0 100
0.21000000000000002 0 100
0.21000000000000002 0 100
0.21000000000000002 0 100
0.21000000000000002 0 100
0.21000000000000002 0 100
0.21000000000000002 0 100
0.21000000000000002 0 100
0.21000000000000002 0 100
0.21000000000000002 0 100
0.21000000000000002 0 100
0.21000000000000002 0 100
0.215 0 100
0.215 0 100
0.215 0 100
0.215 0 100
0.215 0 100
0.215 1 100
0.215 1 100
0.215 1 100
0.215 0 100
0.215 0 100
0.215 0 100
0.215 0 100
0.215 0 100
0.215 0 100
0.215 0 100
0.215 0 100
0.215 0 100
0.215 0 100
0.215 0 100
0.215 0 100
0.22 0 100
0.22 0 100
0.22 0 100
0.22 0 100
0.22 0 100
0.22 0 100
0.22 0 100
0.22 0 100
0.22 0 100
0.22 0 100
0.22 0 100
0.22 0 100
0.22 0 100
0.22 0 100
0.22 0 100
0.22 0 100
0.22 0 100
0.22 0 100
0.22 0 100
0.22 0 100
0.225 0 100
0.225 0 100
0.225 0 100
0.225 0 100
0.225 0 100
0.225 0 100
0.225 0 100
0.225 0 100
0.225 0 100
0.225 0 100
0.225 0 100
0.225 0 100
0.225 0 100
0.225 0 100
0.225 0 100
0.225 0 100
0.225 1 100
0.225 0 100
0.225 1 100
0.225 0 100
0.22999999999999998 0 100
0.22999999999999998 0 100
0.22999999999999998 0 100
0.22999999999999998 0 100
0.22999999999999998 0 100
0.22999999999999998 0 100
0.22999999999999998 0 100
0.22999999999999998 0 100
0.22999999999999998 0 100
0.22999999999999998 0 100
0.22999999999999998 0 100
0.22999999999999998 1 100
0.22999999999999998 1 100
0.22999999999999998 0 100
0.22999999999999998 0 100
0.22999999999999998 0 100
0.22999999999999998 0 100
0.22999999999999998 0 100
0.22999999999999998 0 100
0.22999999999999998 0 100
0.235 3 100
0.235 3 100
0.235 1 100
0.235 1 100
0.235 1 100
0.235 0 100
0.235 0 100
0.235 0 100
0.235 0 100
0.235 0 100
0.235 0 100
0.235 0 100
0.235 0 100
0.235 0 100
0.235 0 100
0.235 0 100
0.235 1 100
0.235 1 100
0.235 1 100
0.235 2 100
0.24 2 100
0.24 2 100
0.24 2 100
0.24 3 100
0.24 3 100
0.24 3 100
0.24 2 100
0.24 2 100
0.24 1 100
0.24 1 100
0.24 3 100
0.24 3 100
0.24 3 100
0.24 0 100
0.24 0 100
0.24 0 100
0.24 0 100
0.24 1 100
0.24 1 100
0.24 1 100
