sigma logical_error_count trials
0.20101 38 2000
0.20606 30 2000
0.21111 50 2000
0.21616 52 2000
0.22121 68 2000
0.22626 76 2000
0.23131 123 2000
0.23636 167 2000
0.24141 145 2000
0.24646 180 2000
0.25151 219 2000
0.25656 242 2000
0.26161 335 2000
0.26666 315 2000
0.27171 405 2000
0.27676 411 2000
0.28181 504 2000
0.28686 565 2000
0.29191 613 2000
0.29696 692 2000
