sigma logical_error_rate trials
0.32 0.0 2000
0.34 0.0 2000
0.36 0.0 2000
0.38 0.0 2000
0.4 0.03586206896551724 2900
0.42 0.3488 2500
0.37 0.0 2000
0.39 0.0045 2000
0.41 0.12437500000000001 1600
0.31 0.0 1000
0.33 0.0 1000
0.35 0.0 1000
0.43 0.571 1000
0.44 0.713 1000
0.45 0.736 1000
