sigma logical_error_rate trials
0.3 0.0 19000
0.31 0.0 19000
0.32 0.0 19000
0.339 0.0 19000
0.329 0.0 19000
0.35 0.0 19000
0.36 0.0 19000
0.38 0.0 19000
0.37 0.0 19000
0.39 0.0006315789473684211 19000
0.4 0.0013157894736842107 19000
0.42 0.004842105263157895 19000
0.41 0.002263157894736842 19000
0.43 0.006578947368421052 19000
0.44 0.010526315789473684 19000
0.449 0.015473684210526318 19000
0.459 0.022 19000
0.47 0.040363636363636365 55000
0.48 0.05709090909090909 55000
0.49 0.07890909090909093 55000
0.5 0.10661818181818182 55000
0.51 0.1382727272727273 55000
0.52 0.17692727272727274 55000
0.53 0.22696363636363637 55000
0.54 0.2665090909090909 55000
0.45 0.01741666666666666 36000
0.46 0.02375 36000
0.55 0.3134666666666666 45000
0.56 0.35913333333333325 45000
0.57 0.4056666666666667 45000
0.58 0.4578 45000
0.59 0.4972 45000
0.6 0.5334666666666669 45000
0.61 0.5650666666666669 45000
0.62 0.5988666666666667 45000
0.63 0.6296000000000002 45000
0.64 0.6410666666666668 45000
0.65 0.6775999999999999 45000
