sigma logical_error_rate trials
0.3 0.0 19000
0.31 0.0 19000
0.32 0.0 19000
0.339 0.0 19000
0.329 0.0 19000
0.35 0.0002105263157894737 19000
0.36 0.0002105263157894737 19000
0.37 0.0013684210526315789 19000
0.38 0.0007894736842105261 19000
0.39 0.0014736842105263158 19000
0.4 0.003368421052631579 19000
0.41 0.006736842105263158 19000
0.42 0.012526315789473684 19000
0.43 0.015 19000
0.44 0.02205263157894737 19000
0.449 0.03763157894736842 19000
0.459 0.04815789473684211 19000
0.47 0.06554545454545453 55000
0.48 0.0834 55000
0.49 0.1056 55000
0.5 0.13403636363636362 55000
0.51 0.16427272727272726 55000
0.52 0.19656363636363636 55000
0.53 0.23352727272727272 55000
0.54 0.2695090909090909 55000
0.45 0.03141666666666667 36000
0.46 0.044333333333333336 36000
0.55 0.30726666666666663 45000
0.56 0.3516666666666667 45000
0.57 0.3882 45000
0.58 0.42346666666666666 45000
0.59 0.45993333333333336 45000
0.6 0.4958666666666667 45000
0.61 0.5309999999999999 45000
0.62 0.5600666666666667 45000
0.63 0.5813333333333334 45000
0.64 0.6057333333333335 45000
0.65 0.6298666666666666 45000
