sigma logical_error_rate trials
0.4 0.0 3000
0.41 0.0 3000
0.42 0.0 3000
0.43 0.0023333333333333335 3000
0.44 0.005666666666666667 3000
0.45 0.009333333333333334 3000
0.46 0.013 3000
0.47 0.021333333333333333 3000
0.48 0.035 3000
0.49 0.05533333333333333 3000
0.5 0.076 3000
0.51 0.12433333333333334 3000
0.52 0.16 3000
0.53 0.20533333333333334 3000
0.54 0.24866666666666667 3000
0.55 0.31933333333333336 3000
0.56 0.36933333333333335 3000
0.57 0.413 3000
0.58 0.471 3000
0.59 0.5193333333333333 3000
0.6 0.5626666666666666 3000
0.61 0.5896666666666667 3000
0.62 0.627 3000
0.63 0.6696666666666666 3000
0.64 0.6866666666666666 3000
0.65 0.6853333333333333 3000
0.66 0.7 3000
0.67 0.7133333333333334 3000
0.68 0.7116666666666667 3000
0.69 0.743 3000
0.7 0.7636666666666667 3000
0.71 0.7393333333333333 3000
0.72 0.7136666666666667 3000
0.73 0.726 3000
0.74 0.7393333333333333 3000
0.75 0.74 3000
