sigma logical_error_rate trials
0.31 0.0 5000
0.32 0.0 5000
0.33 0.0 5000
0.34 0.0 5000
0.35 0.0 5000
0.36 0.0 5000
0.37 0.0004 5000
0.38 0.001 5000
0.39 0.0114 5000
0.4 0.0354 5000
0.41 0.1224 5000
0.42 0.2878 5000
0.43 0.4926 5000
0.44 0.6702 5000
0.45 0.7352 5000
0.46 0.7518 5000
