sigma logical_error_rate trials
0.4 0.001 3000
0.41 0.001 3000
0.42 0.002 3000
0.43 0.004 3000
0.44 0.007 3000
0.45 0.013333333333333334 3000
0.46 0.020666666666666667 3000
0.47 0.03333333333333333 3000
0.48 0.05533333333333333 3000
0.49 0.075 3000
0.5 0.09733333333333333 3000
0.51 0.14733333333333334 3000
0.52 0.17366666666666666 3000
0.53 0.22333333333333333 3000
0.54 0.279 3000
0.55 0.32566666666666666 3000
0.56 0.36433333333333334 3000
0.57 0.394 3000
0.58 0.44733333333333336 3000
0.59 0.5036666666666667 3000
0.6 0.5386666666666666 3000
0.61 0.5626666666666666 3000
0.62 0.609 3000
0.63 0.6166666666666667 3000
0.64 0.6406666666666667 3000
0.65 0.657 3000
0.66 0.686 3000
0.67 0.6923333333333334 3000
0.68 0.7206666666666667 3000
0.69 0.7433333333333333 3000
0.7 0.7313333333333333 3000
0.71 0.7346666666666667 3000
0.72 0.736 3000
0.73 0.7186666666666667 3000
0.74 0.7376666666666667 3000
0.75 0.7433333333333333 3000
