n_steps logical_error_rate trials
1.0 0.07278355855370411 0
2.0 0.1349722243159272 0
3.0 0.18810826528638735 0
4.0 0.2335094459582765 0
5.0 0.2723017076464861 0
6.0 0.3054470916346669 0
7.0 0.3337675976302702 0
8.0 0.35796556921307043 0
9.0 0.3786411118327154 0
10.0 0.3963069753185874 0
