n_steps logical_error_rate trials
1.0 0.03622870738266709 0
2.0 0.0698323762880963 0
3.0 0.10100121021800784 0
4.0 0.129911631020108 0
5.0 0.15672727747111004 0
6.0 0.18159993150501125 0
7.0 0.20467037732926346 0
8.0 0.2260691982916066 0
9.0 0.24591751600799217 0
10.0 0.2643276759352074 0
