n_steps logical_error_rate trials
1.0 0.31894915255156797 0
2.0 0.4048628267663469 0
3.0 0.45000806757633044 0
4.0 0.47373063312155783 0
5.0 0.4861961800086875 0
6.0 0.49274647739953986 0
7.0 0.49618847607774524 0
8.0 0.49799715043157117 0
9.0 0.49894755838463095 0
10.0 0.4994469712697247 0
