n_steps logical_error_rate trials
1.0 0.07339306054437433 0
2.0 0.12087484668665927 0
3.0 0.16307186175105565 0
4.0 0.20057230613217347 0
5.0 0.23389891292261117 0
6.0 0.2635162344902374 0
7.0 0.2898371180520126 0
8.0 0.3132284605098598 0
9.0 0.3340163227674512 0
10.0 0.3524904748183362 0
