n_steps logical_error_rate trials
1.0 0.021930714908437232 0
2.0 0.04289951730408409 0
3.0 0.06294859804511044 0
4.0 0.08211829743832133 0
5.0 0.10044718640698641 0
6.0 0.11797214409853102 0
7.0 0.1347284320882443 0
8.0 0.15074976532830542 0
9.0 0.16606837998488488 0
10.0 0.18071509829981303 0
