n_steps logical_error_rate trials
0.0 0.3585756023524224 0
1.0 0.4705628885188502 0
2.0 0.4938727436936799 0
3.0 0.4987246279286818 0
4.0 0.4997345347021601 0
5.0 0.49994474410570683 0
6.0 0.49998849863285716 0
7.0 0.4999976060210798 0
8.0 0.4999995016996676 0
9.0 0.49999989628011376 0
10.0 0.4999999784109821 0
