n_steps logical_error_rate trials
1.0 0.42389415151122634 0
2.0 0.47397359375717435 0
3.0 0.49109958255026204 0
4.0 0.49695626702970425 0
5.0 0.4989591150699636 0
6.0 0.4996440418893016 0
7.0 0.49987827071666074 0
8.0 0.4999583714544579 0
9.0 0.49998576401867806 0
10.0 0.49999513162995346 0
