n_steps logical_error_rate trials
1.0 0.31379091937518944 0
2.0 0.3972411994545615 0
3.0 0.44329293150416704 0
4.0 0.4687064115158764 0
5.0 0.48273074757363565 0
6.0 0.49047002616792273 0
7.0 0.49474091877298493 0
8.0 0.4970977952469033 0
9.0 0.4983984289146114 0
10.0 0.4991161788502979 0
