n_steps logical_error_rate trials
1.0 0.3606407496240034 0
2.0 0.4378382866181687 0
3.0 0.4722725359088865 0
4.0 0.4876320612303345 0
5.0 0.49448323478456074 0
6.0 0.49753922630043035 0
7.0 0.498902362713652 0
8.0 0.4995103947946973 0
9.0 0.4997816097721524 0
10.0 0.49990258622436456 0
