n_steps logical_error_rate trials
1.0 0.13503142064713558 0
2.0 0.22314289788644037 0
3.0 0.28998231813098024 0
4.0 0.34068522584063937 0
5.0 0.3791473315981204 0
6.0 0.40832383539492023 0
7.0 0.4304564866639968 0
8.0 0.44724582700477766 0
9.0 0.459981849709496 0
10.0 0.4696431151935905 0
