n_steps logical_error_rate trials
1.0 0.4308393479049234 0
2.0 0.47788756713479547 0
3.0 0.49293008853435916 0
4.0 0.49773956812275266 0
5.0 0.49927728200041716 0
6.0 0.49976892853433075 0
7.0 0.49992612053072244 0
8.0 0.49997637884035173 0
9.0 0.49999244770991746 0
10.0 0.49999758533931693 0
