n_steps logical_error_rate trials
0.0 0.15484450711097747 0
1.0 0.31035599251275925 0
2.0 0.39580102209938073 0
3.0 0.4427483781881996 0
4.0 0.4685433747420479 0
5.0 0.4827163101881722 0
6.0 0.4905035606629175 0
7.0 0.4947822275761294 0
8.0 0.49713312030952556 0
9.0 0.4984248068922949 0
10.0 0.49913451780526197 0
