n_steps logical_error_rate trials
1.0 0.05344478553856763 0
2.0 0.10117688087460824 0
3.0 0.14380691301356657 0
4.0 0.1818802393021871 0
5.0 0.2158839240743372 0
6.0 0.24625296956615006 0
7.0 0.273375880811321 0
8.0 0.2975996357071325 0
9.0 0.319234123832253 0
10.0 0.338556110801206 0
