n_steps logical_error_rate trials
1.0 0.3269940155071307 0
2.0 0.4086872969418982 0
3.0 0.45180507908892176 0
6.0 0.49291383124788096 0
4.0 0.47456268050517425 0
5.0 0.48657416153300276 0
7.0 0.4962599142163865 0
10.0 0.4994500897914329 0
8.0 0.4980259796008097 0
9.0 0.49895811038519694 0
