n_steps logical_error_rate trials
1.0 0.202675809419555 0
2.0 0.29201994917378693 0
3.0 0.3545167096655367 0
4.0 0.3982335676789145 0
5.0 0.4288137715090654 0
6.0 0.45020480711385236 0
7.0 0.46516796454690085 0
8.0 0.4756347827273208 0
9.0 0.4829563846894844 0
10.0 0.48807788908254207 0
0.0 0.07495118424514319 0
