n_steps logical_error_rate trials
1.0 0.11208939983056326 0
2.0 0.18223648684252863 0
3.0 0.23969865672638524 0
4.0 0.28676976271825594 0
5.0 0.3253288533995913 0
6.0 0.35691518312016796 0
7.0 0.3827896580517028 0
8.0 0.40398517075941975 0
9.0 0.4213478326156209 0
10.0 0.435570750026957 0
