n_steps logical_error_rate trials
1.0 0.18125695961504634 0
2.0 0.27551485796134023 0
3.0 0.34189904527717474 0
4.0 0.3886522659928906 0
5.0 0.42157974067737863 0
6.0 0.44476998452582306 0
7.0 0.4611024671988313 0
8.0 0.4726051487578269 0
9.0 0.4807062859637657 0
10.0 0.4864117750441029 0
