n_steps logical_error_rate trials
0.0 0.13265372617211824 0
1.0 0.2871390530204101 0
2.0 0.37665647924803114 0
3.0 0.4285278754634586 0
4.0 0.4585850593965201 0
5.0 0.47600187043113795 0
6.0 0.48609414345615404 0
7.0 0.4919421700902504 0
8.0 0.49533084332851185 0
9.0 0.4972944298567876 0
10.0 0.49843224155562355 0
