n_steps logical_error_rate trials
0.0 0.30728541132890197 0
1.0 0.4456002936263714 0
2.0 0.48464398531557135 0
3.0 0.49566528566590384 0
4.0 0.4987763916130354 0
5.0 0.4996545983496829 0
6.0 0.4999024996058275 0
7.0 0.49997247747121343 0
8.0 0.4999922309074005 0
9.0 0.49999780693117674 0
10.0 0.4999993809378892 0
