n_steps logical_error_rate trials
1.0 0.340136255206578 0
2.0 0.4097769025243677 0
3.0 0.4490803413330751 0
4.0 0.4712622187521725 0
5.0 0.4837811153360219 0
6.0 0.490846467322062 0
7.0 0.49483397519484373 0
8.0 0.49708442486343957 0
9.0 0.4983545223459932 0
10.0 0.49907133358496464 0
