n_steps logical_error_rate trials
1.0 0.029289599362876784 0
2.0 0.05686343746407785 0
3.0 0.08282202222351692 0
4.0 0.10725997388769348 0
5.0 0.13026636992488388 0
6.0 0.15192506971664832 0
7.0 0.17231502022916956 0
8.0 0.19151054377860954 0
9.0 0.20958160893940203 0
10.0 0.22659408558295435 0
