n_steps logical_error_rate trials
1.0 0.24384583918684288 0
2.0 0.3377884073218539 0
3.0 0.39727826120156756 0
4.0 0.43495066876810856 0
5.0 0.45880701063657525 0
6.0 0.47391422262826716 0
7.0 0.48348098082699975 0
8.0 0.48953920404405327 0
9.0 0.49337562049623335 0
10.0 0.49580506072437275 0
