n_steps logical_error_rate trials
1.0 3.381538694724462e-06 0
2.0 6.763054517688882e-06 0
3.0 1.0144547471169219e-05 0
4.0 1.3526017555387515e-05 0
5.0 1.6907464770454794e-05 0
6.0 2.028888911648208e-05 0
7.0 2.3670290593746923e-05 0
8.0 2.705166920230484e-05 0
9.0 3.0433024942322362e-05 0
10.0 3.381435781396602e-05 0
