n_steps logical_error_rate trials
1.0 0.3091072497707026 0
2.0 0.39759547391564737 0
3.0 0.4450650328524032 0
4.0 0.47053010515353905 0
5.0 0.48419085789333255 0
6.0 0.49151917658848315 0
7.0 0.495450457383959 0
8.0 0.49755939523666237 0
9.0 0.498690736165472 0
10.0 0.4992976446599822 0
