n_steps logical_error_rate trials
0.0 0.34421395280805245 0
1.0 0.46389088581165455 0
2.0 0.4916303921245242 0
3.0 0.4980600372630621 0
4.0 0.49955034268311005 0
5.0 0.4998957754709496 0
6.0 0.49997584215346275 0
7.0 0.49999440053551086 0
8.0 0.49999870211930864 0
9.0 0.4999996991686808 0
10.0 0.4999999302713391 0
