n_steps logical_error_rate trials
1.0 0.3173132721575124 0
2.0 0.4042650790964075 0
3.0 0.4498311936030771 0
4.0 0.47370960239444365 0
5.0 0.4862228134193634 0
6.0 0.4927802206369995 0
7.0 0.49621655598947406 0
8.0 0.4980173288045141 0
9.0 0.4989610035040896 0
10.0 0.4994555255954836 0
0.0 0.15138697337616175 0
