n_steps logical_error_rate trials
0.0 0.07449183033262868 0
1.0 0.21145627184328225 0
2.0 0.3043339963985605 0
3.0 0.3673158303944677 0
4.0 0.4100247945996269 0
5.0 0.43898640952491 0
6.0 0.4586257324326536 0
7.0 0.4719434636872704 0
8.0 0.48097442501945903 0
9.0 0.4870984607898319 0
10.0 0.4912512649861175 0
