n_steps logical_error_rate trials
1.0 0.294303782835579 0
2.0 0.3848978141508846 0
4.0 0.4639588945045365 0
3.0 0.4355918481638666 0
6.0 0.4887147122728155 0
5.0 0.47983234655389684 0
10.0 0.4988935247567558 0
7.0 0.49368505020052544 0
8.0 0.49646632040458993 0
9.0 0.498022645962434 0
