n_steps logical_error_rate trials
1.0 0.005989918128347427 0
2.0 0.011908078018326163 0
3.0 0.017755339321882058 0
4.0 0.023532551392471235 0
5.0 0.029240553408434566 0
6.0 0.03488017449489372 0
7.0 0.040452233844187335 0
8.0 0.04595754083486381 0
9.0 0.05139689514924917 0
10.0 0.056771086889606026 0
