n_steps logical_error_rate trials
0.0 0.023021659515161608 0
1.0 0.04510304792887604 0
2.0 0.06616219345881152 0
3.0 0.08624642014518946 0
4.0 0.1054008611939215 0
5.0 0.12366856039979601 0
6.0 0.14109056887434762 0
7.0 0.15770603729577531 0
8.0 0.1735523038882134 0
9.0 0.1886649783280619 0
10.0 0.2030780217659301 0
