n_steps logical_error_rate trials
1.0 0.26978359106478134 0
2.0 0.362853650939516 0
3.0 0.41829808679748415 0
4.0 0.4513278868400096 0
5.0 0.47100466186652323 0
6.0 0.48272666669081976 0
7.0 0.4897097925798785 0
8.0 0.4938698358415369 0
9.0 0.49634808988046014 0
10.0 0.4978244550755161 0
0.0 0.11355445984454121 0
