n_steps logical_error_rate trials
0.0 0.21120522304437056 0
1.0 0.37699645194406 0
2.0 0.4476102961630968 0
3.0 0.4776861634359507 0
4.0 0.490496084807863 0
5.0 0.4959520899187342 0
6.0 0.4982759130637477 0
7.0 0.49926567643448583 0
8.0 0.49968723671206416 0
9.0 0.4998667877773854 0
10.0 0.49994326221478536 0
