n_steps logical_error_rate trials
1.0 0.02523308256091228 0
2.0 0.04919274821077285 0
3.0 0.07194326141768392 0
4.0 0.0935456434684887 0
5.0 0.11405783613969289 0
6.0 0.13353485710854135 0
7.0 0.1520289475210947 0
8.0 0.1695897121131102 0
9.0 0.1862642522595595 0
10.0 0.20209729230964762 0
