n_steps logical_error_rate trials
1.0 0.016471600572033174 0
2.0 0.03240057389325707 0
3.0 0.047804795842341485 0
4.0 0.06270155340928929 0
5.0 0.07710756409531477 0
6.0 0.09103899467362697 0
7.0 0.10451147933217325 0
8.0 0.11754013721870266 0
9.0 0.13013958940783887 0
10.0 0.14232397530920338 0
