n_steps logical_error_rate trials
1.0 0.07264182663765972 0
2.0 0.12738984892518956 0
3.0 0.17512420883014806 0
4.0 0.21674341296448818 0
5.0 0.2530308620100957 0
6.0 0.28466959671504616 0
7.0 0.3122551548090342 0
8.0 0.336306780844437 0
9.0 0.357277199966497 0
10.0 0.3755611395848646 0
