n_steps logical_error_rate trials
1.0 0.18518247255128878 0
2.0 0.2772150116997094 0
3.0 0.34234311407567153 0
7.0 0.4604614239299957 0
4.0 0.3884319187347853 0
5.0 0.4210473003813102 0
6.0 0.4441280274215616 0
8.0 0.47201997843464694 0
9.0 0.4801995497912847 0
10.0 0.48598793687302627 0
