n_steps logical_error_rate trials
0.0 0.08683207989481345 0
1.0 0.2289537518990491 0
2.0 0.322188352399434 0
3.0 0.3833520764668465 0
4.0 0.4234766774381258 0
5.0 0.4497992015756344 0
6.0 0.46706729297586236 0
7.0 0.47839549915582064 0
8.0 0.48582702428974195 0
9.0 0.49070225033513404 0
10.0 0.4939004941095083 0
