n_steps logical_error_rate trials
0.0 0.3164419608054049 0
1.0 0.45298104751869045 0
2.0 0.4879559516862352 0
3.0 0.4969148802317116 0
4.0 0.4992097371467859 0
5.0 0.4997975717560176 0
6.0 0.49994814738691673 0
7.0 0.49998671779475695 0
8.0 0.4999965977225519 0
9.0 0.49999912849623823 0
10.0 0.49999977676164914 0
