n_steps logical_error_rate trials
1.0 0.3495196735897445 0
2.0 0.4269390445628967 0
3.0 0.464527567578305 0
4.0 0.4827774841653288 0
5.0 0.4916381530268533 0
6.0 0.4959401700963129 0
7.0 0.4980288782012152 0
8.0 0.4990429842535728 0
9.0 0.4995353513215296 0
10.0 0.4997744045537283 0
