sigma logical_error_rate
200 0.001999428729107409
700 0.26413548622474714
900 0.3607838878314118
400 0.09551962660469164
600 0.21587435920702971
300 0.03519809724266996
100 8.462431130054859e-06
500 0.15705674844529735
800 0.31363267970674236
