n_steps logical_error_rate trials
0.0 0.10755100105147525 0
1.0 0.25483382323042203 0
2.0 0.3468426358766282 0
3.0 0.4043213117963431 0
4.0 0.44022872208091474 0
5.0 0.46266038204374144 0
6.0 0.47667362790859524 0
7.0 0.48542781997437484 0
8.0 0.4908966370823916 0
9.0 0.4943130529362142 0
10.0 0.4964473165357667 0
