n_steps logical_error_rate trials
1.0 0.08323608713185576 0
2.0 0.15261568186166774 0
3.0 0.21044550460727274 0
4.0 0.2586482710231318 0
5.0 0.2988266181082171 0
6.0 0.33231638839572614 0
7.0 0.3602310438078813 0
8.0 0.3834986858397528 0
9.0 0.40289291291258883 0
10.0 0.4190585408364457 0
