n_steps logical_error_rate trials
1.0 0.3400028614980271 0
2.0 0.42228754419258885 0
3.0 0.4622541637671579 0
4.0 0.4816664119269711 0
5.0 0.4910951647869692 0
6.0 0.49567481881586023 0
7.0 0.49789920960600575 0
8.0 0.49897962187210054 0
9.0 0.4995043905727711 0
10.0 0.4997592767841233 0
