n_steps logical_error_rate trials
0.0 0.20643795310456114 0
1.0 0.37057098614732564 0
2.0 0.44293584676890313 0
3.0 0.4748408993698377 0
4.0 0.48890756615707226 0
5.0 0.4951094401040625 0
6.0 0.49784379366742837 0
7.0 0.4990493469362304 0
8.0 0.49958086513614086 0
9.0 0.49981520699738174 0
10.0 0.4999185263342156 0
