n_steps logical_error_rate trials
1.0 0.046883671832670115 0
2.0 0.08820686538734379 0
3.0 0.12576147630792084 0
4.0 0.15989119088406872 0
5.0 0.1909083519861447 0
6.0 0.21909681751478666 0
7.0 0.24471455816630805 0
8.0 0.2679960182877106 0
9.0 0.2891542614270121 0
10.0 0.30838292021419267 0
