n_steps logical_error_rate trials
0.0 0.2187565127444081 0
1.0 0.38215036659939206 0
2.0 0.4506173948126454 0
3.0 0.4793071762319325 0
4.0 0.4913290731853502 0
5.0 0.49636661614346533 0
6.0 0.4984775009025999 0
7.0 0.49936202625620874 0
8.0 0.4997326694653139 0
9.0 0.49988798031976855 0
10.0 0.4999530603237154 0
