n_steps logical_error_rate trials
1.0 0.20569115565880086 0
2.0 0.2993735514488488 0
3.0 0.36323560221797546 0
4.0 0.4067695179984657 0
5.0 0.43644601288639745 0
6.0 0.45667608714101154 0
7.0 0.47046666132750786 0
8.0 0.47986751344498746 0
9.0 0.4862759500582547 0
10.0 0.49064449658074527 0
0.0 0.0682638232248407 0
