n_steps logical_error_rate trials
1.0 0.34850327612458637 0
2.0 0.4160973737863785 0
3.0 0.4535326540042418 0
4.0 0.47426523648506536 0
5.0 0.4857474525609862 0
6.0 0.4921065873256052 0
7.0 0.4956284331685334 0
8.0 0.49757891835251805 0
9.0 0.49865914520588317 0
10.0 0.499257401508629 0
