n_steps logical_error_rate trials
1.0 0.21008520637719807 0
2.0 0.30407601384516825 0
3.0 0.3675948616794572 0
4.0 0.4105208045337142 0
5.0 0.43953009284344696 0
6.0 0.45913452671912 0
7.0 0.47238317396210283 0
8.0 0.4813365900557349 0
9.0 0.4873872953296767 0
10.0 0.4914763529507276 0
