n_steps logical_error_rate trials
0.0 0.3208548489456614 0
1.0 0.4537803194839937 0
2.0 0.4880752626882225 0
3.0 0.49692340236091304 0
4.0 0.49920623383263235 0
5.0 0.49979520730288135 0
6.0 0.4999471632194501 0
7.0 0.49998636804232693 0
8.0 0.49999648293730115 0
9.0 0.4999990925932779 0
10.0 0.49999976588789286 0
