n_steps logical_error_rate trials
0.0 0.33679259769125375 0
1.0 0.46019428278699903 0
2.0 0.49029152415621474 0
3.0 0.49763213654196947 0
4.0 0.4994224863463542 0
5.0 0.49985914643050205 0
6.0 0.4999656463047842 0
7.0 0.49999162125334 0
8.0 0.49999795645286044 0
9.0 0.4999995015859673 0
10.0 0.49999987843855265 0
