n_steps logical_error_rate trials
1.0 0.4580701827197208 0
2.0 0.4884692320505757 0
3.0 0.49682902005952684 0
4.0 0.4991279753588845 0
5.0 0.49976019180537634 0
6.0 0.49993405235643906 0
7.0 0.49998186429075925 0
8.0 0.4999950126504617 0
9.0 0.4999986284707652 0
10.0 0.4999996228272297 0
