n_steps logical_error_rate trials
1.0 0.00042907983002848926 0
2.0 0.0008577914410558551 0
3.0 0.0012861351490728312 0
4.0 0.0017141112697989236 0
5.0 0.0021417201186827994 0
6.0 0.0025689620109022315 0
7.0 0.002995837261364709 0
8.0 0.0034223461847073255 0
9.0 0.0038484890952972806 0
10.0 0.004274266307231989 0
