n_steps logical_error_rate trials
0.0 0.13942294933099458 0
1.0 0.3021713746105276 0
2.0 0.39146240740813665 0
3.0 0.4404514438573043 0
4.0 0.46732901058517107 0
5.0 0.4820752404678616 0
6.0 0.4901656787859888 0
7.0 0.4946044534897695 0
8.0 0.4970397629373155 0
9.0 0.4983758821371152 0
10.0 0.49910893662342387 0
