n_steps logical_error_rate trials
1.0 0.391387972994841 0
2.0 0.44951716110763484 0
3.0 0.476535591012297 0
4.0 0.4890937494558083 0
5.0 0.4949307778859882 0
6.0 0.4976438270203804 0
7.0 0.49890485147720304 0
8.0 0.49949097528179875 0
9.0 0.4997634054574825 0
10.0 0.49989003092473216 0
