n_steps logical_error_rate trials
1.0 0.04943620407265409 0
2.0 0.09398453159908193 0
3.0 0.13412825870412592 0
4.0 0.17030287883836615 0
5.0 0.20290082716619234 0
6.0 0.23227573784224997 0
7.0 0.25874628036071246 0
8.0 0.28259961659546184 0
9.0 0.30409451603438176 0
10.0 0.3234641630029345 0
