n_steps logical_error_rate trials
1.0 0.131383053033455 0
2.0 0.20847090441713378 0
3.0 0.26943758481327384 0
4.0 0.3176544705067834 0
5.0 0.3557878911043097 0
6.0 0.38594657401284893 0
7.0 0.40979825425883304 0
8.0 0.42866189801549015 0
9.0 0.4435806396768026 0
10.0 0.45537946580117933 0
