n_steps logical_error_rate trials
0.0 0.23667021002388106 0
1.0 0.3971085595993836 0
2.0 0.45979699634943055 0
3.0 0.4842913900686532 0
4.0 0.49386213955255776 0
5.0 0.4976017399988335 0
6.0 0.49906292248211803 0
7.0 0.4996338535963187 0
8.0 0.49985693479315163 0
9.0 0.499944099810336 0
10.0 0.49997815799331435 0
