n_steps logical_error_rate trials
0.0 1.3433698597964394e-14 0
1.0 0.0005571288079378456 0
2.0 0.0011136368308449773 0
3.0 0.001669524760449348 0
4.0 0.002224793287694593 0
5.0 0.0027794431027545197 0
6.0 0.0033334748950338278 0
7.0 0.0038868893531692206 0
8.0 0.004439687165029904 0
9.0 0.0049918690177186975 0
10.0 0.0055434355975727545 0
