n_steps logical_error_rate trials
1.0 0.4643045263307849 0
2.0 0.49196156546760494 0
3.0 0.4981897864605918 0
4.0 0.49959234935047975 0
5.0 0.4999081991994665 0
6.0 0.49997932693842506 0
7.0 0.49999534453433525 0
8.0 0.49999895161340874 0
9.0 0.49999976390880657 0
10.0 0.49999994683349436 0
