n_steps logical_error_rate trials
0.0 5.551115123125783e-17 0
1.0 0.057905274684863894 0
2.0 0.10910450769706864 0
3.0 0.15437432940682133 0
4.0 0.19440142819449785 0
5.0 0.22979296668189725 0
6.0 0.261085791654031 0
7.0 0.28875457737481125 0
8.0 0.3132190258208747 0
9.0 0.3348502330523721 0
10.0 0.3539763182908594 0
