n_steps logical_error_rate trials
1.0 0.0001032216777333006 0
2.0 0.00020642204602072667 0
3.0 0.0003096011092778572 0
4.0 0.0004127588719028963 0
5.0 0.0005158953382933262 0
6.0 0.0006190105128455747 0
7.0 0.0007221043999551813 0
8.0 0.0008251770040167972 0
9.0 0.00092822832942413 0
10.0 0.0010312583805701658 0
