sigma logical_error_rate
690 0.19954126075877945
740 0.2331861582846606
170 3.498330395024673e-06
730 0.22308765474486264
400 0.02688356337216557
460 0.054203729368949426
330 0.007232645495516642
340 0.009207174521131388
970 0.3624991867678903
710 0.21167398017748704
800 0.2676001439050241
220 5.0339636831216227e-05
550 0.10704475354493478
770 0.24822027467501515
810 0.27720876391123994
410 0.03057919163901542
840 0.28901859243794525
580 0.12629885112100173
360 0.013718049948184229
230 0.00010906471670865287
650 0.17345914452146513
130 3.381538692583847e-06
590 0.13406578725603893
500 0.0761535750407079
470 0.05920698163099304
200 9.954456542929912e-06
280 0.001540446563457145
980 0.36314977302341883
440 0.044013548611644616
870 0.30528723383218154
960 0.34730904648955924
310 0.004251881536610379
190 4.981462807707014e-06
210 2.4615814539757255e-05
670 0.18468675892096847
120 3.381538692583847e-06
520 0.08833698719348254
430 0.039438659965237946
900 0.31882361525059305
450 0.049109697918628445
420 0.03469783347241454
380 0.019717856832104128
370 0.01652621304566233
750 0.23521336906758086
110 3.381538692583847e-06
320 0.005598733149751576
890 0.32325682697650826
790 0.2606125861791988
820 0.2773773192318436
940 0.34269858029206274
350 0.011257824160467974
660 0.18005256858020213
140 3.381538692583847e-06
880 0.3139407016754764
910 0.3285624383775417
950 0.34654713342339627
570 0.11921515236816042
990 0.3570404644132421
530 0.09400260181038905
680 0.19302111104864905
490 0.07065474860519988
160 3.381538692583847e-06
860 0.3093833439238376
620 0.15228151663865666
290 0.002217396222381828
150 3.381538692583847e-06
630 0.15821803454278532
300 0.003146930961405109
250 0.00040965811441483766
610 0.14595197123529724
700 0.2057113637599248
270 0.001031661085306123
240 0.00019815319264729033
920 0.33439859153228535
930 0.33328278641876846
390 0.023147160509709032
540 0.10092961182105276
180 3.856468862566636e-06
600 0.13947487938576264
780 0.2531120178382242
560 0.11302291991322043
830 0.288599500373006
760 0.24284010086491992
510 0.08240255557499565
720 0.21781251092228673
100 3.381538692583847e-06
480 0.06503141719521671
640 0.16579620628026573
260 0.0006330374063036535
850 0.29984373730367503
