n_steps logical_error_rate trials
1.0 0.44991122590368643 0
2.0 0.48424192944643946 0
3.0 0.49504246626013415 0
4.0 0.4984403458089382 0
5.0 0.4995093283629851 0
6.0 0.4998456333097743 0
7.0 0.49995143580094376 0
8.0 0.49998472156508295 0
9.0 0.49999519336099324 0
10.0 0.49999848781772044 0
