n_steps logical_error_rate trials
1.0 0.40147437783887 0
2.0 0.46174087022763644 0
3.0 0.4851433466865634 0
4.0 0.4942309156274881 0
5.0 0.4977597690546457 0
6.0 0.4991300812460925 0
7.0 0.499662196149924 0
8.0 0.49986882517405956 0
9.0 0.4999490626440266 0
10.0 0.4999802201816167 0
