n_steps logical_error_rate trials
1.0 0.00044833091103374523 0
2.0 0.0008962598208533956 0
3.0 0.0013437870899206672 0
4.0 0.0017909130783714255 0
5.0 0.002237638146018628 0
6.0 0.002683962652352767 0
7.0 0.0031298869565418164 0
8.0 0.0035754114174317286 0
9.0 0.004020536393546825 0
10.0 0.004465262243089796 0
