n_steps logical_error_rate trials
1.0 0.06765704393351091 0
2.0 0.12615913667937972 0
3.0 0.1767450721070294 0
4.0 0.22048601782338662 0
5.0 0.25830819736769395 0
6.0 0.2910125031858207 0
7.0 0.31929145569284345 0
8.0 0.34374386753554365 0
9.0 0.3648875235736001 0
10.0 0.38317014508069286 0
