n_steps logical_error_rate trials
0.0 0.35488871875098804 0
1.0 0.46844273017172755 0
2.0 0.49313725803781244 0
3.0 0.49850756331280044 0
4.0 0.4996754406216099 0
5.0 0.4999294182520408 0
6.0 0.4999846506264287 0
7.0 0.499996661980245 0
8.0 0.49999927408269573 0
9.0 0.4999998421351666 0
10.0 0.4999999656692223 0
