n_steps logical_error_rate trials
0.0 0.24890565127774644 0
1.0 0.4048813974750096 0
2.0 0.46396753414663666 0
3.0 0.48635031885447766 0
4.0 0.49482927990183506 0
5.0 0.49804124755380547 0
6.0 0.4992579928766915 0
7.0 0.49971891569447163 0
8.0 0.499893520716537 0
9.0 0.49995966392436786 0
10.0 0.4999847200418289 0
