sigma logical_error_rate
300 0.003146930961405109
310 0.004251881536610379
320 0.005598733149751576
330 0.007232645495516642
340 0.009207174521131388
350 0.01125782416052777
360 0.013718049948184229
370 0.01652621304566233
380 0.019717856832701313
390 0.02314716050970902
400 0.02688356337216556
410 0.03057919163901542
420 0.03469783347241454
430 0.039438659965237946
440 0.04401354861302156
450 0.049109697918628466
460 0.054203729368949426
470 0.05920698163099304
480 0.06503141719521671
490 0.07065474860519988
500 0.0761535750407079
510 0.08240255557499565
520 0.08833698719348254
530 0.09400260181038905
540 0.10092961182105276
550 0.10704475354493478
560 0.11302291991322042
570 0.11921515236816042
580 0.12629885112100173
590 0.134065787259313
600 0.13947487938815784
610 0.14595197123529724
620 0.15228151663865666
630 0.15821803454278532
640 0.16579620628026573
650 0.17345914452146513
660 0.18005256858020213
670 0.18468675892096847
680 0.19302111104864905
690 0.19954126075190487
700 0.2051244755441142
