n_steps logical_error_rate trials
1.0 0.08314473196388938 0
2.0 0.13454098770598882 0
3.0 0.17960033155837585 0
4.0 0.2191040743717762 0
5.0 0.25373719511537995 0
6.0 0.28410021813592684 0
7.0 0.3107196260076972 0
8.0 0.33405698852802856 0
9.0 0.3545169661514582 0
10.0 0.37245432663881195 0
