n_steps logical_error_rate trials
0.0 0.09379904282903567 0
1.0 0.2381233237064851 0
2.0 0.33116880357897754 0
3.0 0.3911549768830645 0
4.0 0.42982790320467673 0
5.0 0.45476023590566855 0
6.0 0.4708340444595755 0
7.0 0.4811967860660749 0
8.0 0.48787761800723745 0
9.0 0.49218473258375683 0
10.0 0.49496151789113246 0
