n_steps logical_error_rate trials
0.0 0.1003833577548145 0
1.0 0.18104966291289265 0
2.0 0.24543273033768398 0
3.0 0.29681948175640965 0
4.0 0.33783334342826143 0
5.0 0.3705681788244685 0
6.0 0.39669518576154517 0
7.0 0.4175482153622116 0
8.0 0.4341918685971016 0
9.0 0.44747584691142833 0
10.0 0.45807833167634654 0
