n_steps logical_error_rate trials
0.0 0.26030709948233777 0
1.0 0.4154854896800671 0
2.0 0.47020060903267463 0
3.0 0.489492884728765 0
4.0 0.49629524403891107 0
5.0 0.4986937216945931 0
6.0 0.49953941284416603 0
7.0 0.49983759928704236 0
8.0 0.49994273832599306 0
9.0 0.4999798098219499 0
10.0 0.4999928810448391 0
