n_steps logical_error_rate trials
0.0 0.06267322725118674 0
1.0 0.19445138042815124 0
2.0 0.2865212817055557 0
3.0 0.35084808032025055 0
4.0 0.39579150876542724 0
5.0 0.4271922904599368 0
6.0 0.4491311839786859 0
7.0 0.46445930712891836 0
8.0 0.47516866031976657 0
9.0 0.4826510014154271 0
10.0 0.4878787147305182 0
