n_steps logical_error_rate trials
0.0 0.049087852526876585 0
1.0 0.09337617122736686 0
2.0 0.1333145180224471 0
3.0 0.16933014452457568 0
4.0 0.20180833795096492 0
5.0 0.23109654284112868 0
6.0 0.2575080779418227 0
7.0 0.2813254880217921 0
8.0 0.30280356647329865 0
9.0 0.32217208103555306 0
10.0 0.3396382317992377 0
