n_steps logical_error_rate trials
0.0 0.002581919812532474 0
1.0 0.09034705870734644 0
2.0 0.16262679425228022 0
3.0 0.22215339258316108 0
4.0 0.2711770349931864 0
5.0 0.3115508776540269 0
6.0 0.34480110328126345 0
7.0 0.372184612786403 0
8.0 0.3947365377334576 0
9.0 0.41330936963150666 0
10.0 0.4286051852003785 0
