n_steps logical_error_rate trials
1.0 0.40251863407349164 0
2.0 0.4565968739849982 0
3.0 0.48067495946564437 0
4.0 0.4913956153405769 0
5.0 0.49616893764151765 0
6.0 0.4982942372551294 0
7.0 0.4992405170499649 0
8.0 0.499661843739331 0
9.0 0.49984943749346267 0
10.0 0.49993296274234295 0
