n_steps logical_error_rate trials
1.0 0.36926800295609163 0
2.0 0.4430167192343691 0
3.0 0.4751622069559288 0
4.0 0.48917373736627323 0
5.0 0.49528106372388 0
6.0 0.49794311662930574 0
7.0 0.49910344854156047 0
8.0 0.49960921239916545 0
9.0 0.499829664044904 0
10.0 0.4999257542011658 0
