n_steps logical_error_rate trials
0.0 0.16549707562098853 0
1.0 0.2764157073243779 0
2.0 0.3505545623433274 0
3.0 0.40010953556206796 0
4.0 0.4332324556568338 0
5.0 0.4553720667663266 0
6.0 0.47017035081487063 0
7.0 0.480061636154002 0
8.0 0.48667304632420616 0
9.0 0.49109216304564507 0
10.0 0.49404593419203546 0
