n_steps logical_error_rate trials
1.0 0.1442204578982026 0
2.0 0.2338821421696628 0
3.0 0.30094776153277364 0
4.0 0.35111185712281534 0
5.0 0.3886338618439259 0
6.0 0.41669976877857673 0
7.0 0.4376926538314724 0
8.0 0.4533950226831267 0
9.0 0.4651401633311194 0
10.0 0.47392535556194626 0
