n_steps logical_error_rate trials
1.0 0.21620542043609287 0
2.0 0.3078050655064011 0
3.0 0.36983932920156226 0
4.0 0.41185095347420025 0
5.0 0.4403025940497775 0
6.0 0.45957097192035307 0
7.0 0.47262014512275824 0
8.0 0.48145747032003927 0
9.0 0.4874423948383301 0
10.0 0.4914955806937809 0
