n_steps logical_error_rate trials
1.0 0.010996329032709973 0
2.0 0.021714294353628427 0
3.0 0.032197343686302504 0
4.0 0.0424506259111288 0
5.0 0.05247917705552396 0
6.0 0.06228792276743217 0
7.0 0.07188168073461859 0
8.0 0.08126516305093678 0
9.0 0.09044297853073241 0
10.0 0.09941963497251993 0
