n_steps logical_error_rate trials
1.0 0.33804212944302725 0
2.0 0.41994235493092114 0
3.0 0.46042658185140806 0
4.0 0.48043840257089737 0
5.0 0.49033047657037204 0
6.0 0.49522024294309314 0
7.0 0.4976373109089276 0
8.0 0.498832095507238 0
9.0 0.4994226913268582 0
10.0 0.49971462965837504 0
0.0 0.17235668982374003 0
