n_steps logical_error_rate trials
0.0 0.0105722443606735 0
1.0 0.10644477183154849 0
2.0 0.18353711894332841 0
3.0 0.24552807860597675 0
4.0 0.2953758160775589 0
5.0 0.33545903054234416 0
6.0 0.3676904649729622 0
7.0 0.3936081808878852 0
8.0 0.41444895357185063 0
9.0 0.4312072901278369 0
10.0 0.4446828866607707 0
