n_steps logical_error_rate trials
1.0 3.4983303974223112e-06 0
2.0 6.996636315814708e-06 0
3.0 1.0494917757786215e-05 0
4.0 1.3993174723447854e-05 0
5.0 1.749140721296616e-05 0
6.0 2.0989615226563174e-05 0
7.0 2.4487798764349922e-05 0
8.0 2.7985957826603958e-05 0
9.0 3.148409241338079e-05 0
10.0 3.498220252490247e-05 0
