n_steps logical_error_rate trials
0.0 0.02015693006329483 0
1.0 0.12372574569858374 0
2.0 0.20494037880183902 0
3.0 0.2686257322515022 0
4.0 0.31856530704280855 0
5.0 0.3577259773578082 0
6.0 0.38843425042438334 0
7.0 0.4125144826355811 0
8.0 0.43139726324939415 0
9.0 0.4462044046665599 0
10.0 0.4578155884975874 0
