n_steps logical_error_rate trials
1.0 4.448579945970366e-06 0
2.0 8.897120309381279e-06 0
3.0 1.3345621093396876e-05 0
4.0 1.7794082298461245e-05 0
5.0 2.224250392479643e-05 0
6.0 2.6690885972791012e-05 0
7.0 3.113922844288908e-05 0
8.0 3.558753133531267e-05 0
9.0 4.0035794650505885e-05 0
10.0 4.448401838874627e-05 0
