n_steps logical_error_rate trials
21.0 0.0643 100000
22.0 0.0677 100000
23.0 0.07018 100000
24.0 0.07192 100000
25.0 0.07421 100000
26.0 0.0792 100000
27.0 0.08193 100000
28.0 0.08336 100000
29.0 0.08429 100000
30.0 0.08625 100000
31.0 0.09042 100000
32.0 0.09302 100000
33.0 0.0954 100000
34.0 0.09871 100000
35.0 0.10115 100000
36.0 0.10417 100000
37.0 0.10857 100000
38.0 0.10962 100000
39.0 0.11075 100000
40.0 0.11596 100000
1.0 0.00615 100000
2.0 0.009720000000000001 100000
3.0 0.0122 100000
4.0 0.01609 100000
5.0 0.019169999999999996 100000
6.0 0.02239 100000
7.0 0.02403 100000
8.0 0.02693 100000
9.0 0.03041 100000
10.0 0.03418 100000
11.0 0.035690000000000006 100000
12.0 0.03979999999999999 100000
13.0 0.04223 100000
14.0 0.04559999999999999 100000
15.0 0.0475 100000
16.0 0.05048 100000
17.0 0.05304 100000
18.0 0.05584 100000
19.0 0.05903 100000
20.0 0.06132 100000
41.0 0.11642 100000
42.0 0.11988 100000
43.0 0.12257 100000
44.0 0.12269 100000
45.0 0.12574000000000002 100000
46.0 0.12983000000000003 100000
47.0 0.13172999999999996 100000
49.0 0.13729000000000002 100000
48.0 0.13272 100000
50.0 0.13798999999999997 100000
51.0 0.14201999999999998 100000
52.0 0.14055 100000
54.0 0.14687 100000
53.0 0.14342 100000
55.0 0.14778 100000
56.0 0.15101 100000
58.0 0.1565 100000
57.0 0.15377 100000
59.0 0.16060999999999998 100000
60.0 0.16190000000000002 100000
61.0 0.1622 100000
62.0 0.16579 100000
63.0 0.16796 100000
64.0 0.16857 100000
65.0 0.17071 100000
66.0 0.17155 100000
67.0 0.17503000000000005 100000
68.0 0.17623 100000
69.0 0.17983 100000
70.0 0.18358 100000
71.0 0.18643 100000
72.0 0.18693 100000
73.0 0.18898 100000
74.0 0.1864 100000
75.0 0.18954 100000
76.0 0.19293 100000
77.0 0.19375 100000
78.0 0.19491 100000
79.0 0.1947 100000
80.0 0.19985 100000
81.0 0.2026 100000
82.0 0.20278 100000
83.0 0.20973 100000
84.0 0.20543 100000
85.0 0.2069 100000
86.0 0.20804 100000
87.0 0.21348 100000
89.0 0.21471 100000
88.0 0.21205 100000
90.0 0.21904 100000
91.0 0.22181 100000
92.0 0.22464 100000
93.0 0.22931 100000
94.0 0.22451 100000
95.0 0.2264 100000
96.0 0.22772 100000
97.0 0.22965 100000
98.0 0.2282 100000
99.0 0.23413 100000
100.0 0.23498 100000
