n_steps logical_error_rate trials
1.0 6.666666666666666e-05 60000
2.0 0.00135 60000
3.0 0.00565 60000
4.0 0.0126 60000
5.0 0.02435 60000
6.0 0.037399999999999996 60000
7.0 0.0515 60000
8.0 0.06406666666666666 60000
9.0 0.08095 60000
10.0 0.09495 60000
