n_steps logical_error_rate trials
1.0 0.3402333333333334 150000
2.0 0.4082266666666667 150000
3.0 0.44754 150000
4.0 0.4723733333333333 150000
5.0 0.48450666666666664 150000
6.0 0.4909 150000
7.0 0.4930733333333333 150000
8.0 0.49683333333333335 150000
9.0 0.5010933333333333 150000
10.0 0.5005266666666667 150000
