n_steps logical_error_rate trials
1.0 0.00235 60000
2.0 0.010616666666666667 60000
3.0 0.026583333333333334 60000
4.0 0.047233333333333336 60000
5.0 0.07015 60000
6.0 0.09596666666666667 60000
7.0 0.11565 60000
8.0 0.13721666666666665 60000
9.0 0.16028333333333333 60000
10.0 0.18346666666666667 60000
