n_steps logical_error_rate trials
1.0 0.00325 60000
2.0 0.008966666666666666 60000
3.0 0.015433333333333334 60000
4.0 0.0206 60000
5.0 0.025683333333333332 60000
6.0 0.030883333333333336 60000
7.0 0.0369 60000
8.0 0.04165 60000
9.0 0.048016666666666666 60000
10.0 0.05366666666666667 60000
