n_steps logical_error_rate trials
1.0 0.2847349999999999 200000
2.0 0.3762400000000001 200000
3.0 0.429535 200000
4.0 0.458495 200000
5.0 0.47677 200000
6.0 0.48732 200000
7.0 0.492815 200000
8.0 0.49643 200000
9.0 0.49676 200000
10.0 0.49831 200000
0.0 0.12895000000000006 200000
