n_steps logical_error_rate trials
0.0 0.3109 100000
1.0 0.44482 100000
2.0 0.48645 100000
3.0 0.49609 100000
4.0 0.49897 100000
5.0 0.49842 100000
6.0 0.49971 100000
7.0 0.50109 100000
8.0 0.49982 100000
9.0 0.5008699999999999 100000
10.0 0.50329 100000
