n_steps logical_error_rate trials
1.0 0.1656 200000
2.0 0.25488000000000005 200000
3.0 0.3194499999999999 200000
4.0 0.36633 200000
5.0 0.405 200000
6.0 0.430045 200000
7.0 0.44868 200000
8.0 0.46167 200000
9.0 0.471735 200000
10.0 0.480125 200000
0.0 0.0491 200000
