n_steps logical_error_rate trials
0.0 0.05978 100000
1.0 0.1128 100000
2.0 0.15879 100000
3.0 0.19888 100000
4.0 0.23705 100000
5.0 0.26465 100000
6.0 0.29357000000000005 100000
7.0 0.31758000000000003 100000
8.0 0.34021 100000
9.0 0.36099 100000
10.0 0.37281 100000
