n_steps logical_error_rate trials
1.0 0.09478 200000
2.0 0.165395 200000
3.0 0.22512499999999996 200000
4.0 0.2743099999999999 200000
5.0 0.31195000000000006 200000
6.0 0.345835 200000
7.0 0.3744350000000001 200000
8.0 0.39964 200000
9.0 0.41558 200000
10.0 0.429035 200000
0.0 0.019735000000000003 200000
