n_steps logical_error_rate trials
0.0 0.01168 100000
1.0 0.02166 100000
2.0 0.03283000000000001 100000
3.0 0.04325 100000
4.0 0.05415 100000
5.0 0.06376000000000002 100000
6.0 0.07376 100000
7.0 0.08199 100000
8.0 0.09281 100000
9.0 0.10115 100000
10.0 0.11043 100000
