n_steps logical_error_rate trials
1.0 0.10293333333333334 60000
2.0 0.16421666666666668 60000
3.0 0.20903333333333332 60000
4.0 0.2547666666666667 60000
5.0 0.29136666666666666 60000
6.0 0.3263 60000
7.0 0.3464333333333333 60000
8.0 0.37245 60000
9.0 0.38863333333333333 60000
10.0 0.41218333333333335 60000
