n_steps logical_error_rate trials
1.0 0.36878333333333335 60000
2.0 0.43938333333333335 60000
3.0 0.4760666666666667 60000
4.0 0.48686666666666667 60000
5.0 0.49701666666666666 60000
6.0 0.49701666666666666 60000
7.0 0.5021833333333334 60000
8.0 0.5018499999999999 60000
9.0 0.49725 60000
10.0 0.50145 60000
