n_steps logical_error_rate trials
1.0 0.248075 40000
2.0 0.339125 40000
3.0 0.401525 40000
4.0 0.4381 40000
5.0 0.462025 40000
6.0 0.473725 40000
7.0 0.480975 40000
8.0 0.492375 40000
9.0 0.4914 40000
10.0 0.491675 40000
