n_steps logical_error_rate trials
1.0 0.4283266666666667 150000
2.0 0.4745333333333333 150000
3.0 0.4910933333333333 150000
4.0 0.4951 150000
5.0 0.49872666666666665 150000
6.0 0.5006600000000001 150000
7.0 0.5018266666666666 150000
8.0 0.5022000000000002 150000
9.0 0.49881333333333333 150000
10.0 0.5030933333333334 150000
