n_steps logical_error_rate trials
1.0 0.018533333333333332 60000
2.0 0.03696666666666667 60000
3.0 0.056416666666666664 60000
4.0 0.0744 60000
5.0 0.09773333333333334 60000
6.0 0.11186666666666667 60000
7.0 0.12805 60000
8.0 0.14325 60000
9.0 0.15626666666666666 60000
10.0 0.1716 60000
