n_steps logical_error_rate trials
1.0 0.45434 150000
2.0 0.48643333333333333 150000
3.0 0.49668 150000
4.0 0.49798 150000
5.0 0.4990466666666667 150000
6.0 0.5005066666666667 150000
7.0 0.5006333333333334 150000
8.0 0.5008533333333335 150000
9.0 0.49874 150000
10.0 0.50054 150000
