n_steps logical_error_rate trials
1.0 0.13298499999999996 200000
2.0 0.217265 200000
3.0 0.2813400000000001 200000
4.0 0.33250500000000005 200000
5.0 0.3707 200000
6.0 0.399875 200000
7.0 0.421775 200000
8.0 0.440675 200000
9.0 0.455235 200000
10.0 0.46539 200000
0.0 0.034085 200000
