n_steps logical_error_rate trials
1.0 0.24163333333333334 60000
2.0 0.3243 60000
3.0 0.3837833333333333 60000
4.0 0.4241 60000
5.0 0.44898333333333335 60000
6.0 0.468 60000
7.0 0.47945 60000
8.0 0.48265 60000
9.0 0.4864 60000
10.0 0.4963 60000
