n_steps logical_error_rate trials
1.0 0.0232 60000
2.0 0.04343333333333333 60000
3.0 0.06408333333333334 60000
4.0 0.08153333333333333 60000
5.0 0.10021666666666666 60000
6.0 0.11611666666666667 60000
7.0 0.12936666666666666 60000
8.0 0.14255 60000
9.0 0.15873333333333334 60000
10.0 0.1737 60000
