n_steps logical_error_rate trials
0.0 0.33273 100000
1.0 0.45926 100000
2.0 0.491 100000
3.0 0.49665 100000
4.0 0.50088 100000
5.0 0.49867 100000
6.0 0.49974 100000
7.0 0.49866 100000
8.0 0.49852 100000
9.0 0.5015399999999999 100000
10.0 0.50196 100000
