n_steps logical_error_rate trials
1.0 0.295475 40000
2.0 0.386025 40000
3.0 0.4353 40000
4.0 0.46355 40000
5.0 0.47715 40000
6.0 0.490775 40000
7.0 0.493075 40000
8.0 0.49815 40000
9.0 0.49905 40000
10.0 0.500275 40000
