n_steps logical_error_rate trials
1.0 0.35148000000000007 200000
2.0 0.430795 200000
3.0 0.467235 200000
4.0 0.48652 200000
5.0 0.491765 200000
6.0 0.49652 200000
7.0 0.5005849999999998 200000
8.0 0.5007650000000001 200000
9.0 0.5000800000000002 200000
10.0 0.49931 200000
0.0 0.1848 200000
