n_steps logical_error_rate trials
1.0 0.25115 40000
2.0 0.3463 40000
3.0 0.402075 40000
4.0 0.43965 40000
5.0 0.4596 40000
6.0 0.478425 40000
7.0 0.490975 40000
8.0 0.489575 40000
9.0 0.496925 40000
10.0 0.49365 40000
