n_steps logical_error_rate trials
1.0 0.217475 40000
2.0 0.309775 40000
3.0 0.378925 40000
4.0 0.412 40000
5.0 0.4408 40000
6.0 0.462375 40000
7.0 0.46765 40000
8.0 0.483075 40000
9.0 0.48915 40000
10.0 0.4948 40000
