n_steps logical_error_rate trials
1.0 0.20722222222222222 3600
2.0 0.28555555555555556 3600
3.0 0.3655555555555556 3600
4.0 0.39222222222222225 3600
5.0 0.42694444444444446 3600
6.0 0.45361111111111113 3600
7.0 0.47194444444444444 3600
8.0 0.4825 3600
9.0 0.4816666666666667 3600
10.0 0.48833333333333334 3600
