n_steps logical_error_rate trials
1 0.29 400
1 0.29 400
1 0.2625 400
1 0.2625 400
1 0.29 400
1 0.2625 400
2 0.3975 400
2 0.3975 400
2 0.3975 400
2 0.33 400
2 0.33 400
2 0.33 400
3 0.415 400
3 0.415 400
3 0.415 400
3 0.4225 400
3 0.4225 400
3 0.4225 400
4 0.485 400
4 0.485 400
4 0.485 400
4 0.5125 400
4 0.5125 400
4 0.5125 400
5 0.4575 400
5 0.4575 400
5 0.4575 400
5 0.4725 400
5 0.4725 400
5 0.4725 400
6 0.47 400
6 0.47 400
6 0.47 400
6 0.425 400
6 0.425 400
6 0.425 400
7 0.5025 400
7 0.5025 400
7 0.5025 400
7 0.5 400
7 0.5 400
7 0.5 400
8 0.515 400
8 0.515 400
8 0.515 400
8 0.52 400
8 0.52 400
8 0.52 400
9 0.465 400
9 0.465 400
9 0.465 400
9 0.49 400
9 0.49 400
9 0.49 400
10 0.505 400
10 0.505 400
10 0.505 400
10 0.505 400
1 0.25 400
1 0.275 400
1 0.3025 400
1 0.3 400
1 0.305 400
1 0.3225 400
2 0.3675 400
2 0.4075 400
2 0.375 400
10 0.505 400
2 0.39 400
2 0.415 400
2 0.3675 400
3 0.4675 400
3 0.3925 400
3 0.44 400
3 0.3775 400
3 0.43 400
3 0.44 400
4 0.4425 400
4 0.445 400
4 0.47 400
4 0.4875 400
4 0.4475 400
4 0.4825 400
5 0.4725 400
5 0.485 400
5 0.5225 400
5 0.49 400
10 0.505 400
5 0.49 400
5 0.5125 400
6 0.52 400
6 0.45 400
6 0.465 400
6 0.4675 400
6 0.4225 400
6 0.4925 400
7 0.4875 400
7 0.505 400
7 0.5 400
7 0.44 400
7 0.5625 400
7 0.495 400
8 0.4725 400
8 0.505 400
8 0.5175 400
8 0.4475 400
8 0.5375 400
8 0.5575 400
9 0.5 400
9 0.505 400
9 0.4625 400
9 0.5075 400
9 0.455 400
9 0.4925 400
10 0.5425 400
10 0.495 400
10 0.475 400
10 0.5275 400
10 0.5325 400
10 0.5125 400
