n_steps logical_error_rate trials
1.0 0.0058 60000
2.0 0.012683333333333333 60000
3.0 0.017983333333333334 60000
4.0 0.0249 60000
5.0 0.030833333333333334 60000
6.0 0.03625 60000
7.0 0.040933333333333335 60000
8.0 0.0495 60000
9.0 0.05396666666666667 60000
10.0 0.06051666666666667 60000
