n_steps logical_error_rate trials
1.0 0.3772138888888889 360000
2.0 0.44355 360000
3.0 0.4762722222222222 360000
4.0 0.48939166666666667 360000
5.0 0.4945222222222222 360000
6.0 0.497725 360000
7.0 0.4992222222222226 360000
8.0 0.5001083333333336 360000
9.0 0.5005638888888889 360000
10.0 0.5003749999999999 360000
