n_steps logical_error_rate trials
1.0 0.39090833333333336 360000
2.0 0.45574166666666666 360000
3.0 0.47978055555555554 360000
4.0 0.49217222222222223 360000
5.0 0.49570277777777777 360000
6.0 0.4992 360000
7.0 0.4990888888888889 360000
8.0 0.4995500000000001 360000
9.0 0.5005833333333334 360000
10.0 0.4997444444444444 360000
