n_steps logical_error_rate trials
1.0 0.43107222222222225 360000
2.0 0.4786944444444444 360000
3.0 0.4935805555555556 360000
4.0 0.4973166666666667 360000
5.0 0.4992138888888889 360000
6.0 0.5006805555555559 360000
7.0 0.49864722222222224 360000
8.0 0.5011138888888889 360000
9.0 0.5010388888888888 360000
10.0 0.49993055555555554 360000
