n_steps logical_error_rate trials
1.0 0.272125 40000
2.0 0.366875 40000
3.0 0.42 40000
4.0 0.456375 40000
5.0 0.4662 40000
6.0 0.48065 40000
7.0 0.491375 40000
8.0 0.49225 40000
9.0 0.492825 40000
10.0 0.497025 40000
