n_steps logical_error_rate trials
1.0 0.36574375 160000
2.0 0.438175 160000
3.0 0.47065625 160000
4.0 0.486425 160000
5.0 0.4933 160000
6.0 0.49810625 160000
7.0 0.49876875 160000
8.0 0.49943125 160000
9.0 0.50055 160000
10.0 0.4999374999999999 160000
0.0 0.20339 100000
