n_steps logical_error_rate trials
0.0 0.06972 100000
1.0 0.19797 100000
2.0 0.29527000000000003 100000
3.0 0.35848 100000
4.0 0.40236 100000
5.0 0.43488 100000
6.0 0.45588 100000
7.0 0.46923 100000
8.0 0.47842 100000
9.0 0.4851 100000
10.0 0.4911 100000
