n_steps logical_error_rate trials
0.0 0.32288000000000006 100000
1.0 0.45979 100000
2.0 0.48724 100000
3.0 0.5007400000000001 100000
4.0 0.49916999999999995 100000
5.0 0.50236 100000
6.0 0.50075 100000
7.0 0.50052 100000
8.0 0.50022 100000
9.0 0.49786 100000
10.0 0.50141 100000
