n_steps logical_error_rate trials
0.0 0.01141 100000
1.0 0.07171999999999998 100000
2.0 0.14337000000000003 100000
3.0 0.20498999999999995 100000
4.0 0.25837999999999994 100000
5.0 0.2992400000000001 100000
6.0 0.33213 100000
7.0 0.3644 100000
8.0 0.38646 100000
9.0 0.40861 100000
10.0 0.42397 100000
