n_steps logical_error_rate trials
1.0 0.46368 150000
2.0 0.4915333333333333 150000
3.0 0.49550666666666665 150000
4.0 0.49790666666666666 150000
5.0 0.50018 150000
6.0 0.49898 150000
7.0 0.5006133333333334 150000
8.0 0.4996666666666666 150000
9.0 0.4997 150000
10.0 0.4993666666666667 150000
