n_steps logical_error_rate trials
1.0 0.31333333333333335 60000
2.0 0.3957333333333333 60000
3.0 0.4431333333333333 60000
4.0 0.47041666666666665 60000
5.0 0.4832 60000
6.0 0.4874833333333333 60000
7.0 0.49388333333333334 60000
8.0 0.49805 60000
9.0 0.4987666666666667 60000
10.0 0.49793333333333334 60000
