n_steps logical_error_rate trials
1.0 0.00875 60000
2.0 0.016300000000000002 60000
3.0 0.02525 60000
4.0 0.03256666666666666 60000
5.0 0.04115 60000
6.0 0.04955 60000
7.0 0.05733333333333333 60000
8.0 0.06488333333333333 60000
9.0 0.06845 60000
10.0 0.0804 60000
