n_steps logical_error_rate trials
1.0 0.076355 200000
2.0 0.139445 200000
3.0 0.19378 200000
4.0 0.23903 200000
5.0 0.27825000000000005 200000
6.0 0.312395 200000
7.0 0.3438550000000001 200000
8.0 0.364625 200000
9.0 0.38564 200000
10.0 0.403125 200000
0.0 0.014275 200000
