n_steps logical_error_rate trials
0.0 0.039529999999999996 100000
1.0 0.14607 100000
2.0 0.23342 100000
3.0 0.30228999999999995 100000
4.0 0.35124 100000
5.0 0.38822 100000
6.0 0.41962 100000
7.0 0.43791 100000
8.0 0.45433 100000
9.0 0.46528 100000
10.0 0.47609 100000
