n_steps logical_error_rate trials
0.0 0.09903 100000
1.0 0.24299 100000
2.0 0.34093 100000
3.0 0.39775 100000
4.0 0.43455 100000
5.0 0.46028 100000
6.0 0.47796 100000
7.0 0.48378 100000
8.0 0.48899 100000
9.0 0.4923 100000
10.0 0.4951 100000
