n_steps logical_error_rate trials
0.0 0.0959 100000
1.0 0.23558 100000
2.0 0.33132 100000
3.0 0.3914 100000
4.0 0.43272 100000
5.0 0.45797 100000
6.0 0.47109 100000
7.0 0.48147 100000
8.0 0.48765 100000
9.0 0.49408 100000
10.0 0.49558 100000
