n_steps logical_error_rate trials
1.0 0.0004999999999999999 60000
2.0 0.00046666666666666666 60000
3.0 0.0007833333333333334 60000
4.0 0.0013 60000
5.0 0.0013166666666666667 60000
6.0 0.0016666666666666668 60000
7.0 0.00205 60000
8.0 0.0020666666666666667 60000
9.0 0.0018166666666666667 60000
10.0 0.0021333333333333334 60000
