n_steps logical_error_rate trials
0.0 0.00713 100000
1.0 0.05623 100000
2.0 0.12081 100000
3.0 0.18123999999999996 100000
4.0 0.22956 100000
5.0 0.27374 100000
6.0 0.30625999999999987 100000
7.0 0.3355499999999999 100000
8.0 0.36089 100000
9.0 0.38345 100000
10.0 0.39948 100000
