n_steps logical_error_rate trials
1.0 0.153885 200000
2.0 0.241165 200000
3.0 0.309935 200000
4.0 0.357525 200000
5.0 0.394715 200000
6.0 0.4209699999999999 200000
7.0 0.441615 200000
8.0 0.45613 200000
9.0 0.46865 200000
10.0 0.473985 200000
0.0 0.04362 200000
