n_steps logical_error_rate trials
1.0 0.00065 40000
2.0 0.002925 40000
3.0 0.006375 40000
4.0 0.009925 40000
5.0 0.0139 40000
6.0 0.016825 40000
7.0 0.020975 40000
8.0 0.023925 40000
9.0 0.02585 40000
10.0 0.029825 40000
