n_steps logical_error_rate trials
1.0 0.14225 40000
2.0 0.230175 40000
3.0 0.30005 40000
4.0 0.34165 40000
5.0 0.380475 40000
6.0 0.4144 40000
7.0 0.431025 40000
8.0 0.4487 40000
9.0 0.4596 40000
10.0 0.471575 40000
