n_steps logical_error_rate trials
1.0 0.12311666666666667 60000
2.0 0.19338333333333332 60000
3.0 0.2558833333333333 60000
4.0 0.30261666666666664 60000
5.0 0.33955 60000
6.0 0.3743666666666667 60000
7.0 0.39635 60000
8.0 0.41635 60000
9.0 0.4352 60000
10.0 0.44375 60000
