n_steps logical_error_rate trials
0.0 0.23628 100000
1.0 0.39867 100000
2.0 0.45854 100000
3.0 0.48416 100000
4.0 0.49408 100000
5.0 0.49839 100000
6.0 0.50225 100000
7.0 0.50052 100000
8.0 0.49683 100000
9.0 0.50009 100000
10.0 0.49778 100000
