n_steps logical_error_rate trials
1.0 0.23228333333333334 60000
2.0 0.3270166666666667 60000
3.0 0.39486666666666664 60000
4.0 0.4305833333333333 60000
5.0 0.45238333333333336 60000
6.0 0.46936666666666665 60000
7.0 0.4796 60000
8.0 0.48783333333333334 60000
9.0 0.4936333333333333 60000
10.0 0.4943666666666667 60000
