n_steps logical_error_rate trials
1.0 0.33569333333333334 150000
2.0 0.40282666666666667 150000
3.0 0.44772666666666666 150000
4.0 0.46510666666666667 150000
5.0 0.481 150000
6.0 0.48850666666666664 150000
7.0 0.49344666666666664 150000
8.0 0.49783333333333335 150000
9.0 0.4980733333333333 150000
10.0 0.49858 150000
