n_steps logical_error_rate trials
1.0 0.22242 200000
2.0 0.3195349999999999 200000
3.0 0.380475 200000
4.0 0.42168 200000
5.0 0.447395 200000
6.0 0.46553 200000
7.0 0.477535 200000
8.0 0.48662 200000
9.0 0.490895 200000
10.0 0.493765 200000
0.0 0.08307499999999997 200000
