n_steps logical_error_rate trials
1.0 0.0819 40000
2.0 0.151925 40000
3.0 0.2045 40000
4.0 0.25625 40000
5.0 0.2995 40000
6.0 0.332275 40000
7.0 0.35827499999999995 40000
8.0 0.380475 40000
9.0 0.397625 40000
10.0 0.4166 40000
