n_steps logical_error_rate trials
1.0 0.32816666666666666 60000
2.0 0.40723333333333334 60000
3.0 0.45156666666666667 60000
4.0 0.47346666666666665 60000
5.0 0.48701666666666665 60000
6.0 0.4927666666666667 60000
7.0 0.4980833333333333 60000
8.0 0.4997 60000
9.0 0.49866666666666665 60000
10.0 0.49836666666666674 60000
