n_steps logical_error_rate trials
1.0 0.3242 60000
2.0 0.4091666666666667 60000
3.0 0.45476666666666665 60000
4.0 0.47476666666666667 60000
5.0 0.48901666666666666 60000
6.0 0.49411666666666665 60000
7.0 0.49905 60000
8.0 0.5011833333333334 60000
9.0 0.4995999999999999 60000
10.0 0.4972666666666667 60000
