n_steps logical_error_rate trials
0.0 0.00285 100000
1.0 0.00613 100000
2.0 0.00973 100000
3.0 0.01209 100000
4.0 0.015800000000000005 100000
5.0 0.01827 100000
6.0 0.022150000000000003 100000
7.0 0.02471 100000
8.0 0.02759 100000
9.0 0.0306 100000
10.0 0.03224 100000
