n_steps logical_error_rate trials
1.0 0.3645609756097561 41000
2.0 0.4386829268292683 41000
3.0 0.47053658536585363 41000
4.0 0.4805121951219512 41000
5.0 0.49929268292682927 41000
6.0 0.49407142857142855 14000
