n_steps logical_error_rate trials
1.0 0.17432 200000
2.0 0.26680999999999994 200000
3.0 0.33206499999999994 200000
4.0 0.380775 200000
5.0 0.41234 200000
6.0 0.43829 200000
7.0 0.456405 200000
8.0 0.46683 200000
9.0 0.47606 200000
10.0 0.48105 200000
0.0 0.052395 200000
