n_steps logical_error_rate trials
0.0 0.26456 100000
1.0 0.42238 100000
2.0 0.47214 100000
3.0 0.49096 100000
4.0 0.49664 100000
5.0 0.49781 100000
6.0 0.49923 100000
7.0 0.49986 100000
8.0 0.49967 100000
9.0 0.50011 100000
10.0 0.49739 100000
