n_steps logical_error_rate trials
1.0 0.19646666666666668 60000
2.0 0.28385 60000
3.0 0.34815 60000
4.0 0.39585 60000
5.0 0.42586666666666667 60000
6.0 0.4441833333333333 60000
7.0 0.46191666666666664 60000
8.0 0.4764833333333333 60000
9.0 0.481 60000
10.0 0.487 60000
