n_steps logical_error_rate trials
0.0 0.01989 100000
1.0 0.10007 100000
2.0 0.17868 100000
3.0 0.24346 100000
4.0 0.29479999999999995 100000
5.0 0.3396600000000001 100000
6.0 0.37117 100000
7.0 0.39624 100000
8.0 0.41327 100000
9.0 0.43377 100000
10.0 0.44713 100000
