n_steps logical_error_rate trials
0.0 0.07569 100000
1.0 0.20807 100000
2.0 0.30102 100000
3.0 0.36724 100000
4.0 0.41208 100000
5.0 0.44149 100000
6.0 0.45866 100000
7.0 0.46897 100000
8.0 0.48001 100000
9.0 0.48808 100000
10.0 0.48981 100000
