n_steps logical_error_rate trials
0.0 0.11396 100000
1.0 0.26115 100000
2.0 0.35452 100000
3.0 0.41152 100000
4.0 0.44904 100000
5.0 0.46825 100000
6.0 0.48031 100000
7.0 0.49145 100000
8.0 0.49428 100000
9.0 0.49364 100000
10.0 0.49541 100000
