n_steps logical_error_rate trials
0.0 0.14759999999999998 100000
1.0 0.30555000000000004 100000
2.0 0.38865 100000
3.0 0.43942 100000
4.0 0.46425 100000
5.0 0.47952 100000
6.0 0.49026 100000
7.0 0.497 100000
8.0 0.49815 100000
9.0 0.50133 100000
10.0 0.49949 100000
