n_steps logical_error_rate trials
0.0 0.14608999999999997 100000
1.0 0.25313 100000
2.0 0.32055 100000
3.0 0.37329 100000
4.0 0.41178 100000
5.0 0.43505 100000
6.0 0.45267 100000
7.0 0.47085 100000
8.0 0.47355 100000
9.0 0.48805 100000
10.0 0.48705 100000
