n_steps logical_error_rate trials
1.0 0.35581666666666667 60000
2.0 0.4321333333333333 60000
3.0 0.4711 60000
4.0 0.48591666666666666 60000
5.0 0.4945 60000
6.0 0.4957166666666667 60000
7.0 0.5001333333333333 60000
8.0 0.5017666666666667 60000
9.0 0.5023166666666666 60000
10.0 0.4959166666666667 60000
