n_steps logical_error_rate trials
0.0 0.34593 100000
1.0 0.46433 100000
2.0 0.49339 100000
3.0 0.49425 100000
4.0 0.50126 100000
5.0 0.4974 100000
6.0 0.5017900000000001 100000
7.0 0.49907 100000
8.0 0.49985 100000
9.0 0.49894 100000
10.0 0.49982999999999994 100000
