n_steps logical_error_rate trials
1.0 0.45049333333333336 150000
2.0 0.4838133333333333 150000
3.0 0.4976333333333333 150000
4.0 0.49764 150000
5.0 0.4984866666666667 150000
6.0 0.5004666666666666 150000
7.0 0.49982 150000
8.0 0.5011266666666666 150000
9.0 0.5005333333333334 150000
10.0 0.50012 150000
