n_steps logical_error_rate trials
1.0 0.2729 40000
2.0 0.367475 40000
3.0 0.42135 40000
4.0 0.457575 40000
5.0 0.4705 40000
6.0 0.484125 40000
7.0 0.493 40000
8.0 0.5001 40000
9.0 0.499925 40000
10.0 0.496425 40000
