n_steps logical_error_rate trials
0.0 0.2664 100000
1.0 0.41537 100000
2.0 0.46883 100000
3.0 0.49074 100000
4.0 0.49834 100000
5.0 0.49797 100000
6.0 0.5011 100000
7.0 0.49705 100000
8.0 0.49854 100000
9.0 0.50217 100000
10.0 0.49927 100000
