n_steps logical_error_rate trials
1.0 0.31101666666666666 60000
2.0 0.39165 60000
3.0 0.43751666666666666 60000
4.0 0.4656666666666667 60000
5.0 0.48413333333333336 60000
6.0 0.49033333333333334 60000
7.0 0.49135 60000
8.0 0.4983666666666667 60000
9.0 0.49728333333333335 60000
10.0 0.49976666666666675 60000
