n_steps logical_error_rate trials
1.0 0.00455 60000
2.0 0.0123 60000
3.0 0.020783333333333334 60000
4.0 0.0275 60000
5.0 0.0375 60000
6.0 0.045766666666666664 60000
7.0 0.0521 60000
8.0 0.057883333333333335 60000
9.0 0.06445 60000
10.0 0.07235 60000
