n_steps logical_error_rate trials
1.0 0.27851000000000004 200000
2.0 0.371865 200000
3.0 0.425585 200000
4.0 0.45827 200000
5.0 0.474065 200000
6.0 0.485355 200000
7.0 0.490775 200000
8.0 0.49503 200000
9.0 0.498155 200000
10.0 0.497615 200000
0.0 0.12113 200000
