n_steps logical_error_rate trials
1.0 0.04226666666666667 60000
2.0 0.07288333333333333 60000
3.0 0.09976666666666667 60000
4.0 0.12583333333333332 60000
5.0 0.15346666666666667 60000
6.0 0.17528333333333335 60000
7.0 0.19893333333333332 60000
8.0 0.21906666666666666 60000
9.0 0.23811666666666667 60000
10.0 0.2532666666666667 60000
