n_steps logical_error_rate trials
1.0 0.193925 40000
2.0 0.28655 40000
3.0 0.34815 40000
4.0 0.39755 40000
5.0 0.426775 40000
6.0 0.4489 40000
7.0 0.46345 40000
8.0 0.476225 40000
9.0 0.485775 40000
10.0 0.488775 40000
