n_steps logical_error_rate trials
1.0 0.1752 40000
2.0 0.26280000000000003 40000
3.0 0.3278 40000
4.0 0.37885 40000
5.0 0.41585 40000
6.0 0.438525 40000
7.0 0.457925 40000
8.0 0.46805 40000
9.0 0.4767 40000
10.0 0.486275 40000
