n_steps logical_error_rate trials
0.0 0.23759 100000
1.0 0.39651 100000
2.0 0.45817 100000
3.0 0.48254 100000
4.0 0.49252 100000
5.0 0.49395 100000
6.0 0.50035 100000
7.0 0.49464 100000
8.0 0.49925 100000
9.0 0.5013 100000
10.0 0.49898 100000
