n_steps logical_error_rate trials
1.0 0.2833333333333333 60000
2.0 0.37416666666666665 60000
3.0 0.4240333333333333 60000
4.0 0.4568333333333333 60000
5.0 0.47296666666666665 60000
6.0 0.48185 60000
7.0 0.48928333333333335 60000
8.0 0.49225 60000
9.0 0.49428333333333335 60000
10.0 0.4969166666666667 60000
