n_steps logical_error_rate trials
1.0 0.18426 200000
2.0 0.27692 200000
3.0 0.3438 200000
4.0 0.39057 200000
5.0 0.424675 200000
6.0 0.44555 200000
7.0 0.46162 200000
8.0 0.472665 200000
9.0 0.48257 200000
10.0 0.487355 200000
0.0 0.05829 200000
