n_steps logical_error_rate trials
1.0 0.184875 40000
2.0 0.278725 40000
3.0 0.342725 40000
4.0 0.38545 40000
5.0 0.42375 40000
6.0 0.438675 40000
7.0 0.459 40000
8.0 0.47515 40000
9.0 0.477825 40000
10.0 0.48965 40000
