n_steps logical_error_rate trials
1.0 0.323475 40000
2.0 0.409025 40000
3.0 0.4548 40000
4.0 0.47565 40000
5.0 0.4903 40000
6.0 0.488425 40000
7.0 0.49855 40000
8.0 0.49775 40000
9.0 0.500075 40000
10.0 0.50225 40000
