n_steps logical_error_rate trials
0.0 0.03154 100000
1.0 0.12661999999999998 100000
2.0 0.20992 100000
3.0 0.27523 100000
4.0 0.32953 100000
5.0 0.36785 100000
6.0 0.3994 100000
7.0 0.42507 100000
8.0 0.43962 100000
9.0 0.45306 100000
10.0 0.46332 100000
