n_steps logical_error_rate trials
0.0 0.06366000000000002 100000
1.0 0.19077 100000
2.0 0.28520999999999996 100000
3.0 0.34939 100000
4.0 0.39611 100000
5.0 0.42672 100000
6.0 0.45167 100000
7.0 0.46479 100000
8.0 0.4748 100000
9.0 0.48113 100000
10.0 0.48861 100000
