n_steps logical_error_rate trials
1.0 0.3197333333333333 60000
2.0 0.40913333333333335 60000
3.0 0.44956666666666667 60000
4.0 0.47226666666666667 60000
5.0 0.4889 60000
6.0 0.4931833333333333 60000
7.0 0.4978166666666667 60000
8.0 0.49806666666666666 60000
9.0 0.49673333333333336 60000
10.0 0.49893333333333334 60000
