n_steps logical_error_rate trials
0.0 0.2429 100000
1.0 0.39662 100000
2.0 0.46038 100000
3.0 0.48683 100000
4.0 0.49149 100000
5.0 0.49611 100000
6.0 0.49848 100000
7.0 0.50018 100000
8.0 0.49792 100000
9.0 0.50065 100000
10.0 0.50042 100000
