n_steps logical_error_rate trials
1.0 0.46009333333333335 150000
2.0 0.4883733333333333 150000
3.0 0.49728 150000
4.0 0.5000666666666667 150000
5.0 0.4984133333333333 150000
6.0 0.4996799999999999 150000
7.0 0.49918 150000
8.0 0.49915333333333334 150000
9.0 0.5005266666666667 150000
10.0 0.49979333333333326 150000
