n_steps logical_error_rate trials
1.0 0.10395 40000
2.0 0.17935 40000
3.0 0.23915 40000
4.0 0.29055 40000
5.0 0.33055 40000
6.0 0.362525 40000
7.0 0.38945 40000
8.0 0.413375 40000
9.0 0.424875 40000
10.0 0.443025 40000
