n_steps logical_error_rate trials
1.0 0.0947 40000
2.0 0.16185 40000
3.0 0.2277 40000
4.0 0.271875 40000
5.0 0.313175 40000
6.0 0.348275 40000
7.0 0.37185 40000
8.0 0.39465 40000
9.0 0.41715 40000
10.0 0.4284 40000
