n_steps logical_error_rate trials
1.0 0.36072666666666664 150000
2.0 0.42484666666666665 150000
3.0 0.4607133333333333 150000
4.0 0.47582 150000
5.0 0.48940666666666666 150000
6.0 0.4951466666666667 150000
7.0 0.50038 150000
8.0 0.5002 150000
9.0 0.4988066666666667 150000
10.0 0.5004266666666666 150000
