n_steps logical_error_rate trials
1.0 0.4288138888888889 360000
2.0 0.4760611111111111 360000
3.0 0.4915083333333333 360000
4.0 0.49728055555555556 360000
5.0 0.4976583333333333 360000
6.0 0.5009750000000004 360000
7.0 0.5014388888888891 360000
8.0 0.49911944444444445 360000
9.0 0.500397222222222 360000
10.0 0.4990027777777778 360000
