n_steps logical_error_rate trials
1.0 0.11251666666666667 60000
2.0 0.17411666666666667 60000
3.0 0.2311 60000
4.0 0.2740666666666667 60000
5.0 0.31148333333333333 60000
6.0 0.3408833333333333 60000
7.0 0.3665 60000
8.0 0.38793333333333335 60000
9.0 0.40418333333333334 60000
10.0 0.4211666666666667 60000
