n_steps logical_error_rate trials
0.0 0.1867 100000
1.0 0.30034999999999995 100000
2.0 0.37452 100000
3.0 0.42138 100000
4.0 0.44955 100000
5.0 0.46985 100000
6.0 0.47864 100000
7.0 0.48344 100000
8.0 0.4927 100000
9.0 0.49713 100000
10.0 0.49609 100000
