n_steps logical_error_rate trials
1.0 0.13405 60000
2.0 0.20845 60000
3.0 0.26853333333333335 60000
4.0 0.3169166666666667 60000
5.0 0.3561166666666667 60000
6.0 0.38808333333333334 60000
7.0 0.4124 60000
8.0 0.43038333333333334 60000
9.0 0.4441833333333333 60000
10.0 0.4591166666666667 60000
