n_steps logical_error_rate trials
0.0 0.30673 100000
1.0 0.44304 100000
2.0 0.48263 100000
3.0 0.49663 100000
4.0 0.49645 100000
5.0 0.49771 100000
6.0 0.49613 100000
7.0 0.50026 100000
8.0 0.49848 100000
9.0 0.50271 100000
10.0 0.4988 100000
