n_steps logical_error_rate trials
0.0 0.24838 100000
1.0 0.40548 100000
2.0 0.46548 100000
3.0 0.48634 100000
4.0 0.49473 100000
5.0 0.50047 100000
6.0 0.49928 100000
7.0 0.49915 100000
8.0 0.50319 100000
9.0 0.50178 100000
10.0 0.49941 100000
