n_steps logical_error_rate trials
1.0 0.035375 40000
2.0 0.074175 40000
3.0 0.115 40000
4.0 0.148725 40000
5.0 0.182075 40000
6.0 0.21065 40000
7.0 0.239925 40000
8.0 0.262925 40000
9.0 0.2838 30000
10.0 0.302 40000
