n_steps logical_error_rate trials
1.0 0.29008333333333336 60000
2.0 0.38358333333333333 60000
3.0 0.4370833333333333 60000
4.0 0.46408333333333335 60000
5.0 0.4794333333333333 60000
6.0 0.4852 60000
7.0 0.4849 60000
8.0 0.4950333333333333 60000
9.0 0.49491666666666667 60000
10.0 0.4992499999999999 60000
