n_steps logical_error_rate trials
1.0 0.29445 60000
2.0 0.37778333333333336 60000
3.0 0.43135 60000
4.0 0.46066666666666667 60000
5.0 0.47801666666666665 60000
6.0 0.4875 60000
7.0 0.49135 60000
8.0 0.49548333333333333 60000
9.0 0.4997333333333333 60000
10.0 0.5000666666666667 60000
