n_steps logical_error_rate trials
1.0 0.066465 200000
2.0 0.12366 200000
3.0 0.17803 200000
4.0 0.224195 200000
5.0 0.2618899999999999 200000
6.0 0.294445 200000
7.0 0.323725 200000
8.0 0.349915 200000
9.0 0.36822 200000
10.0 0.386385 200000
0.0 0.011215000000000003 200000
