n_steps logical_error_rate trials
1.0 0.111175 40000
2.0 0.193225 40000
3.0 0.250925 40000
4.0 0.299925 40000
5.0 0.343425 40000
6.0 0.375975 40000
7.0 0.39555 40000
8.0 0.4266 40000
9.0 0.436625 40000
10.0 0.450775 40000
