n_steps logical_error_rate trials
1.0 0.32729 100000
2.0 0.40641 100000
3.0 0.45232 100000
4.0 0.47985 100000
5.0 0.487 100000
6.0 0.49522 100000
7.0 0.49408 100000
8.0 0.49634 100000
9.0 0.50062 100000
10.0 0.50332 100000
