n_steps logical_error_rate trials
1.0 0.39759777777777777 450000
2.0 0.45338666666666666 450000
3.0 0.48059555555555555 450000
4.0 0.4910555555555556 450000
5.0 0.4954355555555556 450000
6.0 0.4987666666666667 450000
7.0 0.49914888888888886 450000
8.0 0.49993555555555563 450000
9.0 0.50034 450000
10.0 0.49990444444444443 450000
