n_steps logical_error_rate trials
1.0 0.1223111111111111 180000
2.0 0.18979444444444443 180000
4.0 0.2862722222222222 180000
3.0 0.24437777777777778 180000
7.0 0.3808388888888889 180000
5.0 0.3259611111111111 180000
6.0 0.35481111111111113 180000
8.0 0.40407777777777776 180000
9.0 0.42141666666666666 180000
10.0 0.4343666666666667 180000
