n_steps logical_error_rate trials
0.0 0.3208066666666667 300000
1.0 0.45408333333333334 300000
2.0 0.4879133333333333 300000
3.0 0.49574666666666667 300000
4.0 0.4994866666666667 300000
5.0 0.49932333333333334 300000
6.0 0.5008833333333333 300000
7.0 0.5002133333333333 300000
8.0 0.49944 300000
9.0 0.5010866666666667 300000
10.0 0.5007466666666667 300000
