n_steps logical_error_rate trials
0.0 0.30155333333333334 300000
1.0 0.44343666666666665 300000
2.0 0.48442 300000
3.0 0.49554333333333334 300000
4.0 0.49800666666666665 300000
5.0 0.4999866666666667 300000
6.0 0.5004233333333333 300000
7.0 0.5002966666666666 300000
8.0 0.4998666666666667 300000
9.0 0.5001666666666666 300000
10.0 0.50037 300000
