n_steps logical_error_rate trials
1.0 0.00023076923076923076 130000
2.0 0.0008846153846153846 130000
3.0 0.0021538461538461538 130000
4.0 0.0034307692307692307 130000
5.0 0.005238461538461538 130000
6.0 0.006146153846153846 130000
7.0 0.007484615384615385 130000
8.0 0.008707692307692307 130000
9.0 0.010515384615384616 130000
10.0 0.011476923076923077 130000
