n_steps logical_error_rate trials
0.0 0.14741 300000
1.0 0.30369666666666667 300000
2.0 0.3896266666666667 300000
3.0 0.44076666666666664 300000
4.0 0.46612 300000
5.0 0.48121 300000
6.0 0.49043 300000
7.0 0.49499666666666664 300000
8.0 0.49689666666666665 300000
9.0 0.49895 300000
10.0 0.5003966666666667 300000
