n_steps logical_error_rate trials
1.0 0.18484444444444445 180000
2.0 0.27286666666666665 180000
3.0 0.33921666666666667 180000
4.0 0.38321666666666665 180000
5.0 0.4141111111111111 180000
6.0 0.4379222222222222 180000
7.0 0.45979444444444445 180000
8.0 0.46878333333333333 180000
9.0 0.4760888888888889 180000
10.0 0.4867 180000
