n_steps logical_error_rate trials
0.0 0.0944925 400000
1.0 0.2422 400000
2.0 0.337195 400000
3.0 0.3981275 400000
4.0 0.43437 400000
5.0 0.45828 400000
6.0 0.4748575 400000
7.0 0.4841175 400000
8.0 0.4898225 400000
9.0 0.4930575 400000
10.0 0.495335 400000
