n_steps logical_error_rate trials
1.0 0.13253076923076923 130000
2.0 0.21853846153846154 130000
3.0 0.2808769230769231 130000
4.0 0.33213076923076923 130000
5.0 0.3688461538461538 130000
6.0 0.4013923076923077 130000
7.0 0.42293846153846154 130000
8.0 0.4393153846153846 130000
9.0 0.4530230769230769 130000
10.0 0.46406153846153847 130000
