n_steps logical_error_rate trials
1.0 0.06489444444444445 180000
2.0 0.11383333333333333 180000
3.0 0.1585 180000
4.0 0.19681666666666667 180000
5.0 0.23299444444444445 180000
6.0 0.2633777777777778 180000
7.0 0.2895611111111111 180000
8.0 0.3138888888888889 180000
9.0 0.3363 180000
10.0 0.3545888888888889 180000
