n_steps logical_error_rate trials
0.0 0.059533333333333334 300000
1.0 0.18257666666666666 300000
2.0 0.2757733333333333 300000
3.0 0.33852333333333334 300000
4.0 0.3892833333333333 300000
5.0 0.4205933333333333 300000
6.0 0.44333333333333336 300000
7.0 0.46081 300000
8.0 0.47152 300000
9.0 0.4771666666666667 300000
10.0 0.48506 300000
