n_steps logical_error_rate trials
0.0 0.27891 300000
1.0 0.42728333333333335 300000
2.0 0.47812333333333334 300000
3.0 0.4931433333333333 300000
4.0 0.4968033333333333 300000
5.0 0.49907 300000
6.0 0.5001166666666667 300000
7.0 0.49914333333333333 300000
8.0 0.49966 300000
9.0 0.5001533333333333 300000
10.0 0.4993066666666667 300000
