n_steps logical_error_rate trials
0.0 0.36011 300000
1.0 0.4717633333333333 300000
2.0 0.49329666666666666 300000
3.0 0.49994666666666665 300000
4.0 0.49915333333333334 300000
5.0 0.50008 300000
6.0 0.50027 300000
7.0 0.49898 300000
8.0 0.49870666666666674 300000
9.0 0.49861 300000
10.0 0.5017099999999999 300000
