n_steps logical_error_rate trials
0.0 0.22965666666666668 300000
1.0 0.3913433333333333 300000
2.0 0.45549 300000
3.0 0.4821533333333333 300000
4.0 0.49261333333333335 300000
5.0 0.49827666666666665 300000
6.0 0.4983166666666667 300000
7.0 0.49975666666666674 300000
8.0 0.5002633333333333 300000
9.0 0.49871 300000
10.0 0.49899333333333334 300000
