n_steps logical_error_rate trials
1.0 0.24020555555555556 180000
2.0 0.32593333333333335 180000
3.0 0.3830222222222222 180000
4.0 0.42343888888888886 180000
5.0 0.45004444444444447 180000
6.0 0.4647277777777778 180000
7.0 0.47914444444444443 180000
8.0 0.4829888888888889 180000
9.0 0.48869444444444443 180000
10.0 0.493 180000
