n_steps logical_error_rate trials
1.0 0.3384384615384615 130000
2.0 0.4190615384615385 130000
3.0 0.4635692307692308 130000
4.0 0.48285384615384613 130000
5.0 0.4956 130000
6.0 0.4953153846153846 130000
7.0 0.4959923076923077 130000
8.0 0.49813846153846153 130000
9.0 0.5014 130000
10.0 0.49833846153846156 130000
