n_steps logical_error_rate trials
1.0 0.34014666666666665 450000
2.0 0.40994 450000
3.0 0.4485711111111111 450000
4.0 0.4716311111111111 450000
5.0 0.4836844444444444 450000
6.0 0.4907711111111111 450000
7.0 0.49422444444444447 450000
8.0 0.49746666666666667 450000
9.0 0.5001888888888889 450000
10.0 0.4993111111111111 450000
