n_steps logical_error_rate trials
0.0 0.030580000000000006 300000
1.0 0.05971666666666667 300000
2.0 0.08583333333333333 300000
3.0 0.11222666666666667 300000
4.0 0.13508666666666666 300000
5.0 0.15832333333333334 300000
6.0 0.17961333333333335 300000
7.0 0.19852666666666666 300000
8.0 0.21540666666666666 300000
9.0 0.23507333333333333 300000
10.0 0.24967 300000
