n_steps logical_error_rate trials
0.0 0.027553333333333332 300000
1.0 0.11661 300000
2.0 0.2008 300000
3.0 0.26600666666666667 300000
4.0 0.3178166666666667 300000
5.0 0.3599733333333333 300000
6.0 0.39079 300000
7.0 0.4138133333333333 300000
8.0 0.43381 300000
9.0 0.44833 300000
10.0 0.46056 300000
