n_steps logical_error_rate trials
1.0 0.44670272727272725 1100000
2.0 0.4848772727272727 1100000
3.0 0.49483636363636363 1100000
4.0 0.4985463636363636 1100000
5.0 0.49922727272727285 1100000
6.0 0.49963636363636366 1100000
7.0 0.5005136363636364 1100000
8.0 0.5007872727272726 1100000
9.0 0.5009045454545454 1100000
10.0 0.5001381818181819 1100000
