n_steps logical_error_rate trials
1.0 0.15325555555555556 180000
2.0 0.23575 180000
3.0 0.29635 180000
4.0 0.34512777777777776 180000
5.0 0.3822888888888889 180000
6.0 0.40999444444444444 180000
7.0 0.43096666666666666 180000
8.0 0.4494444444444444 180000
9.0 0.4613777777777778 180000
10.0 0.47141666666666665 180000
