n_steps logical_error_rate trials
0.0 0.13936619718309856 568000
1.0 0.29441666666666666 84000
2.0 0.3838095238095238 84000
3.0 0.43320238095238095 84000
4.0 0.46272619047619046 84000
5.0 0.47901190476190475 84000
6.0 0.48856666666666665 30000
