n_steps logical_error_rate trials
1.0 0.012633333333333333 180000
2.0 0.03958888888888889 180000
3.0 0.07554444444444444 180000
4.0 0.11294444444444444 180000
5.0 0.14624444444444445 180000
6.0 0.17955555555555555 180000
7.0 0.20927777777777778 180000
8.0 0.23783333333333334 180000
9.0 0.2610833333333334 180000
10.0 0.28319444444444447 180000
