n_steps logical_error_rate trials
1.0 0.00219 200000
2.0 0.00811 200000
3.0 0.015115 200000
4.0 0.022015 200000
5.0 0.02944 200000
6.0 0.03614 200000
7.0 0.04227 200000
8.0 0.05083 200000
9.0 0.05727 200000
10.0 0.06298499999999999 200000
0.0 0.00011333333333333331 300000
