n_steps logical_error_rate trials
1.0 0.1553 100000
2.0 0.24579 100000
3.0 0.3129 100000
4.0 0.36025 100000
5.0 0.3961 100000
6.0 0.42384 100000
7.0 0.44296 100000
8.0 0.4622 100000
9.0 0.47176 100000
10.0 0.47537 100000
