n_steps logical_error_rate trials
0.0 0.35853666666666667 300000
1.0 0.47091333333333335 300000
2.0 0.49324 300000
3.0 0.49785 300000
4.0 0.50029 300000
5.0 0.5002833333333333 300000
6.0 0.5013833333333332 300000
7.0 0.50002 300000
8.0 0.5010766666666666 300000
9.0 0.5001766666666667 300000
10.0 0.5006766666666667 300000
