n_steps logical_error_rate trials
1.0 0.001011111111111111 180000
2.0 0.007155555555555556 180000
3.0 0.019744444444444443 180000
4.0 0.03776111111111111 180000
5.0 0.057583333333333334 180000
6.0 0.07787222222222222 180000
7.0 0.09902222222222222 180000
8.0 0.12065555555555556 180000
9.0 0.14162222222222223 180000
10.0 0.15977777777777777 180000
