n_steps logical_error_rate trials
0.0 0.01112 400000
1.0 0.06653250000000001 400000
2.0 0.1248 400000
3.0 0.1779975 400000
4.0 0.2229425 400000
5.0 0.26137999999999995 400000
6.0 0.29486500000000004 400000
7.0 0.32360749999999994 400000
8.0 0.3483 400000
9.0 0.368305 400000
10.0 0.387285 400000
