n_steps logical_error_rate trials
0.0 0.16526333333333335 300000
1.0 0.32505 300000
2.0 0.40735333333333335 300000
3.0 0.4526733333333333 300000
4.0 0.47435333333333335 300000
5.0 0.48566333333333334 300000
6.0 0.49257666666666666 300000
7.0 0.49655 300000
8.0 0.49688 300000
9.0 0.49845 300000
10.0 0.49928333333333336 300000
