n_steps logical_error_rate trials
0.0 0.17312666666666668 300000
1.0 0.28520666666666666 300000
2.0 0.36078333333333334 300000
3.0 0.40796666666666664 300000
4.0 0.4402933333333333 300000
5.0 0.46387 300000
6.0 0.47449 300000
7.0 0.4824366666666667 300000
8.0 0.4887033333333333 300000
9.0 0.49272333333333335 300000
10.0 0.4956833333333333 300000
