n_steps logical_error_rate trials
0.0 0.12581 300000
1.0 0.2779466666666667 300000
2.0 0.36902666666666667 300000
3.0 0.42345333333333335 300000
4.0 0.45501 300000
5.0 0.47378 300000
6.0 0.48395 300000
7.0 0.49068 300000
8.0 0.49328 300000
9.0 0.49517 300000
10.0 0.49774 300000
