n_steps logical_error_rate trials
1.0 0.4518511111111111 450000
2.0 0.48414444444444443 450000
3.0 0.4974266666666667 450000
4.0 0.49779555555555555 450000
5.0 0.5003888888888889 450000
6.0 0.4994688888888889 450000
7.0 0.49822222222222223 450000
8.0 0.5008355555555557 450000
9.0 0.4976977777777778 450000
10.0 0.49914444444444445 450000
