n_steps logical_error_rate trials
1.0 0.3611688888888889 450000
2.0 0.42631555555555556 450000
3.0 0.4615066666666667 450000
4.0 0.47873777777777776 450000
5.0 0.4884733333333333 450000
6.0 0.49444 450000
7.0 0.49869777777777785 450000
8.0 0.49886 450000
9.0 0.49895555555555554 450000
10.0 0.49905777777777777 450000
