n_steps logical_error_rate trials
1.0 0.40719333333333335 450000
2.0 0.46002 450000
3.0 0.4837288888888889 450000
4.0 0.4923688888888889 450000
5.0 0.49870444444444445 450000
6.0 0.4998133333333333 450000
7.0 0.4999155555555555 450000
8.0 0.49894222222222223 450000
9.0 0.50006 450000
10.0 0.5000177777777779 450000
