n_steps logical_error_rate trials
1.0 0.09298333333333333 180000
2.0 0.14738333333333334 180000
4.0 0.23533333333333334 180000
3.0 0.1943777777777778 180000
7.0 0.33148333333333335 180000
5.0 0.27214444444444447 180000
6.0 0.30332777777777775 180000
8.0 0.35422777777777775 180000
9.0 0.37146111111111113 180000
10.0 0.3904388888888889 180000
