n_steps logical_error_rate trials
0.0 0.0 300000
1.0 0.0 200000
2.0 1.9999999999999998e-05 200000
3.0 5.5e-05 200000
4.0 0.0001 200000
5.0 0.00011 200000
6.0 0.000195 200000
7.0 0.00023 200000
8.0 0.00033 200000
9.0 0.00035 200000
10.0 0.000385 200000
