n_steps logical_error_rate trials
0.0 0.15965333333333334 300000
1.0 0.31918 300000
2.0 0.40164 300000
3.0 0.44626 300000
4.0 0.47075 300000
5.0 0.48629333333333336 300000
6.0 0.4933 300000
7.0 0.4960133333333333 300000
8.0 0.49810333333333334 300000
9.0 0.4965 300000
10.0 0.49974 300000
