n_steps logical_error_rate trials
1.0 0.3514611111111111 180000
2.0 0.42643333333333333 180000
5.0 0.4917888888888889 180000
3.0 0.4666388888888889 180000
4.0 0.48334444444444447 180000
8.0 0.49949444444444446 180000
6.0 0.4970277777777778 180000
7.0 0.4984222222222222 180000
9.0 0.4986277777777778 180000
10.0 0.4979722222222222 180000
