n_steps logical_error_rate trials
1.0 0.07312777777777778 180000
2.0 0.1209 180000
3.0 0.16277777777777777 180000
4.0 0.20013333333333333 180000
5.0 0.23478333333333334 180000
6.0 0.26515 180000
7.0 0.2896388888888889 180000
8.0 0.3133166666666667 180000
9.0 0.3327777777777778 180000
10.0 0.35210555555555556 180000
