n_steps logical_error_rate trials
1.0 0.2157923076923077 130000
2.0 0.3070076923076923 130000
5.0 0.4424769230769231 130000
3.0 0.3739 130000
4.0 0.41481538461538464 130000
7.0 0.4724923076923077 130000
6.0 0.4633923076923077 130000
8.0 0.48475384615384615 130000
9.0 0.48841538461538464 130000
10.0 0.4937615384615385 130000
