n_steps logical_error_rate trials
0.0 0.16575666666666666 300000
1.0 0.27638999999999997 300000
2.0 0.35024 300000
3.0 0.39940333333333333 300000
4.0 0.4337433333333333 300000
5.0 0.45427666666666666 300000
6.0 0.47015 300000
7.0 0.48106 300000
8.0 0.4870566666666667 300000
9.0 0.49395666666666666 300000
10.0 0.4942666666666667 300000
