n_steps logical_error_rate trials
1.0 0.06535555555555556 180000
2.0 0.10809444444444445 180000
3.0 0.14775 180000
4.0 0.1827111111111111 180000
5.0 0.21415555555555554 180000
6.0 0.2416611111111111 180000
7.0 0.2675 180000
8.0 0.29017777777777776 180000
9.0 0.3128166666666667 180000
10.0 0.32945555555555556 180000
