n_steps logical_error_rate trials
1.0 0.0 200000
2.0 4.5e-05 200000
3.0 0.000775 200000
4.0 0.00218 200000
5.0 0.00528 200000
6.0 0.009885000000000001 200000
7.0 0.015975 200000
8.0 0.02336 200000
9.0 0.03139499999999999 200000
10.0 0.040380000000000006 200000
