n_steps logical_error_rate trials
0.0 0.07620333333333333 300000
1.0 0.20889 300000
2.0 0.30297 300000
3.0 0.36739666666666665 300000
4.0 0.41126666666666667 300000
5.0 0.44079 300000
6.0 0.46036666666666665 300000
7.0 0.4709833333333333 300000
8.0 0.48144 300000
9.0 0.48679666666666666 300000
10.0 0.49085666666666666 300000
