n_steps logical_error_rate trials
1.0 0.4529627272727273 1100000
2.0 0.48730636363636365 1100000
3.0 0.49675909090909093 1100000
4.0 0.49929454545454555 1100000
5.0 0.5009499999999998 1100000
6.0 0.49975909090909093 1100000
7.0 0.5003600000000002 1100000
8.0 0.4999918181818182 1100000
9.0 0.50051 1100000
10.0 0.5004036363636363 1100000
