n_steps logical_error_rate trials
1.0 0.018584615384615383 130000
2.0 0.044823076923076924 130000
3.0 0.07213076923076923 130000
4.0 0.09860769230769231 130000
5.0 0.12212307692307692 130000
6.0 0.14448461538461535 130000
7.0 0.16326153846153846 130000
8.0 0.18336923076923076 130000
9.0 0.20383076923076923 130000
10.0 0.22042307692307692 130000
