n_steps logical_error_rate trials
1.0 0.35128461538461536 130000
2.0 0.4329230769230769 130000
3.0 0.4671461538461538 130000
4.0 0.4856153846153846 130000
5.0 0.49383846153846156 130000
6.0 0.4967615384615385 130000
7.0 0.4973153846153846 130000
8.0 0.4972846153846154 130000
9.0 0.4995307692307692 130000
10.0 0.5014307692307691 130000
