n_steps logical_error_rate trials
1.0 0.2939538461538461 130000
2.0 0.38673846153846153 130000
4.0 0.4609384615384615 130000
3.0 0.43416923076923075 130000
6.0 0.49283076923076924 130000
5.0 0.4804923076923077 130000
10.0 0.501 130000
7.0 0.4931384615384615 130000
8.0 0.49746153846153846 130000
9.0 0.4972384615384615 130000
