n_steps logical_error_rate trials
1.0 0.35617777777777776 180000
2.0 0.43235 180000
3.0 0.46945555555555557 180000
4.0 0.48645555555555553 180000
5.0 0.49117222222222223 180000
6.0 0.4958444444444444 180000
7.0 0.4981555555555556 180000
8.0 0.49945 180000
9.0 0.50075 180000
10.0 0.5020555555555556 180000
