n_steps logical_error_rate trials
1.0 0.35665 180000
2.0 0.4311 180000
3.0 0.47000555555555557 180000
4.0 0.48736111111111113 180000
5.0 0.49438333333333334 180000
6.0 0.4965222222222222 180000
7.0 0.4987 180000
8.0 0.4994166666666667 180000
9.0 0.5001444444444444 180000
10.0 0.49898333333333333 180000
