n_steps logical_error_rate trials
1.0 0.2925888888888889 180000
2.0 0.3819777777777778 180000
3.0 0.4337388888888889 180000
4.0 0.46168333333333333 180000
5.0 0.47922777777777775 180000
6.0 0.49075555555555556 180000
7.0 0.49082777777777775 180000
8.0 0.49698333333333333 180000
9.0 0.4988111111111111 180000
10.0 0.500238888888889 180000
