n_steps logical_error_rate trials
0.0 0.03537333333333333 300000
1.0 0.06762666666666665 300000
2.0 0.09768 300000
3.0 0.12613 300000
4.0 0.15113 300000
5.0 0.17512666666666668 300000
6.0 0.19823 300000
7.0 0.21926666666666667 300000
8.0 0.23979666666666666 300000
9.0 0.25683666666666666 300000
10.0 0.27297666666666665 300000
