n_steps logical_error_rate trials
0.0 0.0434925 400000
1.0 0.153375 400000
2.0 0.24127 400000
3.0 0.30858 400000
4.0 0.35703 400000
5.0 0.3940625 400000
6.0 0.42048 400000
7.0 0.44197 400000
8.0 0.455485 400000
9.0 0.467665 400000
10.0 0.4754625 400000
