n_steps logical_error_rate trials
2.0 0.39050769230769233 130000
1.0 0.30227692307692305 130000
4.0 0.4656692307692308 130000
3.0 0.43786153846153847 130000
6.0 0.4896 130000
5.0 0.4819230769230769 130000
7.0 0.4934076923076923 130000
8.0 0.4976153846153846 130000
9.0 0.5001923076923076 130000
10.0 0.4997384615384615 130000
