n_steps logical_error_rate trials
1.0 0.024916666666666667 180000
2.0 0.06810555555555556 180000
3.0 0.11347777777777777 180000
4.0 0.15695555555555554 180000
5.0 0.19820555555555555 180000
6.0 0.23196111111111112 180000
7.0 0.26235555555555556 180000
8.0 0.289 180000
9.0 0.31127222222222223 180000
10.0 0.33616111111111113 180000
