n_steps logical_error_rate trials
1.0 0.21785 180000
2.0 0.3038666666666667 180000
3.0 0.3637222222222222 180000
4.0 0.4073 180000
5.0 0.43435555555555555 180000
6.0 0.4563 180000
7.0 0.4686888888888889 180000
8.0 0.4772388888888889 180000
9.0 0.48288888888888887 180000
10.0 0.4899 180000
