n_steps logical_error_rate trials
1.0 0.37403888888888887 180000
2.0 0.4439777777777778 180000
3.0 0.4761611111111111 180000
4.0 0.4901888888888889 180000
5.0 0.49693333333333334 180000
6.0 0.49572222222222223 180000
7.0 0.5002611111111112 180000
8.0 0.49837777777777775 180000
9.0 0.5008222222222222 180000
10.0 0.49967222222222224 180000
