n_steps logical_error_rate trials
1.0 0.3475076923076923 130000
2.0 0.42776153846153847 130000
3.0 0.46555384615384615 130000
4.0 0.4814307692307692 130000
5.0 0.49424615384615384 130000
6.0 0.4941307692307692 130000
7.0 0.4977615384615385 130000
8.0 0.5015615384615385 130000
9.0 0.5043230769230769 130000
10.0 0.49924615384615384 130000
