n_steps logical_error_rate trials
1.0 0.41094 1100000
2.0 0.46636272727272726 1100000
3.0 0.4869590909090909 1100000
4.0 0.4955 1100000
5.0 0.4971918181818182 1100000
6.0 0.499998181818182 1100000
7.0 0.49915818181818183 1100000
8.0 0.5004100000000001 1100000
9.0 0.5004254545454543 1100000
10.0 0.4992563636363636 1100000
