n_steps logical_error_rate trials
1.0 0.00046153846153846153 130000
2.0 0.0018692307692307693 130000
5.0 0.008023076923076923 130000
3.0 0.003746153846153846 130000
4.0 0.006092307692307692 130000
9.0 0.01714615384615385 130000
6.0 0.010723076923076924 130000
7.0 0.01233076923076923 130000
8.0 0.014853846153846153 130000
10.0 0.019684615384615384 130000
