n_steps logical_error_rate trials
1.0 0.004966666666666667 180000
2.0 0.012477777777777779 180000
3.0 0.020683333333333335 180000
4.0 0.028416666666666666 180000
5.0 0.037172222222222225 180000
6.0 0.04417777777777778 180000
7.0 0.05182222222222222 180000
8.0 0.05798333333333333 180000
9.0 0.06413333333333333 180000
10.0 0.07287777777777778 180000
