n_steps logical_error_rate trials
1.0 0.28253888888888895 180000
2.0 0.3754 180000
3.0 0.4268722222222222 180000
4.0 0.4592277777777778 180000
5.0 0.47507222222222223 180000
6.0 0.4847888888888889 180000
7.0 0.49159444444444444 180000
8.0 0.4968166666666667 180000
9.0 0.49700555555555553 180000
10.0 0.4999 180000
