n_steps logical_error_rate trials
1.0 0.3518125 400000
2.0 0.430045 400000
3.0 0.4670725 400000
4.0 0.485105 400000
5.0 0.4919625 400000
6.0 0.496175 400000
7.0 0.4994699999999999 400000
8.0 0.5007875 400000
9.0 0.5004850000000002 400000
10.0 0.4993725 400000
0.0 0.1851325 400000
