n_steps logical_error_rate trials
0.0 0.18713666666666667 300000
1.0 0.3455566666666667 300000
2.0 0.4231933333333333 300000
3.0 0.46159333333333336 300000
4.0 0.48278333333333334 300000
5.0 0.48919 300000
6.0 0.49538 300000
7.0 0.49814 300000
8.0 0.49871666666666664 300000
9.0 0.49893333333333334 300000
10.0 0.5007566666666666 300000
