n_steps logical_error_rate trials
0.0 0.09519 300000
1.0 0.23520666666666667 300000
2.0 0.33131666666666665 300000
3.0 0.39161666666666667 300000
4.0 0.43054 300000
5.0 0.45642 300000
6.0 0.4705166666666667 300000
7.0 0.48178 300000
8.0 0.4882666666666667 300000
9.0 0.49117666666666665 300000
10.0 0.49495666666666666 300000
