n_steps logical_error_rate trials
0.0 0.3391 300000
1.0 0.46345 300000
2.0 0.49341 300000
3.0 0.49940666666666667 300000
4.0 0.5001766666666667 300000
5.0 0.4989633333333333 300000
6.0 0.4989766666666667 300000
7.0 0.49823 300000
8.0 0.49911 300000
9.0 0.5012 300000
10.0 0.4999766666666667 300000
