n_steps logical_error_rate trials
0.0 0.05393666666666667 300000
1.0 0.17260333333333333 300000
2.0 0.2654266666666666 300000
3.0 0.32884 300000
4.0 0.37924 300000
5.0 0.4132533333333333 300000
6.0 0.43699333333333334 300000
7.0 0.45520666666666665 300000
8.0 0.4680433333333333 300000
9.0 0.47847666666666666 300000
10.0 0.4829 300000
