n_steps logical_error_rate trials
1.0 0.3466025 400000
2.0 0.425325 400000
3.0 0.463735 400000
4.0 0.4832925 400000
5.0 0.49301 400000
6.0 0.49647 400000
7.0 0.50014 400000
8.0 0.49865 400000
9.0 0.4983250000000001 400000
10.0 0.49885 400000
0.0 0.1777875 400000
