n_steps logical_error_rate trials
1.0 0.0020777777777777778 180000
2.0 0.0029222222222222223 180000
3.0 0.003833333333333333 180000
4.0 0.0052944444444444445 180000
5.0 0.005705555555555556 180000
6.0 0.006744444444444444 180000
7.0 0.007788888888888889 180000
8.0 0.009494444444444444 180000
9.0 0.010311111111111111 180000
10.0 0.010927777777777778 180000
