n_steps logical_error_rate trials
0.0 0.32399333333333336 300000
1.0 0.45892 300000
2.0 0.4870933333333333 300000
3.0 0.4979166666666667 300000
4.0 0.49792 300000
5.0 0.4998633333333333 300000
6.0 0.50043 300000
7.0 0.5001433333333334 300000
8.0 0.49948333333333333 300000
9.0 0.49983666666666665 300000
10.0 0.5012633333333333 300000
