n_steps logical_error_rate trials
1.0 0.28484249999999994 400000
2.0 0.3756325 400000
3.0 0.4305875 400000
4.0 0.45925 400000
5.0 0.4772675 400000
6.0 0.487165 400000
7.0 0.4941825 400000
8.0 0.49654 400000
9.0 0.49743 400000
10.0 0.4981475 400000
0.0 0.12748000000000004 400000
