n_steps logical_error_rate trials
1.0 0.01538888888888889 180000
2.0 0.02832222222222222 180000
3.0 0.040077777777777775 180000
4.0 0.053677777777777776 180000
5.0 0.06543333333333333 180000
6.0 0.07751111111111111 180000
7.0 0.08871666666666667 180000
8.0 0.10088333333333334 180000
9.0 0.11222777777777777 180000
10.0 0.12211111111111111 180000
