n_steps logical_error_rate trials
0.0 0.3115133333333333 300000
1.0 0.4457333333333333 300000
2.0 0.48617 300000
3.0 0.49665333333333334 300000
4.0 0.49923666666666666 300000
5.0 0.49982 300000
6.0 0.4982433333333333 300000
7.0 0.5008133333333332 300000
8.0 0.49963 300000
9.0 0.49987 300000
10.0 0.5017233333333333 300000
