n_steps logical_error_rate trials
1.0 0.054033333333333336 180000
2.0 0.10047777777777778 180000
3.0 0.14288333333333333 180000
4.0 0.17837777777777777 180000
5.0 0.21158888888888888 180000
6.0 0.2426111111111111 180000
7.0 0.2663722222222222 180000
8.0 0.28922777777777775 180000
9.0 0.3140222222222222 180000
10.0 0.33418333333333333 180000
