n_steps logical_error_rate trials
0.0 0.00293 300000
1.0 0.006383333333333334 300000
2.0 0.009349999999999999 300000
3.0 0.012143333333333334 300000
4.0 0.01569 300000
5.0 0.018686666666666667 300000
6.0 0.021713333333333334 300000
7.0 0.02482 300000
8.0 0.027803333333333333 300000
9.0 0.030666666666666665 300000
10.0 0.03302 300000
