n_steps logical_error_rate trials
1.0 0.30264 100000
2.0 0.39571 100000
3.0 0.43678 100000
4.0 0.463 100000
5.0 0.47867 100000
6.0 0.48862 100000
7.0 0.49355 100000
8.0 0.49637 100000
9.0 0.49622 100000
10.0 0.50065 100000
