n_steps logical_error_rate trials
1.0 0.12765 100000
2.0 0.21381 100000
3.0 0.28141 100000
4.0 0.33063 100000
5.0 0.3688 100000
6.0 0.40246 100000
7.0 0.42159 100000
8.0 0.44123 100000
9.0 0.45369 100000
10.0 0.46137 100000
