n_steps logical_error_rate trials
1.0 0.2459222222222222 180000
2.0 0.34097777777777777 180000
3.0 0.3991166666666667 180000
4.0 0.4354277777777778 180000
5.0 0.45966111111111113 180000
6.0 0.47478333333333333 180000
7.0 0.4830277777777778 180000
8.0 0.49043333333333333 180000
9.0 0.49362222222222224 180000
10.0 0.49805 180000
