n_steps logical_error_rate trials
0.0 0.11334333333333334 300000
1.0 0.26186 300000
2.0 0.35517000000000004 300000
3.0 0.41122333333333333 300000
4.0 0.4459166666666667 300000
5.0 0.4671033333333333 300000
6.0 0.4802166666666667 300000
7.0 0.49035 300000
8.0 0.49323 300000
9.0 0.49471333333333334 300000
10.0 0.49632333333333334 300000
