n_steps logical_error_rate trials
0.0 0.07632986111111112 576000
1.0 0.2136309090909091 550000
2.0 0.3098600000000001 550000
3.0 0.3724781818181818 550000
4.0 0.41479454545454547 550000
5.0 0.44340545454545455 550000
6.0 0.46145454545454545 550000
7.0 0.4758 550000
8.0 0.48196545454545453 550000
9.0 0.4877672727272727 550000
10.0 0.49167272727272726 550000
