n_steps logical_error_rate trials
1.0 0.0006538461538461538 130000
3.0 0.006253846153846154 130000
2.0 0.0032384615384615386 130000
5.0 0.013284615384615384 130000
4.0 0.009838461538461539 130000
6.0 0.017084615384615386 130000
9.0 0.027230769230769232 130000
7.0 0.02016923076923077 130000
8.0 0.023884615384615386 130000
10.0 0.030084615384615383 130000
