n_steps logical_error_rate trials
0.0 0.0197875 400000
1.0 0.094635 400000
2.0 0.16519 400000
3.0 0.223935 400000
4.0 0.2741374999999999 400000
5.0 0.31326250000000005 400000
6.0 0.3460825 400000
7.0 0.3735025 400000
8.0 0.398125 400000
9.0 0.4154 400000
10.0 0.42982 400000
