n_steps logical_error_rate trials
0.0 0.3072533333333333 300000
1.0 0.4457466666666667 300000
2.0 0.48494333333333334 300000
3.0 0.49390666666666666 300000
4.0 0.49928666666666666 300000
5.0 0.5012033333333333 300000
6.0 0.5006333333333335 300000
7.0 0.50021 300000
8.0 0.5011233333333334 300000
9.0 0.4995899999999999 300000
10.0 0.5009133333333333 300000
