n_steps logical_error_rate trials
1.0 0.00019 200000
2.0 0.000975 200000
3.0 0.002145 200000
4.0 0.00316 200000
5.0 0.004549999999999999 200000
6.0 0.00586 200000
7.0 0.00717 200000
8.0 0.00839 200000
9.0 0.009995 200000
10.0 0.01075 200000
0.0 0.0 300000
