n_steps logical_error_rate trials
1.0 6.666666666666667e-05 180000
2.0 5e-05 180000
3.0 8.888888888888888e-05 180000
4.0 0.00018333333333333334 180000
5.0 0.00012222222222222221 180000
6.0 0.00020555555555555556 180000
7.0 0.00015 180000
8.0 0.0002611111111111111 180000
9.0 0.00021666666666666666 180000
10.0 0.0002888888888888889 180000
