n_steps logical_error_rate trials
1.0 0.04303 400000
2.0 0.087925 400000
3.0 0.13022000000000003 400000
4.0 0.1682525 400000
5.0 0.20168 400000
6.0 0.23168 400000
7.0 0.2599875 400000
8.0 0.283755 400000
9.0 0.30757749999999995 400000
10.0 0.3263275 400000
0.0 0.0055725 400000
