n_steps logical_error_rate trials
1.0 0.012345 200000
2.0 0.04099 200000
3.0 0.075905 200000
4.0 0.115005 200000
5.0 0.146375 200000
6.0 0.17966 200000
7.0 0.209895 200000
8.0 0.237 200000
9.0 0.26132000000000005 200000
10.0 0.283505 200000
