n_steps logical_error_rate trials
0.0 0.04915666666666667 300000
1.0 0.09352666666666666 300000
2.0 0.13243333333333332 300000
3.0 0.1689266666666667 300000
4.0 0.2019 300000
5.0 0.23219333333333333 300000
6.0 0.2584833333333334 300000
7.0 0.28158 300000
8.0 0.30266 300000
9.0 0.3219633333333333 300000
10.0 0.33848666666666666 300000
