n_steps logical_error_rate trials
1.0 0.23418333333333333 180000
2.0 0.3289888888888889 180000
3.0 0.3907833333333333 180000
4.0 0.4288111111111111 180000
5.0 0.4545166666666667 180000
6.0 0.46889444444444445 180000
7.0 0.4804111111111111 180000
8.0 0.4882611111111111 180000
9.0 0.49357222222222225 180000
10.0 0.4947888888888889 180000
