n_steps logical_error_rate trials
0.0 0.002906896551724138 580000
1.0 0.02830952380952381 84000
2.0 0.06113095238095238 84000
3.0 0.0950952380952381 84000
4.0 0.12689285714285714 84000
5.0 0.15395238095238095 84000
6.0 0.18286666666666668 30000
