n_steps logical_error_rate trials
1.0 0.36225 180000
2.0 0.4348166666666667 180000
3.0 0.4693555555555556 180000
4.0 0.4875055555555556 180000
5.0 0.49395555555555554 180000
6.0 0.49935555555555555 180000
7.0 0.50085 180000
8.0 0.49997777777777797 180000
9.0 0.4984166666666667 180000
10.0 0.49711666666666665 180000
