n_steps logical_error_rate trials
1.0 5.555555555555556e-06 180000
2.0 0.0 180000
3.0 5.555555555555556e-06 180000
4.0 3.3333333333333335e-05 180000
5.0 1.1111111111111112e-05 180000
6.0 2.2222222222222223e-05 180000
7.0 3.3333333333333335e-05 180000
8.0 1.6666666666666664e-05 180000
9.0 1.6666666666666667e-05 180000
10.0 2.2222222222222223e-05 180000
