n_steps logical_error_rate trials
1.0 0.3423777777777778 180000
2.0 0.42094444444444445 180000
3.0 0.4630111111111111 180000
4.0 0.4821111111111111 180000
5.0 0.49141666666666667 180000
6.0 0.49415555555555557 180000
7.0 0.4986555555555556 180000
8.0 0.4977111111111111 180000
9.0 0.4997 180000
10.0 0.49985 180000
