n_steps logical_error_rate trials
1.0 0.023553846153846154 130000
2.0 0.054646153846153844 130000
3.0 0.08443846153846153 130000
4.0 0.11447692307692307 130000
5.0 0.1403307692307692 130000
6.0 0.1639923076923077 130000
7.0 0.1915769230769231 130000
8.0 0.2116076923076923 130000
9.0 0.23305384615384617 130000
10.0 0.24957692307692309 130000
