n_steps logical_error_rate trials
0.0 0.32149 300000
1.0 0.4526133333333333 300000
2.0 0.48649 300000
3.0 0.49534666666666666 300000
4.0 0.49878 300000
5.0 0.49924666666666667 300000
6.0 0.5014933333333333 300000
7.0 0.4977566666666667 300000
8.0 0.5014766666666666 300000
9.0 0.49872 300000
10.0 0.5012 300000
