n_steps logical_error_rate trials
0.0 0.32149 300000
1.0 0.45064367816091955 87000
2.0 0.4859770114942529 87000
3.0 0.49460919540229886 87000
4.0 0.5007586206896552 87000
5.0 0.49880459770114943 87000
