n_steps logical_error_rate trials
0.0 0.0 300000
1.0 0.0005833333333333334 84000
2.0 0.0024523809523809524 84000
3.0 0.004952380952380952 84000
4.0 0.0074761904761904766 84000
5.0 0.010976190476190476 84000
6.0 0.012588888888888889 90000
