n_steps logical_error_rate trials
1.0 0.034105555555555556 180000
2.0 0.06620000000000001 180000
3.0 0.09548333333333334 180000
4.0 0.12401666666666666 180000
5.0 0.14969444444444444 180000
6.0 0.1749111111111111 180000
7.0 0.19642777777777778 180000
8.0 0.2168388888888889 180000
9.0 0.2364777777777778 180000
10.0 0.2578166666666667 180000
