n_steps logical_error_rate trials
1.0 0.19557777777777777 180000
2.0 0.2856444444444444 180000
3.0 0.3469555555555556 180000
4.0 0.39445 180000
5.0 0.4266666666666667 180000
6.0 0.44715 180000
7.0 0.4625611111111111 180000
8.0 0.4748888888888889 180000
9.0 0.4818277777777778 180000
10.0 0.48538333333333333 180000
