n_steps logical_error_rate trials
1.0 0.013984615384615385 130000
2.0 0.03585384615384615 130000
3.0 0.05796153846153846 130000
4.0 0.08110769230769231 130000
5.0 0.10135384615384616 130000
6.0 0.12241538461538462 130000
7.0 0.13924615384615385 130000
8.0 0.15953076923076923 130000
9.0 0.17623076923076922 130000
10.0 0.19274615384615384 130000
