n_steps logical_error_rate trials
0.0 0.0 300000
1.0 0.0 200000
2.0 0.0 200000
3.0 0.0 200000
4.0 0.0 200000
5.0 0.0 200000
6.0 5e-06 200000
7.0 1e-05 200000
8.0 1e-05 200000
9.0 1e-05 200000
10.0 1.5e-05 200000
