n_steps logical_error_rate trials
0.0 0.12013666666666667 300000
1.0 0.21135 300000
2.0 0.28042666666666666 300000
3.0 0.33274 300000
4.0 0.3727933333333333 300000
5.0 0.4043366666666667 300000
6.0 0.42473666666666665 300000
7.0 0.44301 300000
8.0 0.4568933333333333 300000
9.0 0.4676166666666667 300000
10.0 0.4729966666666667 300000
