n_steps logical_error_rate trials
1.0 0.029346153846153845 130000
2.0 0.06523846153846154 130000
3.0 0.09971538461538461 130000
4.0 0.1319846153846154 130000
5.0 0.16163076923076924 130000
6.0 0.19123846153846155 130000
7.0 0.2153076923076923 130000
8.0 0.23682307692307691 130000
9.0 0.2592769230769232 130000
10.0 0.2756615384615384 130000
