n_steps logical_error_rate trials
1.0 0.18436923076923076 130000
2.0 0.2789307692307692 130000
3.0 0.34236153846153844 130000
7.0 0.45965384615384614 130000
4.0 0.3875153846153846 130000
5.0 0.4222923076923077 130000
6.0 0.4411307692307692 130000
8.0 0.47416153846153847 130000
9.0 0.4798846153846154 130000
10.0 0.4874538461538461 130000
