n_steps logical_error_rate trials
1.0 0.31977777777777777 180000
2.0 0.40386666666666665 180000
3.0 0.4482055555555556 180000
6.0 0.49122777777777776 180000
4.0 0.4718888888888889 180000
5.0 0.48455 180000
9.0 0.49874444444444443 180000
7.0 0.49606666666666666 180000
8.0 0.49805 180000
10.0 0.5001833333333333 180000
