n_steps logical_error_rate trials
1.0 0.2495 180000
2.0 0.3375444444444444 180000
3.0 0.39213333333333333 180000
4.0 0.43116666666666664 180000
5.0 0.45548333333333335 180000
6.0 0.4706888888888889 180000
7.0 0.4802388888888889 180000
8.0 0.4872111111111111 180000
9.0 0.4920888888888889 180000
10.0 0.4945555555555556 180000
