n_steps logical_error_rate trials
1.0 0.0013 130000
2.0 0.0050230769230769235 130000
3.0 0.010223076923076923 130000
4.0 0.015 130000
5.0 0.020553846153846155 130000
6.0 0.025215384615384615 130000
7.0 0.029884615384615384 130000
8.0 0.036107692307692306 130000
9.0 0.03973076923076923 130000
10.0 0.044715384615384615 130000
