n_steps logical_error_rate trials
1.0 0.08959 100000
2.0 0.16894 100000
3.0 0.22875 100000
4.0 0.2815 100000
5.0 0.3276 100000
6.0 0.35796 100000
7.0 0.38606 100000
8.0 0.40783 100000
9.0 0.42765 100000
10.0 0.44029 100000
