n_steps logical_error_rate trials
1.0 0.0 60000
2.0 0.0001 60000
3.0 0.00024999999999999995 60000
4.0 0.00024999999999999995 60000
5.0 0.00046666666666666666 60000
6.0 0.0007166666666666667 60000
7.0 0.0006833333333333333 60000
8.0 0.0008666666666666666 60000
9.0 0.0007666666666666667 60000
10.0 0.0008833333333333333 60000
