n_steps logical_error_rate trials
1.0 0.1232 60000
2.0 0.19723333333333334 60000
3.0 0.2557833333333333 60000
4.0 0.30406666666666665 60000
5.0 0.3418333333333333 60000
6.0 0.37265 60000
7.0 0.39481666666666665 60000
8.0 0.41673333333333334 60000
9.0 0.43456666666666666 60000
10.0 0.4502333333333333 60000
