n_steps logical_error_rate trials
0.0 0.06063 100000
1.0 0.1122 100000
2.0 0.16013 100000
3.0 0.19849 100000
4.0 0.23443 100000
5.0 0.26455000000000006 100000
6.0 0.2923699999999999 100000
7.0 0.32126 100000
8.0 0.33919 100000
9.0 0.35552 100000
10.0 0.37557 100000
