n_steps logical_error_rate trials
1.0 0.39032 150000
2.0 0.4501266666666667 150000
3.0 0.4787266666666667 150000
4.0 0.4887066666666667 150000
5.0 0.49342 150000
6.0 0.4953666666666667 150000
7.0 0.4985266666666667 150000
8.0 0.49984666666666666 150000
9.0 0.5012533333333333 150000
10.0 0.4977933333333333 150000
