n_steps logical_error_rate trials
0.0 0.31867 100000
1.0 0.45248 100000
2.0 0.48387 100000
3.0 0.49622 100000
4.0 0.49972 100000
5.0 0.49868 100000
6.0 0.50051 100000
7.0 0.49842 100000
8.0 0.50197 100000
9.0 0.50142 100000
10.0 0.5002 100000
