n_steps logical_error_rate trials
1.0 0.084 40000
2.0 0.147825 40000
3.0 0.212275 40000
4.0 0.2571 40000
5.0 0.29765 40000
6.0 0.330975 40000
7.0 0.3601 40000
8.0 0.38475 40000
9.0 0.40524999999999994 40000
10.0 0.41885 40000
