n_steps logical_error_rate trials
1.0 0.2756166666666667 60000
2.0 0.3645333333333333 60000
3.0 0.4217666666666667 60000
4.0 0.44998333333333335 60000
5.0 0.47105 60000
6.0 0.4802666666666667 60000
7.0 0.4913 60000
8.0 0.4958666666666667 60000
9.0 0.49798333333333333 60000
10.0 0.50005 60000
