n_steps logical_error_rate trials
0.0 0.11328 100000
1.0 0.26344 100000
2.0 0.35362 100000
3.0 0.41202 100000
4.0 0.44563 100000
5.0 0.4645 100000
6.0 0.47894 100000
7.0 0.4879 100000
8.0 0.49425 100000
9.0 0.49519 100000
10.0 0.49721 100000
