n_steps logical_error_rate trials
0.0 0.29731 100000
1.0 0.4428 100000
2.0 0.48481 100000
3.0 0.49564 100000
4.0 0.50004 100000
5.0 0.50172 100000
6.0 0.49988 100000
7.0 0.50071 100000
8.0 0.5001599999999999 100000
9.0 0.50096 100000
10.0 0.50081 100000
