n_steps logical_error_rate trials
1.0 0.0 60000
2.0 0.0 60000
3.0 1.6666666666666667e-05 60000
4.0 0.0 60000
5.0 1.6666666666666667e-05 60000
6.0 6.666666666666666e-05 60000
7.0 8.333333333333333e-05 60000
8.0 1.6666666666666667e-05 60000
9.0 8.333333333333333e-05 60000
10.0 0.00016666666666666666 60000
