n_steps logical_error_rate trials
1.0 0.30565 40000
2.0 0.39345 40000
3.0 0.4435 40000
4.0 0.469525 40000
5.0 0.483275 40000
6.0 0.49125 40000
7.0 0.492525 40000
8.0 0.49485 40000
9.0 0.49715 40000
10.0 0.50225 40000
