n_steps logical_error_rate trials
1.0 0.3386 40000
2.0 0.421375 40000
3.0 0.4616 40000
4.0 0.4856 40000
5.0 0.493475 40000
6.0 0.4944 40000
7.0 0.4916 40000
8.0 0.493975 40000
9.0 0.5051 40000
10.0 0.496975 40000
