n_steps logical_error_rate trials
1.0 0.39563055555555554 360000
2.0 0.4581861111111111 360000
3.0 0.48199166666666665 360000
4.0 0.494425 360000
5.0 0.49743333333333334 360000
6.0 0.4994722222222222 360000
7.0 0.49732777777777776 360000
8.0 0.5008888888888886 360000
9.0 0.4990222222222222 360000
10.0 0.49911666666666665 360000
