n_steps logical_error_rate trials
0.0 0.03854000000000001 100000
1.0 0.14421 100000
2.0 0.22974 100000
3.0 0.29678999999999994 100000
4.0 0.3417299999999999 100000
5.0 0.38146 100000
6.0 0.40965 100000
7.0 0.43319 100000
8.0 0.45088 100000
9.0 0.45966 100000
10.0 0.47045 100000
