n_steps logical_error_rate trials
1.0 0.3668 60000
2.0 0.44283333333333336 60000
3.0 0.47151666666666664 60000
4.0 0.49023333333333335 60000
5.0 0.49601666666666666 60000
6.0 0.49785 60000
7.0 0.5018166666666667 60000
8.0 0.49905 60000
9.0 0.5006166666666667 60000
10.0 0.5020666666666668 60000
