n_steps logical_error_rate trials
0.0 0.13291 100000
1.0 0.23124 100000
2.0 0.30666999999999994 100000
3.0 0.36182 100000
4.0 0.39569 100000
5.0 0.42507 100000
6.0 0.44257 100000
7.0 0.45991 100000
8.0 0.47215 100000
9.0 0.48239 100000
10.0 0.48666 100000
