n_steps logical_error_rate trials
0.0 0.00159 100000
1.0 0.01831 100000
2.0 0.0446 100000
3.0 0.07198999999999998 100000
4.0 0.09732 100000
5.0 0.12233 100000
6.0 0.14353 100000
7.0 0.16643 100000
8.0 0.18811 100000
9.0 0.20668 100000
10.0 0.22366 100000
