n_steps logical_error_rate trials
1.0 0.13145 40000
2.0 0.218575 40000
3.0 0.27795 40000
4.0 0.331175 40000
5.0 0.366375 40000
6.0 0.402 40000
7.0 0.41985 40000
8.0 0.43545 40000
9.0 0.457 40000
10.0 0.4622 40000
