n_steps logical_error_rate trials
0.0 0.11881 100000
1.0 0.21085 100000
2.0 0.27998000000000006 100000
3.0 0.33369 100000
4.0 0.37209 100000
5.0 0.40409 100000
6.0 0.42536 100000
7.0 0.44079 100000
8.0 0.45447 100000
9.0 0.46522 100000
10.0 0.47649 100000
