n_steps logical_error_rate trials
1.0 0.41004722222222223 360000
2.0 0.46737222222222224 360000
3.0 0.48767777777777777 360000
4.0 0.49600833333333333 360000
5.0 0.4957888888888889 360000
6.0 0.5001472222222222 360000
7.0 0.4996555555555556 360000
8.0 0.49988611111111136 360000
9.0 0.4981888888888889 360000
10.0 0.49976944444444454 360000
