n_steps logical_error_rate trials
0.0 0.17466 100000
1.0 0.33131 100000
2.0 0.41333 100000
3.0 0.45455 100000
4.0 0.47571 100000
5.0 0.48898 100000
6.0 0.49492 100000
7.0 0.49469 100000
8.0 0.50017 100000
9.0 0.5024600000000001 100000
10.0 0.5000099999999997 100000
