n_steps logical_error_rate trials
1.0 0.3694138888888889 360000
2.0 0.4397333333333333 360000
3.0 0.47459444444444443 360000
4.0 0.48575277777777776 360000
5.0 0.49420555555555556 360000
6.0 0.49693611111111113 360000
7.0 0.4960277777777778 360000
8.0 0.4991305555555556 360000
9.0 0.4996361111111111 360000
10.0 0.499725 360000
