n_steps logical_error_rate trials
0.0 0.10214 100000
1.0 0.24979 100000
2.0 0.34831 100000
3.0 0.40691 100000
4.0 0.44026 100000
5.0 0.46365 100000
6.0 0.47651 100000
7.0 0.48766 100000
8.0 0.49473 100000
9.0 0.49134 100000
10.0 0.49674 100000
