n_steps logical_error_rate trials
1.0 0.000225 40000
2.0 0.000925 40000
3.0 0.0023 40000
4.0 0.00345 40000
5.0 0.005449999999999999 40000
6.0 0.00655 40000
7.0 0.0071 40000
8.0 0.009375 40000
9.0 0.0106 40000
10.0 0.01205 40000
