n_steps logical_error_rate trials
1.0 0.0022833333333333334 60000
2.0 0.0062833333333333335 60000
3.0 0.010533333333333334 60000
4.0 0.0131 60000
5.0 0.01765 60000
6.0 0.021516666666666667 60000
7.0 0.02581666666666667 60000
8.0 0.027883333333333333 60000
9.0 0.03373333333333333 60000
10.0 0.037866666666666667 60000
