n_steps logical_error_rate trials
0.0 0.0044 100000
1.0 0.035390000000000005 100000
2.0 0.07639000000000001 100000
3.0 0.11478 100000
4.0 0.14980999999999997 100000
5.0 0.17932999999999993 100000
6.0 0.20943 100000
7.0 0.23673 100000
8.0 0.25958 100000
9.0 0.28353000000000006 100000
10.0 0.30249 100000
