n_steps logical_error_rate trials
1.0 0.0194 60000
2.0 0.035583333333333335 60000
3.0 0.0495 60000
4.0 0.06553333333333335 60000
5.0 0.08238333333333334 60000
6.0 0.09776666666666667 60000
7.0 0.11185 60000
8.0 0.12461666666666667 60000
9.0 0.13586666666666666 60000
10.0 0.14988333333333334 60000
