n_steps logical_error_rate trials
1.0 0.42579333333333336 150000
2.0 0.4723333333333333 150000
3.0 0.4898133333333333 150000
4.0 0.49710666666666664 150000
5.0 0.4996133333333334 150000
6.0 0.49972666666666665 150000
7.0 0.50014 150000
8.0 0.5006533333333332 150000
9.0 0.49795333333333336 150000
10.0 0.49636 150000
