n_steps logical_error_rate trials
0.0 0.17311 100000
1.0 0.28651 100000
2.0 0.36272 100000
3.0 0.40776 100000
4.0 0.44072 100000
5.0 0.46682 100000
6.0 0.47603 100000
7.0 0.48439 100000
8.0 0.48903 100000
9.0 0.49446 100000
10.0 0.49614 100000
