n_steps logical_error_rate trials
1.0 0.0038999999999999994 60000
2.0 0.0089 60000
3.0 0.01505 60000
4.0 0.020833333333333332 60000
5.0 0.0261 60000
6.0 0.0324 60000
7.0 0.03766666666666667 60000
8.0 0.04133333333333333 60000
9.0 0.0465 60000
10.0 0.05193333333333333 60000
