n_steps logical_error_rate trials
1 0.3016666666666667 600
1 0.2816666666666667 600
1 0.31833333333333336 600
1 0.30666666666666664 600
1 0.30333333333333334 600
2 0.365 600
2 0.3933333333333333 600
2 0.37333333333333335 600
2 0.36666666666666664 600
2 0.37166666666666665 600
3 0.44333333333333336 600
3 0.44166666666666665 600
3 0.48 600
3 0.41333333333333333 600
3 0.4533333333333333 600
4 0.49 600
4 0.44166666666666665 600
4 0.48333333333333334 600
4 0.5233333333333333 600
4 0.4866666666666667 600
5 0.49 600
5 0.49333333333333335 600
5 0.465 600
5 0.46 600
5 0.49333333333333335 600
6 0.49666666666666665 600
6 0.49833333333333335 600
6 0.4816666666666667 600
6 0.4666666666666667 600
6 0.48833333333333334 600
7 0.545 600
7 0.5283333333333333 600
7 0.45 600
7 0.51 600
7 0.4633333333333333 600
8 0.4766666666666667 600
8 0.5066666666666667 600
8 0.475 600
8 0.5366666666666666 600
8 0.485 600
9 0.5066666666666667 600
9 0.5133333333333333 600
9 0.5166666666666667 600
9 0.49166666666666664 600
1 0.31166666666666665 600
1 0.29833333333333334 600
1 0.305 600
1 0.2733333333333333 600
1 0.2816666666666667 600
2 0.385 600
2 0.395 600
2 0.38 600
2 0.4033333333333333 600
2 0.3466666666666667 600
3 0.45 600
3 0.44 600
3 0.4216666666666667 600
3 0.45166666666666666 600
3 0.415 600
4 0.46 600
4 0.48 600
4 0.4633333333333333 600
4 0.49 600
4 0.455 600
5 0.4666666666666667 600
9 0.48 600
5 0.5 600
5 0.45 600
5 0.49833333333333335 600
5 0.47333333333333333 600
6 0.505 600
6 0.49666666666666665 600
6 0.5033333333333333 600
6 0.5183333333333333 600
6 0.47333333333333333 600
7 0.5016666666666667 600
7 0.43166666666666664 600
