n_steps logical_error_rate trials
1.0 0.361075 40000
2.0 0.437475 40000
3.0 0.47045 40000
4.0 0.484775 40000
5.0 0.49485 40000
6.0 0.496975 40000
7.0 0.5044 40000
8.0 0.497675 40000
9.0 0.497775 40000
10.0 0.499825 40000
