n_steps logical_error_rate trials
1.0 0.3435 60000
2.0 0.41925 60000
3.0 0.4640666666666667 60000
4.0 0.4819333333333333 60000
5.0 0.4947666666666667 60000
6.0 0.49201666666666666 60000
7.0 0.49671666666666664 60000
8.0 0.5003166666666666 60000
9.0 0.50355 60000
10.0 0.4993833333333333 60000
