n_steps logical_error_rate trials
0.0 0.15391 100000
1.0 0.31009 100000
2.0 0.39529 100000
3.0 0.44198 100000
4.0 0.47008 100000
5.0 0.48523 100000
6.0 0.48963 100000
7.0 0.49684 100000
8.0 0.49809 100000
9.0 0.49663 100000
10.0 0.50099 100000
