n_steps logical_error_rate trials
1.0 0.00425 60000
2.0 0.009116666666666667 60000
3.0 0.013683333333333334 60000
4.0 0.01805 60000
5.0 0.0226 60000
6.0 0.025833333333333333 60000
7.0 0.02985 60000
8.0 0.0343 60000
9.0 0.03913333333333333 60000
10.0 0.0439 60000
