n_steps logical_error_rate trials
1.0 0.3323 60000
2.0 0.41463333333333335 60000
3.0 0.45626666666666665 60000
4.0 0.47975 60000
5.0 0.48935 60000
6.0 0.4958 60000
7.0 0.5007333333333334 60000
8.0 0.5010666666666667 60000
9.0 0.49765 60000
10.0 0.50045 60000
