n_steps logical_error_rate trials
0.0 0.02968 100000
1.0 0.12273 100000
2.0 0.20603 100000
3.0 0.26735 100000
4.0 0.31992 100000
5.0 0.35822 100000
6.0 0.38771 100000
7.0 0.4148 100000
8.0 0.43065 100000
9.0 0.44778 100000
10.0 0.45936 100000
