n_steps logical_error_rate trials
1.0 0.23575 60000
2.0 0.33013333333333333 60000
3.0 0.38815 60000
4.0 0.426 60000
5.0 0.4542333333333333 60000
6.0 0.4681 60000
7.0 0.47915 60000
8.0 0.48746666666666666 60000
9.0 0.4923166666666667 60000
10.0 0.49256666666666665 60000
