n_steps logical_error_rate trials
0.0 0.09371 100000
1.0 0.23542 100000
2.0 0.33205 100000
3.0 0.38982 100000
4.0 0.42974 100000
5.0 0.4543 100000
6.0 0.46999 100000
7.0 0.48228 100000
8.0 0.48904 100000
9.0 0.49101 100000
10.0 0.49721 100000
