n_steps logical_error_rate trials
0.0 0.20567 200000
1.0 0.368545 200000
2.0 0.445365 200000
3.0 0.471995 200000
4.0 0.492105 200000
5.0 0.495215 200000
6.0 0.49697 200000
7.0 0.4999450000000001 200000
8.0 0.4994949999999999 200000
9.0 0.49844 200000
10.0 0.498165 200000
