n_steps logical_error_rate trials
1.0 0.002 60000
2.0 0.0028666666666666667 60000
3.0 0.0039 60000
4.0 0.004483333333333333 60000
5.0 0.0059 60000
6.0 0.006366666666666666 60000
7.0 0.007533333333333334 60000
8.0 0.009233333333333333 60000
9.0 0.0105 60000
10.0 0.01055 60000
