n_steps logical_error_rate trials
1.0 0.012666666666666666 60000
2.0 0.040233333333333336 60000
3.0 0.07433333333333335 60000
4.0 0.11358333333333333 60000
5.0 0.14571666666666663 60000
6.0 0.17965 60000
7.0 0.21163333333333334 60000
8.0 0.2383 60000
9.0 0.26355 60000
10.0 0.28276666666666667 60000
