n_steps logical_error_rate trials
0.0 0.32858 100000
1.0 0.45845 100000
2.0 0.4881 100000
3.0 0.49491 100000
4.0 0.49582 100000
5.0 0.50128 100000
6.0 0.5022699999999999 100000
7.0 0.50101 100000
8.0 0.49751 100000
9.0 0.49874 100000
10.0 0.50348 100000
