n_steps logical_error_rate trials
1.0 0.409 3000
2.0 0.4713333333333333 3000
3.0 0.49666666666666665 3000
4.0 0.49933333333333335 3000
5.0 0.49066666666666664 3000
6.0 0.487 3000
7.0 0.5026666666666667 3000
8.0 0.489 3000
9.0 0.515 3000
