n_steps logical_error_rate trials
1.0 0.30053333333333326 60000
2.0 0.3887833333333333 60000
3.0 0.43755 60000
4.0 0.4675 60000
5.0 0.4811166666666667 60000
6.0 0.49046666666666666 60000
7.0 0.4935333333333333 60000
8.0 0.49806666666666666 60000
9.0 0.4965 60000
10.0 0.5033 60000
