n_steps logical_error_rate trials
1.0 0.04295 40000
2.0 0.08655 40000
3.0 0.13045 40000
4.0 0.171375 40000
5.0 0.205975 40000
6.0 0.2333 40000
7.0 0.258625 40000
8.0 0.281975 40000
9.0 0.30645 40000
10.0 0.327625 40000
