n_steps logical_error_rate trials
1.0 0.319775 40000
2.0 0.40475 40000
3.0 0.4545 40000
4.0 0.47525 40000
5.0 0.4846 40000
6.0 0.4954 40000
7.0 0.49855 40000
8.0 0.49455 40000
9.0 0.49985 40000
10.0 0.49895 40000
