n_steps logical_error_rate trials
1.0 0.0025 40000
2.0 0.007875 40000
3.0 0.015175 40000
4.0 0.021625 40000
5.0 0.028725 40000
6.0 0.035625 40000
7.0 0.043 40000
8.0 0.050525 40000
9.0 0.055325 40000
10.0 0.0644 40000
