n_steps logical_error_rate trials
1.0 0.2394 60000
2.0 0.32665 60000
3.0 0.38516666666666666 60000
4.0 0.42406666666666665 60000
5.0 0.44953333333333334 60000
6.0 0.46395 60000
7.0 0.47925 60000
8.0 0.4785333333333333 60000
9.0 0.4896 60000
10.0 0.4914 60000
