n_steps logical_error_rate trials
0.0 0.34993 100000
1.0 0.46945 100000
2.0 0.49598 100000
3.0 0.49755 100000
4.0 0.49775 100000
5.0 0.50264 100000
6.0 0.49822 100000
7.0 0.49836 100000
8.0 0.50194 100000
9.0 0.4985 100000
10.0 0.50191 100000
