n_steps logical_error_rate trials
0.0 0.1398 100000
1.0 0.24074 100000
2.0 0.3137500000000001 100000
3.0 0.36572 100000
4.0 0.40199 100000
5.0 0.43218 100000
6.0 0.45058 100000
7.0 0.46187 100000
8.0 0.47697 100000
9.0 0.48187 100000
10.0 0.49027 100000
