n_steps logical_error_rate trials
1.0 0.33886666666666665 150000
2.0 0.4103 150000
3.0 0.4480733333333333 150000
4.0 0.46958 150000
5.0 0.48366 150000
6.0 0.49161333333333335 150000
7.0 0.4955466666666667 150000
8.0 0.49824666666666667 150000
9.0 0.5001266666666667 150000
10.0 0.4999866666666666 150000
