n_steps logical_error_rate trials
1.0 0.261375 40000
2.0 0.3507 40000
3.0 0.409475 40000
4.0 0.44685 40000
5.0 0.46565 40000
6.0 0.48205 40000
7.0 0.490875 40000
8.0 0.495525 40000
9.0 0.49235 40000
10.0 0.499975 40000
