n_steps logical_error_rate trials
0.0 0.28339 100000
1.0 0.43067 100000
2.0 0.47709 100000
3.0 0.49225 100000
4.0 0.49769 100000
5.0 0.49958 100000
6.0 0.5014099999999999 100000
7.0 0.49969 100000
8.0 0.50019 100000
9.0 0.5001599999999999 100000
10.0 0.5012599999999999 100000
