n_steps logical_error_rate trials
0.0 0.22507 100000
1.0 0.3825 100000
2.0 0.45041 100000
3.0 0.48062 100000
4.0 0.48967 100000
5.0 0.49567 100000
6.0 0.5003000000000001 100000
7.0 0.49803 100000
8.0 0.49853 100000
9.0 0.5008999999999999 100000
10.0 0.49807 100000
