n_steps logical_error_rate trials
1.0 0.0 40000
2.0 2.5e-05 40000
3.0 0.0002 40000
4.0 0.00035 40000
5.0 0.00044999999999999993 40000
6.0 0.000575 40000
7.0 0.000725 40000
8.0 0.00085 40000
9.0 0.000875 40000
10.0 0.000925 40000
