n_steps logical_error_rate trials
0.0 0.01186 100000
1.0 0.07402 100000
2.0 0.14251999999999998 100000
3.0 0.20551 100000
4.0 0.2581399999999999 100000
5.0 0.30140000000000006 100000
6.0 0.3338 100000
7.0 0.36252 100000
8.0 0.38699 100000
9.0 0.40805 100000
10.0 0.42212 100000
