n_steps logical_error_rate trials
1.0 0.3561166666666667 60000
2.0 0.42988333333333334 60000
3.0 0.4690166666666667 60000
4.0 0.49028333333333335 60000
5.0 0.49488333333333334 60000
6.0 0.49483333333333335 60000
7.0 0.4958166666666667 60000
8.0 0.4981333333333333 60000
9.0 0.49805 60000
10.0 0.4979 60000
