n_steps logical_error_rate trials
1.0 0.02825 60000
2.0 0.05511666666666667 60000
3.0 0.08035 60000
4.0 0.10823333333333333 60000
5.0 0.1289 60000
6.0 0.1497 60000
7.0 0.17246666666666666 60000
8.0 0.19283333333333333 60000
9.0 0.20846666666666666 60000
10.0 0.2268 60000
