n_steps logical_error_rate trials
0.0 0.15299999999999994 100000
1.0 0.25817 100000
2.0 0.3318 100000
3.0 0.38185 100000
4.0 0.42082 100000
5.0 0.44618 100000
6.0 0.45912 100000
7.0 0.4733 100000
8.0 0.48232 100000
9.0 0.48769 100000
10.0 0.49159 100000
