n_steps logical_error_rate trials
1.0 0.04886666666666667 60000
2.0 0.0839 60000
3.0 0.1178 60000
4.0 0.14631666666666668 60000
5.0 0.17345 60000
6.0 0.19506666666666664 60000
7.0 0.2196 60000
8.0 0.2426 60000
9.0 0.26148333333333335 60000
10.0 0.2818833333333333 60000
