n_steps logical_error_rate trials
0.0 0.083 100000
1.0 0.15101 100000
2.0 0.20598 100000
3.0 0.25605999999999995 100000
4.0 0.29225 100000
5.0 0.33088 100000
6.0 0.3582600000000001 100000
7.0 0.38271 100000
8.0 0.39971 100000
9.0 0.419 100000
10.0 0.43275 100000
