n_steps logical_error_rate trials
0.0 0.19789 100000
1.0 0.35669 100000
2.0 0.43264 100000
3.0 0.47041 100000
4.0 0.48464 100000
5.0 0.49501 100000
6.0 0.49634 100000
7.0 0.49972 100000
8.0 0.49914 100000
9.0 0.5002100000000002 100000
10.0 0.5002400000000002 100000
