n_steps logical_error_rate trials
1.0 0.34965 40000
2.0 0.439575 40000
3.0 0.4646 40000
4.0 0.486125 40000
5.0 0.496525 40000
6.0 0.4993 40000
7.0 0.5004750000000001 40000
8.0 0.497725 40000
9.0 0.494125 40000
10.0 0.503425 40000
