n_steps logical_error_rate trials
1.0 8.333333333333333e-05 60000
2.0 0.00011666666666666665 60000
3.0 0.0001 60000
4.0 0.00013333333333333334 60000
5.0 0.0001 60000
6.0 0.0002 60000
7.0 0.00013333333333333334 60000
8.0 0.00024999999999999995 60000
9.0 0.00018333333333333334 60000
10.0 0.0002 60000
