n_steps logical_error_rate trials
0.0 0.00521 100000
1.0 0.04979 100000
2.0 0.11071 100000
3.0 0.16554 100000
4.0 0.21371 100000
5.0 0.2557900000000001 100000
6.0 0.29339 100000
7.0 0.32405 100000
8.0 0.3512199999999999 100000
9.0 0.3735799999999999 100000
10.0 0.38963 100000
