n_steps logical_error_rate trials
0.0 0.04433 100000
1.0 0.15416 100000
2.0 0.24448 100000
3.0 0.31249000000000005 100000
4.0 0.36275 100000
5.0 0.39914 100000
6.0 0.42312 100000
7.0 0.44052 100000
8.0 0.45627 100000
9.0 0.47057 100000
10.0 0.47739 100000
