n_steps logical_error_rate trials
0.0 0.00438 100000
1.0 0.04285 100000
2.0 0.09929 100000
3.0 0.15297999999999998 100000
4.0 0.20079 100000
5.0 0.24305 100000
6.0 0.28047 100000
7.0 0.30961 100000
8.0 0.33581 100000
9.0 0.35885 100000
10.0 0.38266 100000
