n_steps logical_error_rate trials
1.0 0.09 60000
2.0 0.15273333333333333 60000
3.0 0.20568333333333333 60000
4.0 0.24976666666666666 60000
5.0 0.2898333333333333 60000
6.0 0.32111666666666666 60000
7.0 0.35263333333333335 60000
8.0 0.3748 60000
9.0 0.39598333333333335 60000
10.0 0.4081166666666667 60000
