n_steps logical_error_rate trials
0.0 0.039720000000000005 100000
1.0 0.1461 100000
2.0 0.23477 100000
3.0 0.30129 100000
4.0 0.3502599999999999 100000
5.0 0.38803 100000
6.0 0.41767 100000
7.0 0.43661 100000
8.0 0.45066 100000
9.0 0.46341 100000
10.0 0.47426 100000
