n_steps logical_error_rate trials
0.0 0.25809000000000004 100000
1.0 0.41494 100000
2.0 0.46932 100000
3.0 0.48732 100000
4.0 0.49679 100000
5.0 0.49843 100000
6.0 0.5 100000
7.0 0.49992 100000
8.0 0.49998 100000
9.0 0.4981 100000
10.0 0.49996 100000
