n_steps logical_error_rate trials
0.0 0.12025 100000
1.0 0.27021999999999996 100000
2.0 0.3628199999999999 100000
3.0 0.41896 100000
4.0 0.44992 100000
5.0 0.46847 100000
6.0 0.48367 100000
7.0 0.49089 100000
8.0 0.49021 100000
9.0 0.49731 100000
10.0 0.49526 100000
