n_steps logical_error_rate trials
0.0 0.0 100000
1.0 0.00015 100000
2.0 0.00093 100000
3.0 0.0021 100000
4.0 0.00326 100000
5.0 0.004659999999999999 100000
6.0 0.00607 100000
7.0 0.00711 100000
8.0 0.0085 100000
9.0 0.00997 100000
10.0 0.01085 100000
