n_steps logical_error_rate trials
0.0 0.00523 100000
1.0 0.04361 100000
2.0 0.08829 100000
3.0 0.13056000000000004 100000
4.0 0.16767 100000
5.0 0.2009 100000
6.0 0.23303 100000
7.0 0.26096 100000
8.0 0.28367 100000
9.0 0.3078199999999999 100000
10.0 0.32677 100000
