n_steps logical_error_rate trials
0.0 0.2189 100000
1.0 0.37815 100000
2.0 0.44843 100000
3.0 0.47616 100000
4.0 0.49271 100000
5.0 0.4964 100000
6.0 0.49828 100000
7.0 0.50159 100000
8.0 0.49613 100000
9.0 0.49939 100000
10.0 0.49818 100000
