n_steps logical_error_rate trials
0.0 0.06048 100000
1.0 0.18358 100000
2.0 0.2749500000000001 100000
3.0 0.33899 100000
4.0 0.38856 100000
5.0 0.42053 100000
6.0 0.44416 100000
7.0 0.46122 100000
8.0 0.46954 100000
9.0 0.47755 100000
10.0 0.48478 100000
