n_steps logical_error_rate trials
0.0 0.20461 100000
1.0 0.32802 250000
2.0 0.398444 250000
3.0 0.439912 250000
4.0 0.46344 250000
5.0 0.47912 250000
6.0 0.487872 250000
7.0 0.495608 250000
8.0 0.496156 250000
9.0 0.49498 250000
10.0 0.498112 250000
