n_steps logical_error_rate trials
0.0 0.07055 100000
1.0 0.20223 100000
2.0 0.2978 100000
3.0 0.36312 100000
4.0 0.40728 100000
5.0 0.43226 100000
6.0 0.45835 100000
7.0 0.47162 100000
8.0 0.48136 100000
9.0 0.487 100000
10.0 0.49397 100000
