n_steps logical_error_rate trials
1.0 0.36115 40000
2.0 0.4375 40000
3.0 0.47185 40000
4.0 0.486275 40000
5.0 0.49725 40000
6.0 0.494175 40000
7.0 0.496925 40000
8.0 0.49735 40000
9.0 0.499225 40000
10.0 0.49635 40000
