n_steps logical_error_rate trials
1.0 0.13273333333333334 60000
2.0 0.1994 60000
3.0 0.2593 60000
4.0 0.30533333333333335 60000
5.0 0.3424 60000
6.0 0.37198333333333333 60000
7.0 0.39268333333333333 60000
8.0 0.41095 60000
9.0 0.42835 60000
10.0 0.44326666666666664 60000
