n_steps logical_error_rate trials
1.0 0.046683333333333334 60000
2.0 0.08568333333333333 60000
3.0 0.12541666666666668 60000
4.0 0.15881666666666666 60000
5.0 0.1954 60000
6.0 0.21951666666666667 60000
7.0 0.24451666666666666 60000
8.0 0.2657999999999999 60000
9.0 0.28795 60000
10.0 0.30496666666666666 60000
