n_steps logical_error_rate trials
1.0 0.4645 150000
2.0 0.4895 150000
3.0 0.49672 150000
4.0 0.49943333333333334 150000
5.0 0.5006733333333334 150000
6.0 0.49756666666666666 150000
7.0 0.5014333333333335 150000
8.0 0.5002933333333334 150000
9.0 0.5022599999999998 150000
10.0 0.5015000000000001 150000
