n_steps logical_error_rate trials
1.0 0.427475 360000
2.0 0.4761138888888889 360000
3.0 0.49196944444444446 360000
4.0 0.4972916666666667 360000
5.0 0.4993444444444444 360000
6.0 0.49906666666666666 360000
7.0 0.49901666666666666 360000
8.0 0.4996527777777778 360000
9.0 0.5000805555555555 360000
10.0 0.49910277777777795 360000
