n_steps logical_error_rate trials
0.0 0.14710000000000004 100000
1.0 0.30291 100000
2.0 0.38938 100000
3.0 0.44406 100000
4.0 0.46809 100000
5.0 0.48166 100000
6.0 0.48977 100000
7.0 0.49292 100000
8.0 0.49744 100000
9.0 0.49606 100000
10.0 0.50088 100000
