n_steps logical_error_rate trials
0.0 0.0005 100000
1.0 0.01094 100000
2.0 0.02889 100000
3.0 0.04933 100000
4.0 0.06802 100000
5.0 0.08537 100000
6.0 0.10378 100000
7.0 0.11982 100000
8.0 0.13316 100000
9.0 0.14994 100000
10.0 0.16381 100000
