n_steps logical_error_rate trials
1.0 0.15431666666666666 60000
2.0 0.23248333333333332 60000
3.0 0.28883333333333333 60000
4.0 0.3354 60000
5.0 0.3715333333333333 60000
6.0 0.3991 60000
7.0 0.4233 60000
8.0 0.43985 60000
9.0 0.4525666666666667 60000
10.0 0.45991666666666664 60000
