n_steps logical_error_rate trials
1.0 0.29251666666666665 60000
2.0 0.38025 60000
3.0 0.43311666666666665 60000
4.0 0.4625 60000
5.0 0.47768333333333335 60000
6.0 0.4861666666666667 60000
7.0 0.48951666666666666 60000
8.0 0.49871666666666664 60000
9.0 0.4985 60000
10.0 0.5002 60000
