n_steps logical_error_rate trials
1.0 0.007583333333333333 60000
2.0 0.017966666666666666 60000
3.0 0.028416666666666666 60000
4.0 0.037866666666666667 60000
5.0 0.0461 60000
6.0 0.0573 60000
7.0 0.06675 60000
8.0 0.07465 60000
9.0 0.08106666666666666 60000
10.0 0.09145 60000
