n_steps logical_error_rate trials
1.0 0.4362666666666667 150000
2.0 0.4771533333333333 150000
3.0 0.49138 150000
4.0 0.49911333333333335 150000
5.0 0.4996866666666668 150000
6.0 0.4999133333333333 150000
7.0 0.49932666666666664 150000
8.0 0.5002466666666666 150000
9.0 0.5005933333333334 150000
10.0 0.5 150000
