n_steps logical_error_rate trials
1.0 0.0 120000
2.0 0.0 120000
3.0 0.00010833333333333333 120000
4.0 0.00024999999999999995 120000
5.0 0.00104 100000
6.0 0.002616666666666667 60000
7.0 0.0047666666666666664 60000
8.0 0.006883333333333333 60000
9.0 0.0101 60000
10.0 0.015583333333333333 60000
