n_steps logical_error_rate trials
1.0 1.6666666666666667e-05 60000
2.0 6.666666666666666e-05 60000
3.0 0.00013333333333333334 60000
4.0 0.00011666666666666665 60000
5.0 0.00011666666666666665 60000
6.0 0.0003 60000
7.0 0.00021666666666666663 60000
8.0 0.00046666666666666666 60000
9.0 0.0005666666666666667 60000
10.0 0.0005833333333333332 60000
