n_steps logical_error_rate trials
1.0 0.00221 100000
2.0 0.00778 100000
3.0 0.01513 100000
4.0 0.02147 100000
5.0 0.02916 100000
6.0 0.03522 100000
7.0 0.04221 100000
8.0 0.05106 100000
9.0 0.05781 100000
10.0 0.06321 100000
0.0 0.00019999999999999996 100000
