n_steps logical_error_rate trials
1.0 0.16076 50000
2.0 0.2513 50000
3.0 0.32176 50000
5.0 0.40458 50000
4.0 0.36446 50000
6.0 0.43386 50000
7.0 0.45152 50000
8.0 0.46362 50000
9.0 0.47462 50000
10.0 0.48208 50000
