n_steps logical_error_rate trials
1.0 0.03671666666666667 180000
2.0 0.08750555555555557 180000
3.0 0.13948333333333335 180000
4.0 0.18618888888888888 180000
5.0 0.22609444444444443 180000
6.0 0.26380555555555557 180000
7.0 0.29485555555555554 180000
8.0 0.32322222222222224 180000
9.0 0.34376111111111113 180000
10.0 0.36351666666666665 180000
