n_steps logical_error_rate trials
1.0 0.2054 50000
2.0 0.29746 50000
5.0 0.44144 50000
3.0 0.36248 50000
4.0 0.40776 50000
6.0 0.45378 50000
7.0 0.47264 50000
10.0 0.4934 50000
8.0 0.47696 50000
9.0 0.4849 50000
