n_steps logical_error_rate trials
1.0 1.6666666666666667e-05 60000
2.0 0.0003333333333333333 60000
3.0 0.0016333333333333334 60000
4.0 0.0044666666666666665 60000
5.0 0.009333333333333334 60000
6.0 0.016349999999999996 60000
7.0 0.025683333333333332 60000
8.0 0.034616666666666664 60000
9.0 0.045816666666666665 60000
10.0 0.0566 60000
