n_steps logical_error_rate trials
0.0 0.20984 100000
1.0 0.3762 100000
2.0 0.44711 100000
3.0 0.47843 100000
4.0 0.49209 100000
5.0 0.49391 100000
6.0 0.49943 100000
7.0 0.49431 100000
8.0 0.50006 100000
9.0 0.50211 100000
10.0 0.49990000000000007 100000
