n_steps logical_error_rate trials
1.0 0.4010533333333333 150000
2.0 0.45552 150000
3.0 0.4797666666666667 150000
4.0 0.4928533333333333 150000
5.0 0.49612666666666666 150000
6.0 0.5004600000000001 150000
7.0 0.5004200000000001 150000
8.0 0.5010533333333331 150000
9.0 0.49877333333333335 150000
10.0 0.5005733333333334 150000
