n_steps logical_error_rate trials
1.0 0.34223333333333333 60000
2.0 0.42033333333333334 60000
3.0 0.46341666666666664 60000
4.0 0.48488333333333333 60000
5.0 0.4946333333333333 60000
6.0 0.49945 60000
7.0 0.49725 60000
8.0 0.5006 60000
9.0 0.4983166666666667 60000
10.0 0.49778333333333336 60000
