n_steps logical_error_rate trials
1.0 0.43792894736842103 380000
2.0 0.4810657894736842 380000
3.0 0.4938026315789474 380000
4.0 0.4998605263157895 380000
5.0 0.4994605263157896 380000
6.0 0.49861578947368423 380000
7.0 0.4987552631578948 380000
8.0 0.4993184210526316 380000
9.0 0.49968157894736825 380000
10.0 0.5015657894736842 380000
