n_steps logical_error_rate trials
1.0 0.032499999999999994 6000
2.0 0.06883333333333333 6000
3.0 0.11283333333333333 6000
4.0 0.15 6000
5.0 0.1805 6000
6.0 0.20666666666666667 6000
7.0 0.246 6000
8.0 0.2631666666666666 6000
9.0 0.27516666666666667 6000
10.0 0.30616666666666675 6000
