n_steps logical_error_rate trials
1.0 0.4527342105263158 380000
2.0 0.4873157894736842 380000
3.0 0.4972078947368421 380000
4.0 0.49894473684210533 380000
5.0 0.500615789473684 380000
6.0 0.4996631578947369 380000
7.0 0.5002736842105263 380000
8.0 0.5003947368421054 380000
9.0 0.49927894736842104 380000
10.0 0.501357894736842 380000
