n_steps logical_error_rate trials
1.0 0.24920000000000003 100000
2.0 0.33907 100000
3.0 0.39787 100000
4.0 0.43563 100000
5.0 0.46 100000
6.0 0.4759 100000
7.0 0.48336 100000
8.0 0.49136 100000
9.0 0.49419 100000
10.0 0.49644 100000
