n_steps logical_error_rate trials
0.0 0.16553999999999996 100000
1.0 0.27497 100000
2.0 0.3522 100000
3.0 0.40023 100000
4.0 0.43424 100000
5.0 0.45559 100000
6.0 0.46983 100000
7.0 0.48221 100000
8.0 0.48739 100000
9.0 0.49329 100000
10.0 0.4929 100000
