n_steps logical_error_rate trials
0.0 0.004330000000000001 100000
1.0 0.008979999999999998 100000
2.0 0.01269 100000
3.0 0.01752 100000
4.0 0.02107 100000
5.0 0.02533 100000
6.0 0.02887 100000
7.0 0.03345999999999999 100000
8.0 0.03769 100000
9.0 0.04175 100000
10.0 0.04509 100000
