n_steps logical_error_rate trials
1.0 0.05623333333333334 60000
2.0 0.10133333333333333 60000
3.0 0.14275000000000004 60000
4.0 0.18138333333333334 60000
5.0 0.21225 60000
6.0 0.24191666666666667 60000
7.0 0.2649333333333333 60000
8.0 0.28933333333333333 60000
9.0 0.31071666666666664 60000
10.0 0.33086666666666664 60000
