n_steps logical_error_rate trials
0.0 0.2908300000000001 100000
1.0 0.43106 100000
2.0 0.47822 100000
3.0 0.4939 100000
4.0 0.49615 100000
5.0 0.5006900000000001 100000
6.0 0.50139 100000
7.0 0.5023 100000
8.0 0.501 100000
9.0 0.49739 100000
10.0 0.50087 100000
