n_steps logical_error_rate trials
0.0 0.16012 100000
1.0 0.26718 100000
2.0 0.34245 100000
3.0 0.39427 100000
4.0 0.42725 100000
5.0 0.45002 100000
6.0 0.46611 100000
7.0 0.47413 100000
8.0 0.4865 100000
9.0 0.48795 100000
10.0 0.4927 100000
