n_steps logical_error_rate trials
1.0 0.007 60000
2.0 0.026716666666666666 60000
3.0 0.054516666666666665 60000
4.0 0.0865 60000
5.0 0.1156 60000
6.0 0.1472 60000
7.0 0.1777 60000
8.0 0.2003 60000
9.0 0.22481666666666666 60000
10.0 0.24776666666666666 60000
