n_steps logical_error_rate trials
1.0 0.2406 50000
2.0 0.33516 50000
3.0 0.39844 50000
6.0 0.4714 50000
4.0 0.43572 50000
5.0 0.45798 50000
9.0 0.49218 50000
7.0 0.4841 50000
8.0 0.4911 50000
10.0 0.5005599999999999 50000
