n_steps logical_error_rate trials
0.0 0.11388 100000
1.0 0.27162000000000003 100000
2.0 0.36236 100000
3.0 0.42421 100000
4.0 0.4503 100000
5.0 0.47082 100000
6.0 0.48841 100000
7.0 0.49392 100000
8.0 0.49338 100000
9.0 0.49809 100000
10.0 0.5020400000000002 100000
