n_steps logical_error_rate trials
0.0 0.18502 100000
1.0 0.35504 100000
2.0 0.43091 100000
3.0 0.46469 100000
4.0 0.48202 100000
5.0 0.49181 100000
6.0 0.49555 100000
7.0 0.49713 100000
8.0 0.5011099999999999 100000
9.0 0.49984000000000006 100000
10.0 0.49894 100000
