n_steps logical_error_rate trials
0.0 0.08827 100000
1.0 0.23388 100000
2.0 0.32837 100000
3.0 0.38993 100000
4.0 0.42884 100000
5.0 0.45352 100000
6.0 0.47228 100000
7.0 0.47999 100000
8.0 0.48574 100000
9.0 0.49359 100000
10.0 0.49549 100000
