n_steps logical_error_rate trials
1.0 0.0 50000
2.0 0.00016 50000
3.0 0.00034 50000
5.0 0.00102 50000
4.0 0.0007 50000
6.0 0.0015 50000
10.0 0.00306 50000
7.0 0.00182 50000
8.0 0.00214 50000
9.0 0.00268 50000
