n_steps logical_error_rate trials
1.0 0.0 200000
2.0 0.0 200000
3.0 0.0 200000
4.0 6.5e-05 200000
5.0 0.0003149999999999999 200000
6.0 0.0008 200000
7.0 0.00162 200000
8.0 0.003075 200000
9.0 0.004945 200000
10.0 0.00778 200000
