n_steps logical_error_rate trials
1.0 0.07443 100000
2.0 0.14624 100000
3.0 0.20589 100000
4.0 0.25939 100000
5.0 0.2985 100000
6.0 0.33258 100000
7.0 0.35964 100000
8.0 0.38824 100000
9.0 0.40911 100000
10.0 0.42169 100000
