n_steps logical_error_rate trials
1.0 0.00012999999999999996 200000
2.0 0.001515 200000
3.0 0.005625 200000
4.0 0.013515 200000
5.0 0.024075 200000
6.0 0.03658999999999999 200000
7.0 0.05086 200000
8.0 0.06419 200000
9.0 0.08082999999999999 200000
10.0 0.09524 200000
