n_steps logical_error_rate trials
1.0 0.030195 200000
2.0 0.07741 200000
3.0 0.12672000000000003 200000
4.0 0.17198999999999998 200000
5.0 0.210905 200000
6.0 0.247825 200000
7.0 0.2802550000000001 200000
8.0 0.3070549999999999 200000
9.0 0.33084 200000
10.0 0.350795 200000
