n_steps logical_error_rate trials
0.0 0.06469 100000
1.0 0.19327 100000
2.0 0.28716 100000
3.0 0.352 100000
4.0 0.39893 100000
5.0 0.42808 100000
6.0 0.45164 100000
7.0 0.46541 100000
8.0 0.47448 100000
9.0 0.48322 100000
10.0 0.49185 100000
