n_steps logical_error_rate trials
1.0 0.3315 60000
2.0 0.41581666666666667 60000
3.0 0.46016666666666667 60000
4.0 0.47868333333333335 60000
5.0 0.4895333333333333 60000
6.0 0.49523333333333336 60000
7.0 0.49456666666666665 60000
8.0 0.49971666666666664 60000
9.0 0.4996333333333333 60000
10.0 0.50165 60000
