n_steps logical_error_rate trials
1.0 0.3738666666666667 60000
2.0 0.44055 60000
3.0 0.47346666666666665 60000
4.0 0.48736666666666667 60000
5.0 0.49871666666666664 60000
6.0 0.49961666666666665 60000
7.0 0.4993666666666667 60000
8.0 0.49788333333333334 60000
9.0 0.5007666666666667 60000
10.0 0.49986666666666674 60000
