n_steps logical_error_rate trials
1.0 0.0 200000
2.0 3.5e-05 200000
3.0 0.00015499999999999997 200000
4.0 0.001045 200000
5.0 0.0024899999999999996 200000
6.0 0.00501 200000
7.0 0.00899 200000
8.0 0.01385 200000
9.0 0.02005 200000
10.0 0.02709 200000
