n_steps logical_error_rate trials
1.0 0.4245394736842106 380000
2.0 0.4734078947368421 380000
3.0 0.4894552631578947 380000
4.0 0.4980921052631579 380000
5.0 0.4996342105263158 380000
6.0 0.49827105263157895 380000
7.0 0.5012552631578947 380000
8.0 0.5000289473684212 380000
9.0 0.4996684210526316 380000
10.0 0.4999605263157894 380000
