n_steps logical_error_rate trials
1.0 0.2111888888888889 180000
2.0 0.3018388888888889 180000
3.0 0.3676055555555556 180000
4.0 0.41105 180000
5.0 0.4399 180000
6.0 0.4608888888888889 180000
7.0 0.47220555555555555 180000
8.0 0.48046666666666665 180000
9.0 0.4859 180000
10.0 0.49328333333333335 180000
