n_steps logical_error_rate trials
1.0 0.00072 50000
3.0 0.00652 50000
2.0 0.00344 50000
5.0 0.01314 50000
4.0 0.00964 50000
6.0 0.0168 50000
9.0 0.02784 50000
7.0 0.02036 50000
8.0 0.02374 50000
10.0 0.03064 50000
