n_steps logical_error_rate trials
0.0 0.05783 100000
1.0 0.11339 100000
2.0 0.15535 100000
3.0 0.19871 100000
4.0 0.23382 100000
5.0 0.2660599999999999 100000
6.0 0.29254 100000
7.0 0.31677 100000
8.0 0.34103000000000006 100000
9.0 0.35886 100000
10.0 0.37454 100000
