n_steps logical_error_rate trials
1.0 0.00392 50000
2.0 0.01162 50000
4.0 0.03016 50000
3.0 0.02146 50000
5.0 0.03936 50000
10.0 0.08456 50000
6.0 0.04982 50000
7.0 0.05964 50000
8.0 0.07022 50000
9.0 0.0749 50000
