n_steps logical_error_rate trials
1.0 0.029266666666666667 60000
2.0 0.07771666666666667 60000
3.0 0.12571666666666667 60000
4.0 0.17185 60000
5.0 0.21245 60000
6.0 0.24716666666666667 60000
7.0 0.27853333333333335 60000
8.0 0.30505 60000
9.0 0.3320666666666667 60000
10.0 0.35351666666666665 60000
