n_steps logical_error_rate trials
0.0 0.29904 100000
1.0 0.43774 100000
2.0 0.48073 100000
3.0 0.49657 100000
4.0 0.50052 100000
5.0 0.50029 100000
6.0 0.50084 100000
7.0 0.49851 100000
8.0 0.49939 100000
9.0 0.49667 100000
10.0 0.49774 100000
