n_steps logical_error_rate trials
1.0 0.17301 100000
2.0 0.26260000000000006 100000
3.0 0.33367 100000
4.0 0.37772 100000
5.0 0.4111 100000
6.0 0.43462 100000
7.0 0.4568 100000
8.0 0.46889 100000
9.0 0.47673 100000
10.0 0.47947 100000
