n_steps logical_error_rate trials
0.0 0.03469 100000
1.0 0.13524000000000003 100000
2.0 0.22196 100000
3.0 0.29006999999999994 100000
4.0 0.34168999999999994 100000
5.0 0.37963 100000
6.0 0.40619 100000
7.0 0.43017 100000
8.0 0.44439 100000
9.0 0.46231 100000
10.0 0.47281 100000
