n_steps logical_error_rate trials
1.0 0.00021666666666666666 60000
2.0 0.00018333333333333334 60000
3.0 0.0002666666666666666 60000
4.0 0.0006 60000
5.0 0.0006666666666666666 60000
6.0 0.0007833333333333334 60000
7.0 0.00075 60000
8.0 0.0007333333333333333 60000
9.0 0.0009166666666666666 60000
10.0 0.00105 60000
