n_steps logical_error_rate trials
0.0 0.04933 100000
1.0 0.16592000000000004 100000
2.0 0.2525800000000001 100000
3.0 0.31857 100000
4.0 0.3669299999999999 100000
5.0 0.40363 100000
6.0 0.42875 100000
7.0 0.44454 100000
8.0 0.46101 100000
9.0 0.47233 100000
10.0 0.47969 100000
