n_steps logical_error_rate trials
0.0 0.17722000000000004 100000
1.0 0.29469999999999996 100000
2.0 0.36986 100000
3.0 0.41704 100000
4.0 0.44723 100000
5.0 0.46531 100000
6.0 0.47863 100000
7.0 0.48515 100000
8.0 0.4906 100000
9.0 0.49817 100000
10.0 0.49899 100000
