n_steps logical_error_rate trials
1.0 0.34742 50000
2.0 0.42912 50000
5.0 0.49558 50000
3.0 0.46534 50000
4.0 0.48352 50000
6.0 0.4965 50000
8.0 0.49974 50000
9.0 0.50918 50000
7.0 0.49732 50000
10.0 0.49938 50000
