n_steps logical_error_rate trials
1.0 0.2854333333333333 60000
2.0 0.37483333333333335 60000
3.0 0.4251666666666667 60000
5.0 0.47305 60000
4.0 0.4550166666666667 60000
7.0 0.4902666666666667 60000
6.0 0.48596666666666666 60000
8.0 0.4892666666666667 60000
9.0 0.49851666666666666 60000
10.0 0.49595 60000
