n_steps logical_error_rate trials
1.0 0.22648333333333334 60000
2.0 0.31338333333333335 60000
3.0 0.37633333333333335 60000
4.0 0.4137166666666667 60000
5.0 0.44443333333333335 60000
7.0 0.47485 60000
6.0 0.46095 60000
8.0 0.48706666666666665 60000
9.0 0.48715 60000
10.0 0.4928666666666667 60000
