n_steps logical_error_rate trials
1.0 0.000885 200000
2.0 0.00692 200000
3.0 0.019319999999999997 200000
4.0 0.03665500000000001 200000
5.0 0.05719 200000
6.0 0.07786000000000003 200000
7.0 0.09868 200000
8.0 0.12123 200000
9.0 0.140995 200000
10.0 0.160615 200000
