n_steps logical_error_rate trials
1.0 0.19344 100000
2.0 0.28744 100000
3.0 0.34988 100000
4.0 0.39541 100000
5.0 0.42924 100000
6.0 0.45063 100000
7.0 0.4645 100000
8.0 0.47463 100000
9.0 0.48192 100000
10.0 0.48622 100000
