n_steps logical_error_rate trials
2.0 0.38854 50000
1.0 0.30158 50000
4.0 0.46074 50000
3.0 0.43492 50000
6.0 0.48824 50000
5.0 0.48094 50000
7.0 0.49316 50000
8.0 0.49842 50000
9.0 0.50136 50000
10.0 0.49658 50000
