n_steps logical_error_rate trials
1.0 0.11666666666666667 3000
2.0 0.207 3000
3.0 0.27166666666666667 3000
4.0 0.32233333333333336 3000
5.0 0.367 3000
6.0 0.38966666666666666 3000
7.0 0.4 3000
8.0 0.42 3000
9.0 0.434 3000
10.0 0.454 3000
