n_steps logical_error_rate trials
1.0 0.44121315789473686 380000
2.0 0.48253684210526315 380000
3.0 0.49491842105263156 380000
4.0 0.4982605263157895 380000
5.0 0.5003552631578947 380000
6.0 0.5001263157894736 380000
7.0 0.49908157894736843 380000
8.0 0.5001789473684212 380000
9.0 0.4997710526315788 380000
10.0 0.49979473684210524 380000
