n_steps logical_error_rate trials
1.0 0.33576666666666666 60000
2.0 0.4119 60000
3.0 0.45876666666666666 60000
4.0 0.4813 60000
5.0 0.4903666666666667 60000
8.0 0.4970833333333333 60000
6.0 0.4933166666666667 60000
7.0 0.49846666666666667 60000
9.0 0.5000666666666667 60000
10.0 0.4961 60000
