n_steps logical_error_rate trials
0.0 0.0265 100000
1.0 0.05124 100000
2.0 0.07523 100000
3.0 0.09696 100000
4.0 0.11881 100000
5.0 0.14233 100000
6.0 0.16079000000000002 100000
7.0 0.17988 100000
8.0 0.19622 100000
9.0 0.21234 100000
10.0 0.22664 100000
