n_steps logical_error_rate trials
1.0 0.00023 100000
2.0 0.0010199999999999999 100000
3.0 0.00219 100000
4.0 0.00306 100000
5.0 0.0044399999999999995 100000
6.0 0.00565 100000
7.0 0.00723 100000
8.0 0.00828 100000
9.0 0.01002 100000
10.0 0.01065 100000
0.0 0.0 100000
