n_steps logical_error_rate trials
1.0 0.3811866666666667 150000
2.0 0.4410133333333333 150000
3.0 0.47136 150000
4.0 0.4868 150000
5.0 0.49252666666666667 150000
6.0 0.49674 150000
7.0 0.49946 150000
8.0 0.4979 150000
9.0 0.5011666666666666 150000
10.0 0.4989266666666667 150000
