n_steps logical_error_rate trials
1.0 0.16397 100000
2.0 0.25387 100000
3.0 0.32161 100000
4.0 0.3717 100000
5.0 0.4042 100000
6.0 0.43024 100000
7.0 0.44834 100000
8.0 0.4613 100000
9.0 0.47178 100000
10.0 0.47965 100000
