n_steps logical_error_rate trials
1.0 0.15458333333333332 60000
2.0 0.22818333333333332 60000
3.0 0.2883 60000
4.0 0.33421666666666666 60000
7.0 0.4174333333333333 60000
5.0 0.36933333333333335 60000
6.0 0.40063333333333334 60000
8.0 0.4377333333333333 60000
10.0 0.4597833333333333 60000
9.0 0.4520166666666667 60000
