n_steps logical_error_rate trials
1.0 0.36658125 160000
2.0 0.4369875 160000
3.0 0.47428125 160000
6.0 0.49829375 160000
4.0 0.48725 160000
5.0 0.49584375 160000
8.0 0.49938125 160000
9.0 0.4999624999999999 160000
7.0 0.49869375 160000
10.0 0.5003937499999999 160000
0.0 0.20421 100000
