n_steps logical_error_rate trials
0.0 0.31068 100000
1.0 0.44687 100000
2.0 0.48723 100000
3.0 0.49564 100000
4.0 0.49909 100000
5.0 0.50028 100000
6.0 0.49864 100000
7.0 0.5012699999999999 100000
8.0 0.50023 100000
9.0 0.49786 100000
10.0 0.5012200000000001 100000
