n_steps logical_error_rate trials
0.0 0.24339 100000
1.0 0.4019 100000
2.0 0.46169 100000
3.0 0.48481 100000
4.0 0.49741 100000
5.0 0.49603 100000
6.0 0.49999000000000005 100000
7.0 0.4998 100000
8.0 0.49974 100000
9.0 0.49827 100000
10.0 0.49984 100000
