n_steps logical_error_rate trials
1.0 0.10288333333333333 60000
2.0 0.1603 60000
3.0 0.21365 60000
4.0 0.25610000000000005 60000
7.0 0.3488 60000
5.0 0.29465 60000
6.0 0.3239666666666667 60000
8.0 0.37365 60000
9.0 0.3920666666666667 60000
10.0 0.4081166666666667 60000
