n_steps logical_error_rate trials
0.0 0.08784 100000
1.0 0.22513 100000
2.0 0.32161000000000006 100000
3.0 0.38473 100000
4.0 0.42525 100000
5.0 0.44937 100000
6.0 0.46831 100000
7.0 0.48062 100000
8.0 0.48353 100000
9.0 0.49131 100000
10.0 0.49697 100000
