n_steps logical_error_rate trials
1.0 0.1606 60000
2.0 0.24698333333333333 60000
3.0 0.3128 60000
4.0 0.3593 60000
5.0 0.3975166666666667 60000
6.0 0.42425 60000
7.0 0.4403166666666667 60000
8.0 0.45885 60000
9.0 0.4673833333333333 60000
10.0 0.475 60000
