n_steps logical_error_rate trials
1.0 0.0008166666666666667 60000
2.0 0.0011 60000
3.0 0.00145 60000
4.0 0.0018166666666666667 60000
5.0 0.00245 60000
6.0 0.00275 60000
7.0 0.0029666666666666665 60000
8.0 0.003683333333333333 60000
9.0 0.0037 60000
10.0 0.004333333333333333 60000
