n_steps logical_error_rate trials
0.0 0.07085000000000001 100000
1.0 0.20134 100000
2.0 0.2979400000000001 100000
3.0 0.36437 100000
4.0 0.40907 100000
5.0 0.44029 100000
6.0 0.45578 100000
7.0 0.47288 100000
8.0 0.47386 100000
9.0 0.48691 100000
10.0 0.48828 100000
