n_steps logical_error_rate trials
1.0 0.022833333333333334 60000
2.0 0.04635 60000
3.0 0.06799999999999999 60000
4.0 0.08906666666666667 60000
5.0 0.11141666666666666 60000
6.0 0.12946666666666667 60000
7.0 0.14999999999999997 60000
8.0 0.16925 60000
9.0 0.18211666666666668 60000
10.0 0.20146666666666666 60000
