n_steps logical_error_rate trials
1.0 0.28676 100000
2.0 0.37513 100000
3.0 0.42679 100000
4.0 0.4575 100000
5.0 0.47529 100000
6.0 0.48754 100000
7.0 0.49127 100000
8.0 0.49621 100000
9.0 0.49614 100000
10.0 0.49755 100000
