n_steps logical_error_rate trials
1.0 0.4117447368421053 380000
2.0 0.46664736842105264 380000
3.0 0.4870184210526316 380000
4.0 0.49645526315789473 380000
5.0 0.4995131578947367 380000
6.0 0.5005315789473687 380000
7.0 0.49877105263157895 380000
8.0 0.5012815789473684 380000
9.0 0.5008052631578942 380000
10.0 0.4995947368421051 380000
