n_steps logical_error_rate trials
0.0 0.36029 100000
1.0 0.47324 100000
2.0 0.49678 100000
3.0 0.5003899999999999 100000
4.0 0.50016 100000
5.0 0.4995 100000
6.0 0.49928 100000
7.0 0.49756 100000
8.0 0.49921999999999994 100000
9.0 0.49779 100000
10.0 0.50083 100000
