n_steps logical_error_rate trials
1.0 0.43512368421052633 380000
2.0 0.4795763157894737 380000
3.0 0.49345 380000
4.0 0.4970684210526316 380000
5.0 0.49824473684210524 380000
6.0 0.4999368421052632 380000
7.0 0.4995921052631579 380000
8.0 0.49976578947368444 380000
9.0 0.49983421052631577 380000
10.0 0.49970526315789476 380000
