n_steps logical_error_rate trials
0.0 0.09409 100000
1.0 0.16976 100000
2.0 0.23094 100000
3.0 0.28489000000000003 100000
4.0 0.32385 100000
5.0 0.35777 100000
6.0 0.38332 100000
7.0 0.40847 100000
8.0 0.42156 100000
9.0 0.43896 100000
10.0 0.45252 100000
