n_steps logical_error_rate trials
1.0 0.11966 50000
2.0 0.20654 50000
5.0 0.35722 50000
3.0 0.2673 50000
4.0 0.3215 50000
9.0 0.44406 50000
6.0 0.38691999999999993 50000
7.0 0.41458 50000
8.0 0.43104 50000
10.0 0.45808 50000
