n_steps logical_error_rate trials
1.0 0.37248 50000
4.0 0.4867 50000
2.0 0.44188 50000
3.0 0.47604 50000
5.0 0.49856 50000
6.0 0.49882 50000
7.0 0.4963 50000
9.0 0.5020199999999999 50000
8.0 0.5001 50000
10.0 0.49902 50000
