n_steps logical_error_rate trials
0.0 0.08144000000000001 100000
1.0 0.22176 100000
2.0 0.31797 100000
3.0 0.38121 100000
4.0 0.42408 100000
5.0 0.45177 100000
6.0 0.46849 100000
7.0 0.48202 100000
8.0 0.4863 100000
9.0 0.49017 100000
10.0 0.49285 100000
