n_steps logical_error_rate trials
0.0 0.19946 100000
1.0 0.37219 100000
2.0 0.43387 100000
3.0 0.47669 100000
4.0 0.48743 100000
5.0 0.49426 100000
6.0 0.49664 100000
7.0 0.50264 100000
8.0 0.50013 100000
9.0 0.50019 100000
10.0 0.5008 100000
