n_steps logical_error_rate trials
1.0 0.22486666666666666 60000
2.0 0.31538333333333335 60000
3.0 0.37853333333333333 60000
4.0 0.41741666666666666 60000
5.0 0.44558333333333333 60000
6.0 0.4678 60000
7.0 0.4798 60000
8.0 0.4843 60000
9.0 0.4903666666666667 60000
10.0 0.49435 60000
