n_steps logical_error_rate trials
1.0 0.0742 60000
2.0 0.11985 60000
4.0 0.19645 60000
3.0 0.16043333333333334 60000
7.0 0.2893833333333333 60000
5.0 0.23303333333333334 60000
6.0 0.2652166666666667 60000
10.0 0.35386666666666666 60000
8.0 0.31593333333333334 60000
9.0 0.33455 60000
