n_steps logical_error_rate trials
1.0 0.05085 100000
2.0 0.11119 100000
3.0 0.1654 100000
4.0 0.21599 100000
5.0 0.25815999999999995 100000
6.0 0.29204 100000
7.0 0.32466 100000
8.0 0.35107 100000
9.0 0.37336 100000
10.0 0.38927 100000
