n_steps logical_error_rate trials
1.0 0.02423 100000
2.0 0.05577 100000
3.0 0.08534 100000
4.0 0.11514 100000
5.0 0.13864 100000
6.0 0.16432 100000
7.0 0.18666 100000
8.0 0.21008 100000
9.0 0.22881 100000
10.0 0.24841 100000
0.0 0.00189 100000
