n_steps logical_error_rate trials
1.0 0.00566 50000
2.0 0.01624 50000
3.0 0.02904 50000
5.0 0.05346 50000
4.0 0.03998 50000
9.0 0.09472 50000
6.0 0.06512 50000
7.0 0.07774 50000
8.0 0.08952 50000
10.0 0.11226 50000
