n_steps logical_error_rate trials
1.0 0.0 50000
2.0 0.0 50000
3.0 0.0 50000
5.0 2e-05 50000
4.0 2e-05 50000
7.0 0.00011999999999999998 50000
6.0 7.999999999999999e-05 50000
8.0 0.00015999999999999999 50000
10.0 0.0001 50000
9.0 0.00016 50000
