n_steps logical_error_rate trials
1.0 0.27695 60000
2.0 0.36595 60000
3.0 0.41863333333333336 60000
4.0 0.44685 60000
6.0 0.4826 60000
5.0 0.46923333333333334 60000
7.0 0.48773333333333335 60000
8.0 0.4941333333333333 60000
9.0 0.49945 60000
10.0 0.4981833333333333 60000
