n_steps logical_error_rate trials
0.0 0.10761 100000
1.0 0.25272 100000
2.0 0.34814 100000
3.0 0.40573 100000
4.0 0.44295 100000
5.0 0.46419 100000
6.0 0.4771 100000
7.0 0.48602 100000
8.0 0.48878 100000
9.0 0.49351 100000
10.0 0.49693 100000
