n_steps logical_error_rate trials
1.0 0.42811333333333335 150000
2.0 0.4723866666666667 150000
3.0 0.4915933333333333 150000
4.0 0.4951933333333333 150000
5.0 0.49734666666666666 150000
6.0 0.5003533333333333 150000
7.0 0.4994133333333333 150000
8.0 0.49943333333333334 150000
9.0 0.5001333333333333 150000
10.0 0.5008666666666667 150000
