n_steps logical_error_rate trials
1.0 0.21783333333333332 60000
3.0 0.36151666666666665 60000
2.0 0.3036333333333333 60000
4.0 0.4079 60000
6.0 0.45826666666666666 60000
5.0 0.4362 60000
7.0 0.46986666666666665 60000
10.0 0.4902 60000
8.0 0.4777666666666667 60000
9.0 0.4848 60000
