n_steps logical_error_rate trials
1.0 6.666666666666666e-05 60000
2.0 3.3333333333333335e-05 60000
3.0 0.00011666666666666665 60000
4.0 0.00011666666666666665 60000
5.0 0.00016666666666666666 60000
6.0 0.00021666666666666666 60000
7.0 0.00021666666666666663 60000
8.0 0.00023333333333333333 60000
9.0 0.00031666666666666665 60000
10.0 0.0002666666666666667 60000
