n_steps logical_error_rate trials
0.0 0.01104 100000
1.0 0.06617 100000
2.0 0.12716000000000002 100000
3.0 0.17669 100000
4.0 0.22176 100000
5.0 0.26121 100000
6.0 0.29364000000000007 100000
7.0 0.3226599999999999 100000
8.0 0.34599 100000
9.0 0.37013 100000
10.0 0.38947 100000
