n_steps logical_error_rate trials
0.0 0.27021 100000
1.0 0.42557 100000
2.0 0.474 100000
3.0 0.49086 100000
4.0 0.4984 100000
5.0 0.50212 100000
6.0 0.49812 100000
7.0 0.49975 100000
8.0 0.5007 100000
9.0 0.49933 100000
10.0 0.50211 100000
