n_steps logical_error_rate trials
1.0 0.32043333333333335 60000
2.0 0.40521666666666667 60000
3.0 0.445 60000
6.0 0.4866666666666667 60000
4.0 0.47086666666666666 60000
5.0 0.4842666666666667 60000
9.0 0.5007666666666667 60000
7.0 0.49583333333333335 60000
8.0 0.49765 60000
10.0 0.50255 60000
