n_steps logical_error_rate trials
1.0 0.00078 100000
2.0 0.00296 100000
3.0 0.00661 100000
4.0 0.01044 100000
5.0 0.01378 100000
6.0 0.01658 100000
7.0 0.019950000000000002 100000
8.0 0.023019999999999995 100000
9.0 0.02705 100000
10.0 0.03026 100000
0.0 0.0 100000
