n_steps logical_error_rate trials
1.0 0.37281333333333333 150000
2.0 0.43766666666666665 150000
3.0 0.4664066666666667 150000
4.0 0.48385333333333336 150000
5.0 0.4949733333333333 150000
6.0 0.49524666666666667 150000
7.0 0.4976466666666667 150000
8.0 0.49866 150000
9.0 0.5030066666666665 150000
10.0 0.5007066666666665 150000
