n_steps logical_error_rate trials
1.0 0.2456 60000
2.0 0.34213333333333334 60000
3.0 0.39813333333333334 60000
4.0 0.43555 60000
5.0 0.45886666666666664 60000
6.0 0.47558333333333336 60000
7.0 0.48046666666666665 60000
8.0 0.4916833333333333 60000
9.0 0.4929 60000
10.0 0.49748333333333333 60000
