n_steps logical_error_rate trials
1.0 0.05792 50000
2.0 0.1115 50000
3.0 0.16172 50000
5.0 0.23826 50000
4.0 0.20242 50000
8.0 0.32582 50000
6.0 0.27072 50000
7.0 0.30502 50000
9.0 0.35038 50000
10.0 0.36706 50000
