n_steps logical_error_rate trials
1.0 0.11648 50000
2.0 0.19076 50000
4.0 0.30626 50000
3.0 0.2531 50000
5.0 0.3452 50000
6.0 0.37192 50000
8.0 0.4227 50000
7.0 0.39972 50000
9.0 0.43952 50000
10.0 0.44562 50000
