n_steps logical_error_rate trials
1.0 0.00065 60000
2.0 0.0011166666666666666 60000
3.0 0.0023 60000
4.0 0.003 60000
5.0 0.00345 60000
9.0 0.007316666666666667 60000
6.0 0.00415 60000
7.0 0.005683333333333334 60000
8.0 0.006216666666666666 60000
10.0 0.008233333333333334 60000
